digraph {
  rankdir=LR;  node [shape=box];  graph [fontname = "helvetica"]  node [fontname = "helvetica"]  edge [fontname = "helvetica"]    "0: WeCat3dLeftInside Resampler " [shape=doubleoctagon, style="filled,solid",fillcolor="#F2E6F2", label="WeCat3dLeftInside Resampler ", tooltip="WeCat3d Resampler"];
    "ln@Time(F64) " [tooltip="ln, Travelled distance", shape=oval, style="filled,solid,bold", fillcolor="#E6E6E6"];
    "WeCat3dLeftInside:Points:0(WeCat3dPoints) " [tooltip="RailProfileLeftInside, Rail profiles left inside trolley side", shape=rectangle, style="filled,solid", fillcolor="#FFE6FF"];
    "1: WeCat3dRightInside Resampler " [shape=doubleoctagon, style="filled,solid",fillcolor="#F2E6F2", label="WeCat3dRightInside Resampler ", tooltip="WeCat3d Resampler"];
    "ln@Time(F64) " [tooltip="ln, Travelled distance", shape=oval, style="filled,solid,bold", fillcolor="#E6E6E6"];
    "WeCat3dRightInside:Points:0(WeCat3dPoints) " [tooltip="RailProfileRightInside, Rail profiles right inside trolley side", shape=rectangle, style="filled,solid", fillcolor="#FFE6FF"];
    "2: RailProfile-Calibrate" [shape=octagon, style="filled,solid",fillcolor="#FFE6FF", label="RailProfile-Calibrate", tooltip="Transforms (translates, rotates, flips) points according to the calibration.
For details see docs at https://bitbucket.org/kzvsro/kzv-doc/wiki/MicroEpsilon."];
    "WeCat3dLeftInside:Points:0(WeCat3dPoints) " [tooltip="RailProfileLeftInside, Rail profiles left inside trolley side", shape=rectangle, style="filled,solid", fillcolor="#FFE6FF"];
    "RailProfileLeftInside(WeCat3dPoints) " [tooltip="RailProfileLeftInside, Rail profiles left inside trolley side", shape=oval, style="filled,solid,bold", fillcolor="#FFE6FF"];
    "3: RailProfile-Calibrate" [shape=octagon, style="filled,solid",fillcolor="#FFE6FF", label="RailProfile-Calibrate", tooltip="Transforms (translates, rotates, flips) points according to the calibration.
For details see docs at https://bitbucket.org/kzvsro/kzv-doc/wiki/MicroEpsilon."];
    "WeCat3dRightInside:Points:0(WeCat3dPoints) " [tooltip="RailProfileRightInside, Rail profiles right inside trolley side", shape=rectangle, style="filled,solid", fillcolor="#FFE6FF"];
    "RailProfileRightInside(WeCat3dPoints) " [tooltip="RailProfileRightInside, Rail profiles right inside trolley side", shape=oval, style="filled,solid,bold", fillcolor="#FFE6FF"];
    "4: RailProfile-Process" [shape=octagon, style="filled,solid",fillcolor="#FFE6FF", label="RailProfile-Process", tooltip="Computes relevant points and values on the profile
(wear, plastic flow, points classification, head top, side, running edge)
Constants are read either from Algorithm itself, or from calibration constants prefixed with `RailProfile.`.
"];
    "RailProfileLeftInside(WeCat3dPoints) " [tooltip="RailProfileLeftInside, Rail profiles left inside trolley side", shape=oval, style="filled,solid,bold", fillcolor="#FFE6FF"];
    "ProcessedRailProfileLeftInside(ProcessedRailProfile) " [tooltip="ProcessedRailProfileLeftInside, Processed rail profiles left inside trolley side", shape=oval, style="filled,solid,bold", fillcolor="#FFE6FF"];
    "5: RailProfile-Process" [shape=octagon, style="filled,solid",fillcolor="#FFE6FF", label="RailProfile-Process", tooltip="Computes relevant points and values on the profile
(wear, plastic flow, points classification, head top, side, running edge)
Constants are read either from Algorithm itself, or from calibration constants prefixed with `RailProfile.`.
"];
    "RailProfileRightInside(WeCat3dPoints) " [tooltip="RailProfileRightInside, Rail profiles right inside trolley side", shape=oval, style="filled,solid,bold", fillcolor="#FFE6FF"];
    "ProcessedRailProfileRightInside(ProcessedRailProfile) " [tooltip="ProcessedRailProfileRightInside, Processed rail profiles right inside trolley side", shape=oval, style="filled,solid,bold", fillcolor="#FFE6FF"];
    "6: Swap rails" [shape=octagon, style="filled,solid",fillcolor="#FFE6FF", label="Swap rails", tooltip="If Trolley orientation matches kilometrage direction, pass through the `+` input, if they oppose pass through the `-` input."];
    "RailProfileLeftInside(WeCat3dPoints) " [tooltip="RailProfileLeftInside, Rail profiles left inside trolley side", shape=oval, style="filled,solid,bold", fillcolor="#FFE6FF"];
    "RailProfileRightInside(WeCat3dPoints) " [tooltip="RailProfileRightInside, Rail profiles right inside trolley side", shape=oval, style="filled,solid,bold", fillcolor="#FFE6FF"];
    "RailProfileLeftRailInside(WeCat3dPoints) " [tooltip="RailProfileLeftRailInside, Rail profiles left inside rail", shape=oval, style="filled,solid,bold", fillcolor="#FFE6FF"];
    "7: Swap rails" [shape=octagon, style="filled,solid",fillcolor="#FFE6FF", label="Swap rails", tooltip="If Trolley orientation matches kilometrage direction, pass through the `+` input, if they oppose pass through the `-` input."];
    "RailProfileRightInside(WeCat3dPoints) " [tooltip="RailProfileRightInside, Rail profiles right inside trolley side", shape=oval, style="filled,solid,bold", fillcolor="#FFE6FF"];
    "RailProfileLeftInside(WeCat3dPoints) " [tooltip="RailProfileLeftInside, Rail profiles left inside trolley side", shape=oval, style="filled,solid,bold", fillcolor="#FFE6FF"];
    "RailProfileRightRailInside(WeCat3dPoints) " [tooltip="RailProfileRightRailInside, Rail profiles right inside rail", shape=oval, style="filled,solid,bold", fillcolor="#FFE6FF"];
  "ln@Time(F64) " -> "0: WeCat3dLeftInside Resampler "
  "0: WeCat3dLeftInside Resampler " -> "WeCat3dLeftInside:Points:0(WeCat3dPoints) "
  "ln@Time(F64) " -> "1: WeCat3dRightInside Resampler "
  "1: WeCat3dRightInside Resampler " -> "WeCat3dRightInside:Points:0(WeCat3dPoints) "
  "WeCat3dLeftInside:Points:0(WeCat3dPoints) " -> "2: RailProfile-Calibrate"
  "2: RailProfile-Calibrate" -> "RailProfileLeftInside(WeCat3dPoints) "
  "WeCat3dRightInside:Points:0(WeCat3dPoints) " -> "3: RailProfile-Calibrate"
  "3: RailProfile-Calibrate" -> "RailProfileRightInside(WeCat3dPoints) "
  "RailProfileLeftInside(WeCat3dPoints) " -> "4: RailProfile-Process"
  "4: RailProfile-Process" -> "ProcessedRailProfileLeftInside(ProcessedRailProfile) "
  "RailProfileRightInside(WeCat3dPoints) " -> "5: RailProfile-Process"
  "5: RailProfile-Process" -> "ProcessedRailProfileRightInside(ProcessedRailProfile) "
  "RailProfileLeftInside(WeCat3dPoints) " -> "6: Swap rails"
  "RailProfileRightInside(WeCat3dPoints) " -> "6: Swap rails"
  "6: Swap rails" -> "RailProfileLeftRailInside(WeCat3dPoints) "
  "RailProfileRightInside(WeCat3dPoints) " -> "7: Swap rails"
  "RailProfileLeftInside(WeCat3dPoints) " -> "7: Swap rails"
  "7: Swap rails" -> "RailProfileRightRailInside(WeCat3dPoints) "
}