digraph {
  rankdir=LR;  node [shape=box];  graph [fontname = "helvetica"]  node [fontname = "helvetica"]  edge [fontname = "helvetica"]    "0: VGN01 Time Source" [shape=doubleoctagon, style="filled,solid",fillcolor="#F0F0F0", label="VGN01 Time Source", tooltip="VGN Time Source"];
    "VGN01:irc:0@Time(IrcValue) 0..5: [0, 20, 30, 90, 120]" [tooltip="ln, Travelled distance", shape=rectangle, style="filled,solid", fillcolor="#E6E6E6"];
    "VGN01@TimeDistance(F64) 0..5: [0, 0.2, 0.3, 0.9, 1.2]" [tooltip="", shape=oval, style="filled,solid,bold", fillcolor="#FAFAFA"];
    "1: DistanceComputer(Up, k=0.01)" [shape=octagon, style="filled,solid",fillcolor="#E6E6E6", label="DistanceComputer(Up, k=0.01)", tooltip="Computes travelled distance signal from a 64-bit IRC channel via KQ calibration while respecting Orientation. This processor is implicitly created by the channel definition."];
    "VGN01:irc:0@Time(IrcValue) 0..5: [0, 20, 30, 90, 120]" [tooltip="ln, Travelled distance", shape=rectangle, style="filled,solid", fillcolor="#E6E6E6"];
    "ln@Time(F64) 0..5: [0, 0.2, 0.3, 0.9, 1.2]" [tooltip="ln, Travelled distance", shape=oval, style="filled,solid,bold", fillcolor="#E6E6E6"];
    "2: WeCat3dLeftInside Time Source" [shape=doubleoctagon, style="filled,solid",fillcolor="#F0F0F0", label="WeCat3dLeftInside Time Source", tooltip="WeCat3d Time Source"];
    "ln@Time(F64) 0..5: [0, 0.2, 0.3, 0.9, 1.2]" [tooltip="ln, Travelled distance", shape=oval, style="filled,solid,bold", fillcolor="#E6E6E6"];
    "WeCat3dLeftInside:Points:0@Time(WeCat3dPoints) 0..4: [1280 points(first: X=0.202, Z=0.002), 1280 points(first: X=0.203, Z=0.003), 1280 points(first: X=0.204, Z=0.004), 1280 points(first: X=0.25, Z=0.05)]" [tooltip="RailProfileLeftInside, Rail profiles left inside trolley side", shape=rectangle, style="filled,solid", fillcolor="#E6E6E6"];
    "WeCat3dLeftInside@TimeDistance(F64) 0..4: [0.2, 0.3, 0.9, 1.2]" [tooltip="", shape=oval, style="filled,solid,bold", fillcolor="#FAFAFA"];
    "3: WeCat3dRightInside Time Source" [shape=doubleoctagon, style="filled,solid",fillcolor="#F0F0F0", label="WeCat3dRightInside Time Source", tooltip="WeCat3d Time Source"];
    "ln@Time(F64) 0..5: [0, 0.2, 0.3, 0.9, 1.2]" [tooltip="ln, Travelled distance", shape=oval, style="filled,solid,bold", fillcolor="#E6E6E6"];
    "WeCat3dRightInside:Points:0@Time(WeCat3dPoints) 0..4: [1280 points(first: X=1.202, Z=1.002), 1280 points(first: X=1.203, Z=1.003), 1280 points(first: X=1.204, Z=1.004), 1280 points(first: X=1.25, Z=1.05)]" [tooltip="RailProfileRightInside, Rail profiles right inside trolley side", shape=rectangle, style="filled,solid", fillcolor="#E6E6E6"];
    "WeCat3dRightInside@TimeDistance(F64) 0..4: [0.2, 0.3, 0.9, 1.2]" [tooltip="", shape=oval, style="filled,solid,bold", fillcolor="#FAFAFA"];
    "4: RailProfile-Calibrate(OffsetX: 0 mm, OffsetZ: 0 mm, Angle: 0°0', Right rail, X Camera axis flipped)" [shape=octagon, style="filled,solid",fillcolor="#E6E6E6", label="RailProfile-Calibrate(OffsetX: 0 mm,\nOffsetZ: 0 mm, Angle: 0°0', Right rail,\nX Camera axis flipped)", tooltip="Transforms (translates, rotates, flips) points according to the calibration.
For details see docs at https://bitbucket.org/kzvsro/kzv-doc/wiki/MicroEpsilon."];
    "WeCat3dLeftInside:Points:0@Time(WeCat3dPoints) 0..4: [1280 points(first: X=0.202, Z=0.002), 1280 points(first: X=0.203, Z=0.003), 1280 points(first: X=0.204, Z=0.004), 1280 points(first: X=0.25, Z=0.05)]" [tooltip="RailProfileLeftInside, Rail profiles left inside trolley side", shape=rectangle, style="filled,solid", fillcolor="#E6E6E6"];
    "RailProfileLeftInside@Time(WeCat3dPoints) 0..4: [1280 points(first: X=0.202, Z=0.002), 1280 points(first: X=0.203, Z=0.003), 1280 points(first: X=0.204, Z=0.004), 1280 points(first: X=0.25, Z=0.05)]" [tooltip="RailProfileLeftInside, Rail profiles left inside trolley side", shape=oval, style="filled,solid,bold", fillcolor="#E6E6E6"];
    "5: RailProfile-Calibrate(OffsetX: 0 mm, OffsetZ: 0 mm, Angle: 0°0', Right rail, X Camera axis flipped)" [shape=octagon, style="filled,solid",fillcolor="#E6E6E6", label="RailProfile-Calibrate(OffsetX: 0 mm,\nOffsetZ: 0 mm, Angle: 0°0', Right rail,\nX Camera axis flipped)", tooltip="Transforms (translates, rotates, flips) points according to the calibration.
For details see docs at https://bitbucket.org/kzvsro/kzv-doc/wiki/MicroEpsilon."];
    "WeCat3dRightInside:Points:0@Time(WeCat3dPoints) 0..4: [1280 points(first: X=1.202, Z=1.002), 1280 points(first: X=1.203, Z=1.003), 1280 points(first: X=1.204, Z=1.004), 1280 points(first: X=1.25, Z=1.05)]" [tooltip="RailProfileRightInside, Rail profiles right inside trolley side", shape=rectangle, style="filled,solid", fillcolor="#E6E6E6"];
    "RailProfileRightInside@Time(WeCat3dPoints) 0..4: [1280 points(first: X=1.202, Z=1.002), 1280 points(first: X=1.203, Z=1.003), 1280 points(first: X=1.204, Z=1.004), 1280 points(first: X=1.25, Z=1.05)]" [tooltip="RailProfileRightInside, Rail profiles right inside trolley side", shape=oval, style="filled,solid,bold", fillcolor="#E6E6E6"];
    "6: RailProfile-Process(Wear point to head top vertical distance: 14 mm
Rail bounding box:left: -15 mm, right: 50 mm, bottom: -150 mm, top: 10 mm
Head bounding box:left: -15 mm, right: 10 mm, bottom: -60 mm, top: 0 mm
Cluster filter: Minimum points in cluster = 5, Max distance = 1 mm
Head side detector: Angle = 0°0', number of points in line = 7, maximum deviation = 0.05 mm
Wear point X computer: Y range = 0.5 mm, maximum X range = 2 mm
Minimum horizontal leap between plastic flow and head side = 1 mm)" [shape=octagon, style="filled,solid",fillcolor="#E6E6E6", label="RailProfile-Process(Wear point to head\ntop vertical distance: 14 mm\nRail bounding box:left: -15 mm, right:\n50 mm, bottom: -150 mm, top: 10 mm\nHead bounding box:left: -15 mm, right:\n10 mm, bottom: -60 mm, top: 0 mm\nCluster filter: Minimum points in\ncluster = 5, Max distance = 1 mm\nHead side detector: Angle = 0°0', number\nof points in line = 7, maximum deviation\n= 0.05 mm\nWear point X computer: Y range = 0.5 mm,\nmaximum X range = 2 mm\nMinimum horizontal leap between plastic\nflow and head side = 1 mm)", tooltip="Computes relevant points and values on the profile
(wear, plastic flow, points classification, head top, side, running edge)
Constants are read either from Algorithm itself, or from calibration constants prefixed with `RailProfile.`.
"];
    "RailProfileLeftInside@Time(WeCat3dPoints) 0..4: [1280 points(first: X=0.202, Z=0.002), 1280 points(first: X=0.203, Z=0.003), 1280 points(first: X=0.204, Z=0.004), 1280 points(first: X=0.25, Z=0.05)]" [tooltip="RailProfileLeftInside, Rail profiles left inside trolley side", shape=oval, style="filled,solid,bold", fillcolor="#E6E6E6"];
    "ProcessedRailProfileLeftInside@Time(ProcessedRailProfile) 0..4: [ProcessedProfile{Top: [2.0; 2.0], Side: [2.0; -59.9], Wear: 0.0 (at [2.0; -12.0]), Plastic flow: - (at [2.0; -2.4]), Running edge: [2.0; -2.4]}, ProcessedProfile{Top: [3.0; 3.0], Side: [3.0; -18.3], Wear: 0.0 (at [3.0; -11.0]), Plastic flow: - (at [3.0; -5.8]), Running edge: [3.0; -5.8]}, ProcessedProfile{Top: [4.0; 4.0], Side: [4.0; -57.9], Wear: 0.0 (at [4.0; -10.0]), Plastic flow: - (at [4.0; -0.4]), Running edge: [4.0; -0.4]}, ProcessedProfile{Top: [50.0; 10.0], Side: -, Wear: -, Plastic flow: - (at [50.0; 10.0]), Running edge: [50.0; 10.0]}]" [tooltip="ProcessedRailProfileLeftInside, Processed rail profiles left inside trolley side", shape=oval, style="filled,solid,bold", fillcolor="#E6E6E6"];
    "7: RailProfile-Process(Wear point to head top vertical distance: 14 mm
Rail bounding box:left: -15 mm, right: 50 mm, bottom: -150 mm, top: 10 mm
Head bounding box:left: -15 mm, right: 10 mm, bottom: -60 mm, top: 0 mm
Cluster filter: Minimum points in cluster = 5, Max distance = 1 mm
Head side detector: Angle = 0°0', number of points in line = 7, maximum deviation = 0.05 mm
Wear point X computer: Y range = 0.5 mm, maximum X range = 2 mm
Minimum horizontal leap between plastic flow and head side = 1 mm)" [shape=octagon, style="filled,solid",fillcolor="#E6E6E6", label="RailProfile-Process(Wear point to head\ntop vertical distance: 14 mm\nRail bounding box:left: -15 mm, right:\n50 mm, bottom: -150 mm, top: 10 mm\nHead bounding box:left: -15 mm, right:\n10 mm, bottom: -60 mm, top: 0 mm\nCluster filter: Minimum points in\ncluster = 5, Max distance = 1 mm\nHead side detector: Angle = 0°0', number\nof points in line = 7, maximum deviation\n= 0.05 mm\nWear point X computer: Y range = 0.5 mm,\nmaximum X range = 2 mm\nMinimum horizontal leap between plastic\nflow and head side = 1 mm)", tooltip="Computes relevant points and values on the profile
(wear, plastic flow, points classification, head top, side, running edge)
Constants are read either from Algorithm itself, or from calibration constants prefixed with `RailProfile.`.
"];
    "RailProfileRightInside@Time(WeCat3dPoints) 0..4: [1280 points(first: X=1.202, Z=1.002), 1280 points(first: X=1.203, Z=1.003), 1280 points(first: X=1.204, Z=1.004), 1280 points(first: X=1.25, Z=1.05)]" [tooltip="RailProfileRightInside, Rail profiles right inside trolley side", shape=oval, style="filled,solid,bold", fillcolor="#E6E6E6"];
    "ProcessedRailProfileRightInside@Time(ProcessedRailProfile) 0..4: [ProcessedProfile{Top: -, Side: -, Wear: -, Plastic flow: -, Running edge: -}, ProcessedProfile{Top: -, Side: -, Wear: -, Plastic flow: -, Running edge: -}, ProcessedProfile{Top: -, Side: -, Wear: -, Plastic flow: -, Running edge: -}, ProcessedProfile{Top: -, Side: -, Wear: -, Plastic flow: -, Running edge: -}]" [tooltip="ProcessedRailProfileRightInside, Processed rail profiles right inside trolley side", shape=oval, style="filled,solid,bold", fillcolor="#E6E6E6"];
    "8: WeCat3dLeftInside Resampler " [shape=doubleoctagon, style="filled,solid",fillcolor="#F2E6F2", label="WeCat3dLeftInside Resampler ", tooltip="WeCat3d Resampler"];
    "ln@Time(F64) 0..5: [0, 0.2, 0.3, 0.9, 1.2]" [tooltip="ln, Travelled distance", shape=oval, style="filled,solid,bold", fillcolor="#E6E6E6"];
    "WeCat3dLeftInside:Points:0@RailProfiles(WeCat3dPoints) 0..1: [1280 points(first: X=0.204, Z=0.004)]" [tooltip="RailProfileLeftInside, Rail profiles left inside trolley side", shape=rectangle, style="filled,solid", fillcolor="#FFE6FF"];
    "9: WeCat3dRightInside Resampler " [shape=doubleoctagon, style="filled,solid",fillcolor="#F2E6F2", label="WeCat3dRightInside Resampler ", tooltip="WeCat3d Resampler"];
    "ln@Time(F64) 0..5: [0, 0.2, 0.3, 0.9, 1.2]" [tooltip="ln, Travelled distance", shape=oval, style="filled,solid,bold", fillcolor="#E6E6E6"];
    "WeCat3dRightInside:Points:0@RailProfiles(WeCat3dPoints) 0..1: [1280 points(first: X=1.204, Z=1.004)]" [tooltip="RailProfileRightInside, Rail profiles right inside trolley side", shape=rectangle, style="filled,solid", fillcolor="#FFE6FF"];
    "10: RailProfile-PlasticFlow" [shape=octagon, style="filled,solid",fillcolor="#E6E6E6", label="RailProfile-PlasticFlow", tooltip="Plastic flow of the processed profile"];
    "ProcessedRailProfileLeftInside@Time(ProcessedRailProfile) 0..4: [ProcessedProfile{Top: [2.0; 2.0], Side: [2.0; -59.9], Wear: 0.0 (at [2.0; -12.0]), Plastic flow: - (at [2.0; -2.4]), Running edge: [2.0; -2.4]}, ProcessedProfile{Top: [3.0; 3.0], Side: [3.0; -18.3], Wear: 0.0 (at [3.0; -11.0]), Plastic flow: - (at [3.0; -5.8]), Running edge: [3.0; -5.8]}, ProcessedProfile{Top: [4.0; 4.0], Side: [4.0; -57.9], Wear: 0.0 (at [4.0; -10.0]), Plastic flow: - (at [4.0; -0.4]), Running edge: [4.0; -0.4]}, ProcessedProfile{Top: [50.0; 10.0], Side: -, Wear: -, Plastic flow: - (at [50.0; 10.0]), Running edge: [50.0; 10.0]}]" [tooltip="ProcessedRailProfileLeftInside, Processed rail profiles left inside trolley side", shape=oval, style="filled,solid,bold", fillcolor="#E6E6E6"];
    "PlasticFlowLeft@Time(F64) 0..4: [NaN, NaN, NaN, NaN]" [tooltip="PlasticFlowLeft, Plastic flow of rail on the left trolley side", shape=oval, style="filled,solid,bold", fillcolor="#E6E6E6"];
    "11: RailProfile-PlasticFlow" [shape=octagon, style="filled,solid",fillcolor="#E6E6E6", label="RailProfile-PlasticFlow", tooltip="Plastic flow of the processed profile"];
    "ProcessedRailProfileRightInside@Time(ProcessedRailProfile) 0..4: [ProcessedProfile{Top: -, Side: -, Wear: -, Plastic flow: -, Running edge: -}, ProcessedProfile{Top: -, Side: -, Wear: -, Plastic flow: -, Running edge: -}, ProcessedProfile{Top: -, Side: -, Wear: -, Plastic flow: -, Running edge: -}, ProcessedProfile{Top: -, Side: -, Wear: -, Plastic flow: -, Running edge: -}]" [tooltip="ProcessedRailProfileRightInside, Processed rail profiles right inside trolley side", shape=oval, style="filled,solid,bold", fillcolor="#E6E6E6"];
    "PlasticFlowRight@Time(F64) 0..4: [NaN, NaN, NaN, NaN]" [tooltip="PlasticFlowRight, Plastic flow of rail on the right trolley side", shape=oval, style="filled,solid,bold", fillcolor="#E6E6E6"];
    "12: VGN01 Resampler" [shape=doubleoctagon, style="filled,solid",fillcolor="#E6FFFF", label="VGN01 Resampler", tooltip="VGN Resampler"];
    "VGN01:irc:0@GPK(IrcValue) 0..4: [10, 30, 30, 90]" [tooltip="ln, Travelled distance", shape=rectangle, style="filled,solid", fillcolor="#E6FFFF"];
    "13: RailProfile-Calibrate(OffsetX: 0 mm, OffsetZ: 0 mm, Angle: 0°0', Right rail, X Camera axis flipped)" [shape=octagon, style="filled,solid",fillcolor="#FFE6FF", label="RailProfile-Calibrate(OffsetX: 0 mm,\nOffsetZ: 0 mm, Angle: 0°0', Right rail,\nX Camera axis flipped)", tooltip="Transforms (translates, rotates, flips) points according to the calibration.
For details see docs at https://bitbucket.org/kzvsro/kzv-doc/wiki/MicroEpsilon."];
    "WeCat3dLeftInside:Points:0@RailProfiles(WeCat3dPoints) 0..1: [1280 points(first: X=0.204, Z=0.004)]" [tooltip="RailProfileLeftInside, Rail profiles left inside trolley side", shape=rectangle, style="filled,solid", fillcolor="#FFE6FF"];
    "RailProfileLeftInside@RailProfiles(WeCat3dPoints) 0..1: [1280 points(first: X=0.204, Z=0.004)]" [tooltip="RailProfileLeftInside, Rail profiles left inside trolley side", shape=oval, style="filled,solid,bold", fillcolor="#FFE6FF"];
    "14: RailProfile-Calibrate(OffsetX: 0 mm, OffsetZ: 0 mm, Angle: 0°0', Right rail, X Camera axis flipped)" [shape=octagon, style="filled,solid",fillcolor="#FFE6FF", label="RailProfile-Calibrate(OffsetX: 0 mm,\nOffsetZ: 0 mm, Angle: 0°0', Right rail,\nX Camera axis flipped)", tooltip="Transforms (translates, rotates, flips) points according to the calibration.
For details see docs at https://bitbucket.org/kzvsro/kzv-doc/wiki/MicroEpsilon."];
    "WeCat3dRightInside:Points:0@RailProfiles(WeCat3dPoints) 0..1: [1280 points(first: X=1.204, Z=1.004)]" [tooltip="RailProfileRightInside, Rail profiles right inside trolley side", shape=rectangle, style="filled,solid", fillcolor="#FFE6FF"];
    "RailProfileRightInside@RailProfiles(WeCat3dPoints) 0..1: [1280 points(first: X=1.204, Z=1.004)]" [tooltip="RailProfileRightInside, Rail profiles right inside trolley side", shape=oval, style="filled,solid,bold", fillcolor="#FFE6FF"];
    "15: TimeToDistanceResampler(0.25 m, Average(f64))" [shape=octagon, style="filled,solid",fillcolor="#ECF5F5", label="TimeToDistanceResampler(0.25 m, Average(\nf64))", tooltip="Resample from time to distance domain. Resamples f64 values by averaging them. Discard values when the sampling signal doesn't change (the trolley is standing still)"];
    "WeCat3dLeftInside@TimeDistance(F64) 0..4: [0.2, 0.3, 0.9, 1.2]" [tooltip="", shape=oval, style="filled,solid,bold", fillcolor="#FAFAFA"];
    "PlasticFlowLeft@Time(F64) 0..4: [NaN, NaN, NaN, NaN]" [tooltip="PlasticFlowLeft, Plastic flow of rail on the left trolley side", shape=oval, style="filled,solid,bold", fillcolor="#E6E6E6"];
    "PlasticFlowLeft@GPK(F64) 0..4: [NaN, NaN, NaN, NaN]" [tooltip="PlasticFlowLeft, Plastic flow of rail on the left trolley side", shape=oval, style="filled,solid,bold", fillcolor="#E6FFFF"];
    "16: TimeToDistanceResampler(0.25 m, Average(f64))" [shape=octagon, style="filled,solid",fillcolor="#ECF5F5", label="TimeToDistanceResampler(0.25 m, Average(\nf64))", tooltip="Resample from time to distance domain. Resamples f64 values by averaging them. Discard values when the sampling signal doesn't change (the trolley is standing still)"];
    "WeCat3dRightInside@TimeDistance(F64) 0..4: [0.2, 0.3, 0.9, 1.2]" [tooltip="", shape=oval, style="filled,solid,bold", fillcolor="#FAFAFA"];
    "PlasticFlowRight@Time(F64) 0..4: [NaN, NaN, NaN, NaN]" [tooltip="PlasticFlowRight, Plastic flow of rail on the right trolley side", shape=oval, style="filled,solid,bold", fillcolor="#E6E6E6"];
    "PlasticFlowRight@GPK(F64) 0..4: [NaN, NaN, NaN, NaN]" [tooltip="PlasticFlowRight, Plastic flow of rail on the right trolley side", shape=oval, style="filled,solid,bold", fillcolor="#E6FFFF"];
    "17: DistanceComputer(Up, k=0.01)" [shape=octagon, style="filled,solid",fillcolor="#E6FFFF", label="DistanceComputer(Up, k=0.01)", tooltip="Computes travelled distance signal from a 64-bit IRC channel via KQ calibration while respecting Orientation. This processor is implicitly created by the channel definition."];
    "VGN01:irc:0@GPK(IrcValue) 0..4: [10, 30, 30, 90]" [tooltip="ln, Travelled distance", shape=rectangle, style="filled,solid", fillcolor="#E6FFFF"];
    "ln@GPK(F64) 0..4: [0.1, 0.3, 0.3, 0.9]" [tooltip="ln, Travelled distance", shape=oval, style="filled,solid,bold", fillcolor="#E6FFFF"];
    "18: RailProfile-Process(Wear point to head top vertical distance: 14 mm
Rail bounding box:left: -15 mm, right: 50 mm, bottom: -150 mm, top: 10 mm
Head bounding box:left: -15 mm, right: 10 mm, bottom: -60 mm, top: 0 mm
Cluster filter: Minimum points in cluster = 5, Max distance = 1 mm
Head side detector: Angle = 0°0', number of points in line = 7, maximum deviation = 0.05 mm
Wear point X computer: Y range = 0.5 mm, maximum X range = 2 mm
Minimum horizontal leap between plastic flow and head side = 1 mm)" [shape=octagon, style="filled,solid",fillcolor="#FFE6FF", label="RailProfile-Process(Wear point to head\ntop vertical distance: 14 mm\nRail bounding box:left: -15 mm, right:\n50 mm, bottom: -150 mm, top: 10 mm\nHead bounding box:left: -15 mm, right:\n10 mm, bottom: -60 mm, top: 0 mm\nCluster filter: Minimum points in\ncluster = 5, Max distance = 1 mm\nHead side detector: Angle = 0°0', number\nof points in line = 7, maximum deviation\n= 0.05 mm\nWear point X computer: Y range = 0.5 mm,\nmaximum X range = 2 mm\nMinimum horizontal leap between plastic\nflow and head side = 1 mm)", tooltip="Computes relevant points and values on the profile
(wear, plastic flow, points classification, head top, side, running edge)
Constants are read either from Algorithm itself, or from calibration constants prefixed with `RailProfile.`.
"];
    "RailProfileLeftInside@RailProfiles(WeCat3dPoints) 0..1: [1280 points(first: X=0.204, Z=0.004)]" [tooltip="RailProfileLeftInside, Rail profiles left inside trolley side", shape=oval, style="filled,solid,bold", fillcolor="#FFE6FF"];
    "ProcessedRailProfileLeftInside@RailProfiles(ProcessedRailProfile) 0..1: [ProcessedProfile{Top: [4.0; 4.0], Side: [4.0; -57.9], Wear: 0.0 (at [4.0; -10.0]), Plastic flow: - (at [4.0; -0.4]), Running edge: [4.0; -0.4]}]" [tooltip="ProcessedRailProfileLeftInside, Processed rail profiles left inside trolley side", shape=oval, style="filled,solid,bold", fillcolor="#FFE6FF"];
    "19: RailProfile-Process(Wear point to head top vertical distance: 14 mm
Rail bounding box:left: -15 mm, right: 50 mm, bottom: -150 mm, top: 10 mm
Head bounding box:left: -15 mm, right: 10 mm, bottom: -60 mm, top: 0 mm
Cluster filter: Minimum points in cluster = 5, Max distance = 1 mm
Head side detector: Angle = 0°0', number of points in line = 7, maximum deviation = 0.05 mm
Wear point X computer: Y range = 0.5 mm, maximum X range = 2 mm
Minimum horizontal leap between plastic flow and head side = 1 mm)" [shape=octagon, style="filled,solid",fillcolor="#FFE6FF", label="RailProfile-Process(Wear point to head\ntop vertical distance: 14 mm\nRail bounding box:left: -15 mm, right:\n50 mm, bottom: -150 mm, top: 10 mm\nHead bounding box:left: -15 mm, right:\n10 mm, bottom: -60 mm, top: 0 mm\nCluster filter: Minimum points in\ncluster = 5, Max distance = 1 mm\nHead side detector: Angle = 0°0', number\nof points in line = 7, maximum deviation\n= 0.05 mm\nWear point X computer: Y range = 0.5 mm,\nmaximum X range = 2 mm\nMinimum horizontal leap between plastic\nflow and head side = 1 mm)", tooltip="Computes relevant points and values on the profile
(wear, plastic flow, points classification, head top, side, running edge)
Constants are read either from Algorithm itself, or from calibration constants prefixed with `RailProfile.`.
"];
    "RailProfileRightInside@RailProfiles(WeCat3dPoints) 0..1: [1280 points(first: X=1.204, Z=1.004)]" [tooltip="RailProfileRightInside, Rail profiles right inside trolley side", shape=oval, style="filled,solid,bold", fillcolor="#FFE6FF"];
    "ProcessedRailProfileRightInside@RailProfiles(ProcessedRailProfile) 0..1: [ProcessedProfile{Top: -, Side: -, Wear: -, Plastic flow: -, Running edge: -}]" [tooltip="ProcessedRailProfileRightInside, Processed rail profiles right inside trolley side", shape=oval, style="filled,solid,bold", fillcolor="#FFE6FF"];
    "20: Swap rails" [shape=octagon, style="filled,solid",fillcolor="#FFE6FF", label="Swap rails", tooltip="If Trolley orientation matches kilometrage direction, pass through the `+` input, if they oppose pass through the `-` input."];
    "RailProfileLeftInside@RailProfiles(WeCat3dPoints) 0..1: [1280 points(first: X=0.204, Z=0.004)]" [tooltip="RailProfileLeftInside, Rail profiles left inside trolley side", shape=oval, style="filled,solid,bold", fillcolor="#FFE6FF"];
    "RailProfileRightInside@RailProfiles(WeCat3dPoints) 0..1: [1280 points(first: X=1.204, Z=1.004)]" [tooltip="RailProfileRightInside, Rail profiles right inside trolley side", shape=oval, style="filled,solid,bold", fillcolor="#FFE6FF"];
    "RailProfileLeftRailInside@RailProfiles(WeCat3dPoints) 0..1: [1280 points(first: X=0.204, Z=0.004)]" [tooltip="RailProfileLeftRailInside, Rail profiles left inside rail", shape=oval, style="filled,solid,bold", fillcolor="#FFE6FF"];
    "21: Swap rails" [shape=octagon, style="filled,solid",fillcolor="#E6FFFF", label="Swap rails", tooltip="If Trolley orientation matches kilometrage direction, pass through the `+` input, if they oppose pass through the `-` input."];
    "PlasticFlowLeft@GPK(F64) 0..4: [NaN, NaN, NaN, NaN]" [tooltip="PlasticFlowLeft, Plastic flow of rail on the left trolley side", shape=oval, style="filled,solid,bold", fillcolor="#E6FFFF"];
    "PlasticFlowRight@GPK(F64) 0..4: [NaN, NaN, NaN, NaN]" [tooltip="PlasticFlowRight, Plastic flow of rail on the right trolley side", shape=oval, style="filled,solid,bold", fillcolor="#E6FFFF"];
    "PlasticFlowLeftRail@GPK(F64) 0..4: [NaN, NaN, NaN, NaN]" [tooltip="PlasticFlowLeftRail, Plastic flow left inside rail", shape=oval, style="filled,solid,bold", fillcolor="#E6FFFF"];
    "22: Swap rails" [shape=octagon, style="filled,solid",fillcolor="#FFE6FF", label="Swap rails", tooltip="If Trolley orientation matches kilometrage direction, pass through the `+` input, if they oppose pass through the `-` input."];
    "RailProfileRightInside@RailProfiles(WeCat3dPoints) 0..1: [1280 points(first: X=1.204, Z=1.004)]" [tooltip="RailProfileRightInside, Rail profiles right inside trolley side", shape=oval, style="filled,solid,bold", fillcolor="#FFE6FF"];
    "RailProfileLeftInside@RailProfiles(WeCat3dPoints) 0..1: [1280 points(first: X=0.204, Z=0.004)]" [tooltip="RailProfileLeftInside, Rail profiles left inside trolley side", shape=oval, style="filled,solid,bold", fillcolor="#FFE6FF"];
    "RailProfileRightRailInside@RailProfiles(WeCat3dPoints) 0..1: [1280 points(first: X=1.204, Z=1.004)]" [tooltip="RailProfileRightRailInside, Rail profiles right inside rail", shape=oval, style="filled,solid,bold", fillcolor="#FFE6FF"];
    "23: Swap rails" [shape=octagon, style="filled,solid",fillcolor="#E6FFFF", label="Swap rails", tooltip="If Trolley orientation matches kilometrage direction, pass through the `+` input, if they oppose pass through the `-` input."];
    "PlasticFlowRight@GPK(F64) 0..4: [NaN, NaN, NaN, NaN]" [tooltip="PlasticFlowRight, Plastic flow of rail on the right trolley side", shape=oval, style="filled,solid,bold", fillcolor="#E6FFFF"];
    "PlasticFlowLeft@GPK(F64) 0..4: [NaN, NaN, NaN, NaN]" [tooltip="PlasticFlowLeft, Plastic flow of rail on the left trolley side", shape=oval, style="filled,solid,bold", fillcolor="#E6FFFF"];
    "PlasticFlowRightRail@GPK(F64) 0..4: [NaN, NaN, NaN, NaN]" [tooltip="PlasticFlowRightRail, Plastic flow right inside rail", shape=oval, style="filled,solid,bold", fillcolor="#E6FFFF"];
  "0: VGN01 Time Source" -> "VGN01:irc:0@Time(IrcValue) 0..5: [0, 20, 30, 90, 120]"
  "0: VGN01 Time Source" -> "VGN01@TimeDistance(F64) 0..5: [0, 0.2, 0.3, 0.9, 1.2]"
  "VGN01:irc:0@Time(IrcValue) 0..5: [0, 20, 30, 90, 120]" -> "1: DistanceComputer(Up, k=0.01)"
  "1: DistanceComputer(Up, k=0.01)" -> "ln@Time(F64) 0..5: [0, 0.2, 0.3, 0.9, 1.2]"
  "ln@Time(F64) 0..5: [0, 0.2, 0.3, 0.9, 1.2]" -> "2: WeCat3dLeftInside Time Source"
  "2: WeCat3dLeftInside Time Source" -> "WeCat3dLeftInside:Points:0@Time(WeCat3dPoints) 0..4: [1280 points(first: X=0.202, Z=0.002), 1280 points(first: X=0.203, Z=0.003), 1280 points(first: X=0.204, Z=0.004), 1280 points(first: X=0.25, Z=0.05)]"
  "2: WeCat3dLeftInside Time Source" -> "WeCat3dLeftInside@TimeDistance(F64) 0..4: [0.2, 0.3, 0.9, 1.2]"
  "ln@Time(F64) 0..5: [0, 0.2, 0.3, 0.9, 1.2]" -> "3: WeCat3dRightInside Time Source"
  "3: WeCat3dRightInside Time Source" -> "WeCat3dRightInside:Points:0@Time(WeCat3dPoints) 0..4: [1280 points(first: X=1.202, Z=1.002), 1280 points(first: X=1.203, Z=1.003), 1280 points(first: X=1.204, Z=1.004), 1280 points(first: X=1.25, Z=1.05)]"
  "3: WeCat3dRightInside Time Source" -> "WeCat3dRightInside@TimeDistance(F64) 0..4: [0.2, 0.3, 0.9, 1.2]"
  "WeCat3dLeftInside:Points:0@Time(WeCat3dPoints) 0..4: [1280 points(first: X=0.202, Z=0.002), 1280 points(first: X=0.203, Z=0.003), 1280 points(first: X=0.204, Z=0.004), 1280 points(first: X=0.25, Z=0.05)]" -> "4: RailProfile-Calibrate(OffsetX: 0 mm, OffsetZ: 0 mm, Angle: 0°0', Right rail, X Camera axis flipped)"
  "4: RailProfile-Calibrate(OffsetX: 0 mm, OffsetZ: 0 mm, Angle: 0°0', Right rail, X Camera axis flipped)" -> "RailProfileLeftInside@Time(WeCat3dPoints) 0..4: [1280 points(first: X=0.202, Z=0.002), 1280 points(first: X=0.203, Z=0.003), 1280 points(first: X=0.204, Z=0.004), 1280 points(first: X=0.25, Z=0.05)]"
  "WeCat3dRightInside:Points:0@Time(WeCat3dPoints) 0..4: [1280 points(first: X=1.202, Z=1.002), 1280 points(first: X=1.203, Z=1.003), 1280 points(first: X=1.204, Z=1.004), 1280 points(first: X=1.25, Z=1.05)]" -> "5: RailProfile-Calibrate(OffsetX: 0 mm, OffsetZ: 0 mm, Angle: 0°0', Right rail, X Camera axis flipped)"
  "5: RailProfile-Calibrate(OffsetX: 0 mm, OffsetZ: 0 mm, Angle: 0°0', Right rail, X Camera axis flipped)" -> "RailProfileRightInside@Time(WeCat3dPoints) 0..4: [1280 points(first: X=1.202, Z=1.002), 1280 points(first: X=1.203, Z=1.003), 1280 points(first: X=1.204, Z=1.004), 1280 points(first: X=1.25, Z=1.05)]"
  "RailProfileLeftInside@Time(WeCat3dPoints) 0..4: [1280 points(first: X=0.202, Z=0.002), 1280 points(first: X=0.203, Z=0.003), 1280 points(first: X=0.204, Z=0.004), 1280 points(first: X=0.25, Z=0.05)]" -> "6: RailProfile-Process(Wear point to head top vertical distance: 14 mm
Rail bounding box:left: -15 mm, right: 50 mm, bottom: -150 mm, top: 10 mm
Head bounding box:left: -15 mm, right: 10 mm, bottom: -60 mm, top: 0 mm
Cluster filter: Minimum points in cluster = 5, Max distance = 1 mm
Head side detector: Angle = 0°0', number of points in line = 7, maximum deviation = 0.05 mm
Wear point X computer: Y range = 0.5 mm, maximum X range = 2 mm
Minimum horizontal leap between plastic flow and head side = 1 mm)"
  "6: RailProfile-Process(Wear point to head top vertical distance: 14 mm
Rail bounding box:left: -15 mm, right: 50 mm, bottom: -150 mm, top: 10 mm
Head bounding box:left: -15 mm, right: 10 mm, bottom: -60 mm, top: 0 mm
Cluster filter: Minimum points in cluster = 5, Max distance = 1 mm
Head side detector: Angle = 0°0', number of points in line = 7, maximum deviation = 0.05 mm
Wear point X computer: Y range = 0.5 mm, maximum X range = 2 mm
Minimum horizontal leap between plastic flow and head side = 1 mm)" -> "ProcessedRailProfileLeftInside@Time(ProcessedRailProfile) 0..4: [ProcessedProfile{Top: [2.0; 2.0], Side: [2.0; -59.9], Wear: 0.0 (at [2.0; -12.0]), Plastic flow: - (at [2.0; -2.4]), Running edge: [2.0; -2.4]}, ProcessedProfile{Top: [3.0; 3.0], Side: [3.0; -18.3], Wear: 0.0 (at [3.0; -11.0]), Plastic flow: - (at [3.0; -5.8]), Running edge: [3.0; -5.8]}, ProcessedProfile{Top: [4.0; 4.0], Side: [4.0; -57.9], Wear: 0.0 (at [4.0; -10.0]), Plastic flow: - (at [4.0; -0.4]), Running edge: [4.0; -0.4]}, ProcessedProfile{Top: [50.0; 10.0], Side: -, Wear: -, Plastic flow: - (at [50.0; 10.0]), Running edge: [50.0; 10.0]}]"
  "RailProfileRightInside@Time(WeCat3dPoints) 0..4: [1280 points(first: X=1.202, Z=1.002), 1280 points(first: X=1.203, Z=1.003), 1280 points(first: X=1.204, Z=1.004), 1280 points(first: X=1.25, Z=1.05)]" -> "7: RailProfile-Process(Wear point to head top vertical distance: 14 mm
Rail bounding box:left: -15 mm, right: 50 mm, bottom: -150 mm, top: 10 mm
Head bounding box:left: -15 mm, right: 10 mm, bottom: -60 mm, top: 0 mm
Cluster filter: Minimum points in cluster = 5, Max distance = 1 mm
Head side detector: Angle = 0°0', number of points in line = 7, maximum deviation = 0.05 mm
Wear point X computer: Y range = 0.5 mm, maximum X range = 2 mm
Minimum horizontal leap between plastic flow and head side = 1 mm)"
  "7: RailProfile-Process(Wear point to head top vertical distance: 14 mm
Rail bounding box:left: -15 mm, right: 50 mm, bottom: -150 mm, top: 10 mm
Head bounding box:left: -15 mm, right: 10 mm, bottom: -60 mm, top: 0 mm
Cluster filter: Minimum points in cluster = 5, Max distance = 1 mm
Head side detector: Angle = 0°0', number of points in line = 7, maximum deviation = 0.05 mm
Wear point X computer: Y range = 0.5 mm, maximum X range = 2 mm
Minimum horizontal leap between plastic flow and head side = 1 mm)" -> "ProcessedRailProfileRightInside@Time(ProcessedRailProfile) 0..4: [ProcessedProfile{Top: -, Side: -, Wear: -, Plastic flow: -, Running edge: -}, ProcessedProfile{Top: -, Side: -, Wear: -, Plastic flow: -, Running edge: -}, ProcessedProfile{Top: -, Side: -, Wear: -, Plastic flow: -, Running edge: -}, ProcessedProfile{Top: -, Side: -, Wear: -, Plastic flow: -, Running edge: -}]"
  "ln@Time(F64) 0..5: [0, 0.2, 0.3, 0.9, 1.2]" -> "8: WeCat3dLeftInside Resampler "
  "8: WeCat3dLeftInside Resampler " -> "WeCat3dLeftInside:Points:0@RailProfiles(WeCat3dPoints) 0..1: [1280 points(first: X=0.204, Z=0.004)]"
  "ln@Time(F64) 0..5: [0, 0.2, 0.3, 0.9, 1.2]" -> "9: WeCat3dRightInside Resampler "
  "9: WeCat3dRightInside Resampler " -> "WeCat3dRightInside:Points:0@RailProfiles(WeCat3dPoints) 0..1: [1280 points(first: X=1.204, Z=1.004)]"
  "ProcessedRailProfileLeftInside@Time(ProcessedRailProfile) 0..4: [ProcessedProfile{Top: [2.0; 2.0], Side: [2.0; -59.9], Wear: 0.0 (at [2.0; -12.0]), Plastic flow: - (at [2.0; -2.4]), Running edge: [2.0; -2.4]}, ProcessedProfile{Top: [3.0; 3.0], Side: [3.0; -18.3], Wear: 0.0 (at [3.0; -11.0]), Plastic flow: - (at [3.0; -5.8]), Running edge: [3.0; -5.8]}, ProcessedProfile{Top: [4.0; 4.0], Side: [4.0; -57.9], Wear: 0.0 (at [4.0; -10.0]), Plastic flow: - (at [4.0; -0.4]), Running edge: [4.0; -0.4]}, ProcessedProfile{Top: [50.0; 10.0], Side: -, Wear: -, Plastic flow: - (at [50.0; 10.0]), Running edge: [50.0; 10.0]}]" -> "10: RailProfile-PlasticFlow"
  "10: RailProfile-PlasticFlow" -> "PlasticFlowLeft@Time(F64) 0..4: [NaN, NaN, NaN, NaN]"
  "ProcessedRailProfileRightInside@Time(ProcessedRailProfile) 0..4: [ProcessedProfile{Top: -, Side: -, Wear: -, Plastic flow: -, Running edge: -}, ProcessedProfile{Top: -, Side: -, Wear: -, Plastic flow: -, Running edge: -}, ProcessedProfile{Top: -, Side: -, Wear: -, Plastic flow: -, Running edge: -}, ProcessedProfile{Top: -, Side: -, Wear: -, Plastic flow: -, Running edge: -}]" -> "11: RailProfile-PlasticFlow"
  "11: RailProfile-PlasticFlow" -> "PlasticFlowRight@Time(F64) 0..4: [NaN, NaN, NaN, NaN]"
  "12: VGN01 Resampler" -> "VGN01:irc:0@GPK(IrcValue) 0..4: [10, 30, 30, 90]"
  "WeCat3dLeftInside:Points:0@RailProfiles(WeCat3dPoints) 0..1: [1280 points(first: X=0.204, Z=0.004)]" -> "13: RailProfile-Calibrate(OffsetX: 0 mm, OffsetZ: 0 mm, Angle: 0°0', Right rail, X Camera axis flipped)"
  "13: RailProfile-Calibrate(OffsetX: 0 mm, OffsetZ: 0 mm, Angle: 0°0', Right rail, X Camera axis flipped)" -> "RailProfileLeftInside@RailProfiles(WeCat3dPoints) 0..1: [1280 points(first: X=0.204, Z=0.004)]"
  "WeCat3dRightInside:Points:0@RailProfiles(WeCat3dPoints) 0..1: [1280 points(first: X=1.204, Z=1.004)]" -> "14: RailProfile-Calibrate(OffsetX: 0 mm, OffsetZ: 0 mm, Angle: 0°0', Right rail, X Camera axis flipped)"
  "14: RailProfile-Calibrate(OffsetX: 0 mm, OffsetZ: 0 mm, Angle: 0°0', Right rail, X Camera axis flipped)" -> "RailProfileRightInside@RailProfiles(WeCat3dPoints) 0..1: [1280 points(first: X=1.204, Z=1.004)]"
  "WeCat3dLeftInside@TimeDistance(F64) 0..4: [0.2, 0.3, 0.9, 1.2]" -> "15: TimeToDistanceResampler(0.25 m, Average(f64))"
  "PlasticFlowLeft@Time(F64) 0..4: [NaN, NaN, NaN, NaN]" -> "15: TimeToDistanceResampler(0.25 m, Average(f64))"
  "15: TimeToDistanceResampler(0.25 m, Average(f64))" -> "PlasticFlowLeft@GPK(F64) 0..4: [NaN, NaN, NaN, NaN]"
  "WeCat3dRightInside@TimeDistance(F64) 0..4: [0.2, 0.3, 0.9, 1.2]" -> "16: TimeToDistanceResampler(0.25 m, Average(f64))"
  "PlasticFlowRight@Time(F64) 0..4: [NaN, NaN, NaN, NaN]" -> "16: TimeToDistanceResampler(0.25 m, Average(f64))"
  "16: TimeToDistanceResampler(0.25 m, Average(f64))" -> "PlasticFlowRight@GPK(F64) 0..4: [NaN, NaN, NaN, NaN]"
  "VGN01:irc:0@GPK(IrcValue) 0..4: [10, 30, 30, 90]" -> "17: DistanceComputer(Up, k=0.01)"
  "17: DistanceComputer(Up, k=0.01)" -> "ln@GPK(F64) 0..4: [0.1, 0.3, 0.3, 0.9]"
  "RailProfileLeftInside@RailProfiles(WeCat3dPoints) 0..1: [1280 points(first: X=0.204, Z=0.004)]" -> "18: RailProfile-Process(Wear point to head top vertical distance: 14 mm
Rail bounding box:left: -15 mm, right: 50 mm, bottom: -150 mm, top: 10 mm
Head bounding box:left: -15 mm, right: 10 mm, bottom: -60 mm, top: 0 mm
Cluster filter: Minimum points in cluster = 5, Max distance = 1 mm
Head side detector: Angle = 0°0', number of points in line = 7, maximum deviation = 0.05 mm
Wear point X computer: Y range = 0.5 mm, maximum X range = 2 mm
Minimum horizontal leap between plastic flow and head side = 1 mm)"
  "18: RailProfile-Process(Wear point to head top vertical distance: 14 mm
Rail bounding box:left: -15 mm, right: 50 mm, bottom: -150 mm, top: 10 mm
Head bounding box:left: -15 mm, right: 10 mm, bottom: -60 mm, top: 0 mm
Cluster filter: Minimum points in cluster = 5, Max distance = 1 mm
Head side detector: Angle = 0°0', number of points in line = 7, maximum deviation = 0.05 mm
Wear point X computer: Y range = 0.5 mm, maximum X range = 2 mm
Minimum horizontal leap between plastic flow and head side = 1 mm)" -> "ProcessedRailProfileLeftInside@RailProfiles(ProcessedRailProfile) 0..1: [ProcessedProfile{Top: [4.0; 4.0], Side: [4.0; -57.9], Wear: 0.0 (at [4.0; -10.0]), Plastic flow: - (at [4.0; -0.4]), Running edge: [4.0; -0.4]}]"
  "RailProfileRightInside@RailProfiles(WeCat3dPoints) 0..1: [1280 points(first: X=1.204, Z=1.004)]" -> "19: RailProfile-Process(Wear point to head top vertical distance: 14 mm
Rail bounding box:left: -15 mm, right: 50 mm, bottom: -150 mm, top: 10 mm
Head bounding box:left: -15 mm, right: 10 mm, bottom: -60 mm, top: 0 mm
Cluster filter: Minimum points in cluster = 5, Max distance = 1 mm
Head side detector: Angle = 0°0', number of points in line = 7, maximum deviation = 0.05 mm
Wear point X computer: Y range = 0.5 mm, maximum X range = 2 mm
Minimum horizontal leap between plastic flow and head side = 1 mm)"
  "19: RailProfile-Process(Wear point to head top vertical distance: 14 mm
Rail bounding box:left: -15 mm, right: 50 mm, bottom: -150 mm, top: 10 mm
Head bounding box:left: -15 mm, right: 10 mm, bottom: -60 mm, top: 0 mm
Cluster filter: Minimum points in cluster = 5, Max distance = 1 mm
Head side detector: Angle = 0°0', number of points in line = 7, maximum deviation = 0.05 mm
Wear point X computer: Y range = 0.5 mm, maximum X range = 2 mm
Minimum horizontal leap between plastic flow and head side = 1 mm)" -> "ProcessedRailProfileRightInside@RailProfiles(ProcessedRailProfile) 0..1: [ProcessedProfile{Top: -, Side: -, Wear: -, Plastic flow: -, Running edge: -}]"
  "RailProfileLeftInside@RailProfiles(WeCat3dPoints) 0..1: [1280 points(first: X=0.204, Z=0.004)]" -> "20: Swap rails"
  "RailProfileRightInside@RailProfiles(WeCat3dPoints) 0..1: [1280 points(first: X=1.204, Z=1.004)]" -> "20: Swap rails"
  "20: Swap rails" -> "RailProfileLeftRailInside@RailProfiles(WeCat3dPoints) 0..1: [1280 points(first: X=0.204, Z=0.004)]"
  "PlasticFlowLeft@GPK(F64) 0..4: [NaN, NaN, NaN, NaN]" -> "21: Swap rails"
  "PlasticFlowRight@GPK(F64) 0..4: [NaN, NaN, NaN, NaN]" -> "21: Swap rails"
  "21: Swap rails" -> "PlasticFlowLeftRail@GPK(F64) 0..4: [NaN, NaN, NaN, NaN]"
  "RailProfileRightInside@RailProfiles(WeCat3dPoints) 0..1: [1280 points(first: X=1.204, Z=1.004)]" -> "22: Swap rails"
  "RailProfileLeftInside@RailProfiles(WeCat3dPoints) 0..1: [1280 points(first: X=0.204, Z=0.004)]" -> "22: Swap rails"
  "22: Swap rails" -> "RailProfileRightRailInside@RailProfiles(WeCat3dPoints) 0..1: [1280 points(first: X=1.204, Z=1.004)]"
  "PlasticFlowRight@GPK(F64) 0..4: [NaN, NaN, NaN, NaN]" -> "23: Swap rails"
  "PlasticFlowLeft@GPK(F64) 0..4: [NaN, NaN, NaN, NaN]" -> "23: Swap rails"
  "23: Swap rails" -> "PlasticFlowRightRail@GPK(F64) 0..4: [NaN, NaN, NaN, NaN]"
}