digraph {
  rankdir=LR;  node [shape=box];  graph [fontname = "helvetica"]  node [fontname = "helvetica"]  edge [fontname = "helvetica"]    "0: VGN01 Resampler" [shape=doubleoctagon, style="filled,solid",fillcolor="#E6FFFF", label="VGN01 Resampler", tooltip="VGN Resampler"];
    "VGN01:irc:0(IrcValue) 0..4: [10, 30, 30, 90]" [tooltip="ln, Travelled distance", shape=rectangle, style="filled,solid", fillcolor="#E6FFFF"];
    "1: TimeToDistanceResampler(0.25 m, Average(f64))" [shape=octagon, style="filled,solid",fillcolor="#ECF5F5", label="TimeToDistanceResampler(0.25 m, Average(\nf64))", tooltip="Resample from time to distance domain. Resamples f64 values by averaging them. Discard values when the sampling signal doesn't change (the trolley is standing still)"];
    "WeCat3dLeftInside@TimeDistance(F64) 0..4: [0.2, 0.3, 0.9, 1.2]" [tooltip="", shape=oval, style="filled,solid,bold", fillcolor="#FAFAFA"];
    "PlasticFlowLeft@Time(F64) 0..4: [NaN, NaN, NaN, NaN]" [tooltip="PlasticFlowLeft, Plastic flow of rail on the left trolley side", shape=oval, style="filled,solid,bold", fillcolor="#E6E6E6"];
    "PlasticFlowLeft(F64) 0..4: [NaN, NaN, NaN, NaN]" [tooltip="PlasticFlowLeft, Plastic flow of rail on the left trolley side", shape=oval, style="filled,solid,bold", fillcolor="#E6FFFF"];
    "2: TimeToDistanceResampler(0.25 m, Average(f64))" [shape=octagon, style="filled,solid",fillcolor="#ECF5F5", label="TimeToDistanceResampler(0.25 m, Average(\nf64))", tooltip="Resample from time to distance domain. Resamples f64 values by averaging them. Discard values when the sampling signal doesn't change (the trolley is standing still)"];
    "WeCat3dRightInside@TimeDistance(F64) 0..4: [0.2, 0.3, 0.9, 1.2]" [tooltip="", shape=oval, style="filled,solid,bold", fillcolor="#FAFAFA"];
    "PlasticFlowRight@Time(F64) 0..4: [NaN, NaN, NaN, NaN]" [tooltip="PlasticFlowRight, Plastic flow of rail on the right trolley side", shape=oval, style="filled,solid,bold", fillcolor="#E6E6E6"];
    "PlasticFlowRight(F64) 0..4: [NaN, NaN, NaN, NaN]" [tooltip="PlasticFlowRight, Plastic flow of rail on the right trolley side", shape=oval, style="filled,solid,bold", fillcolor="#E6FFFF"];
    "3: DistanceComputer(Up, k=0.01)" [shape=octagon, style="filled,solid",fillcolor="#E6FFFF", label="DistanceComputer(Up, k=0.01)", tooltip="Computes travelled distance signal from a 64-bit IRC channel via KQ calibration while respecting Orientation. This processor is implicitly created by the channel definition."];
    "VGN01:irc:0(IrcValue) 0..4: [10, 30, 30, 90]" [tooltip="ln, Travelled distance", shape=rectangle, style="filled,solid", fillcolor="#E6FFFF"];
    "ln(F64) 0..4: [0.1, 0.3, 0.3, 0.9]" [tooltip="ln, Travelled distance", shape=oval, style="filled,solid,bold", fillcolor="#E6FFFF"];
    "4: Swap rails" [shape=octagon, style="filled,solid",fillcolor="#E6FFFF", label="Swap rails", tooltip="If Trolley orientation matches kilometrage direction, pass through the `+` input, if they oppose pass through the `-` input."];
    "PlasticFlowLeft(F64) 0..4: [NaN, NaN, NaN, NaN]" [tooltip="PlasticFlowLeft, Plastic flow of rail on the left trolley side", shape=oval, style="filled,solid,bold", fillcolor="#E6FFFF"];
    "PlasticFlowRight(F64) 0..4: [NaN, NaN, NaN, NaN]" [tooltip="PlasticFlowRight, Plastic flow of rail on the right trolley side", shape=oval, style="filled,solid,bold", fillcolor="#E6FFFF"];
    "PlasticFlowLeftRail(F64) 0..4: [NaN, NaN, NaN, NaN]" [tooltip="PlasticFlowLeftRail, Plastic flow left inside rail", shape=oval, style="filled,solid,bold", fillcolor="#E6FFFF"];
    "5: Swap rails" [shape=octagon, style="filled,solid",fillcolor="#E6FFFF", label="Swap rails", tooltip="If Trolley orientation matches kilometrage direction, pass through the `+` input, if they oppose pass through the `-` input."];
    "PlasticFlowRight(F64) 0..4: [NaN, NaN, NaN, NaN]" [tooltip="PlasticFlowRight, Plastic flow of rail on the right trolley side", shape=oval, style="filled,solid,bold", fillcolor="#E6FFFF"];
    "PlasticFlowLeft(F64) 0..4: [NaN, NaN, NaN, NaN]" [tooltip="PlasticFlowLeft, Plastic flow of rail on the left trolley side", shape=oval, style="filled,solid,bold", fillcolor="#E6FFFF"];
    "PlasticFlowRightRail(F64) 0..4: [NaN, NaN, NaN, NaN]" [tooltip="PlasticFlowRightRail, Plastic flow right inside rail", shape=oval, style="filled,solid,bold", fillcolor="#E6FFFF"];
  "0: VGN01 Resampler" -> "VGN01:irc:0(IrcValue) 0..4: [10, 30, 30, 90]"
  "WeCat3dLeftInside@TimeDistance(F64) 0..4: [0.2, 0.3, 0.9, 1.2]" -> "1: TimeToDistanceResampler(0.25 m, Average(f64))"
  "PlasticFlowLeft@Time(F64) 0..4: [NaN, NaN, NaN, NaN]" -> "1: TimeToDistanceResampler(0.25 m, Average(f64))"
  "1: TimeToDistanceResampler(0.25 m, Average(f64))" -> "PlasticFlowLeft(F64) 0..4: [NaN, NaN, NaN, NaN]"
  "WeCat3dRightInside@TimeDistance(F64) 0..4: [0.2, 0.3, 0.9, 1.2]" -> "2: TimeToDistanceResampler(0.25 m, Average(f64))"
  "PlasticFlowRight@Time(F64) 0..4: [NaN, NaN, NaN, NaN]" -> "2: TimeToDistanceResampler(0.25 m, Average(f64))"
  "2: TimeToDistanceResampler(0.25 m, Average(f64))" -> "PlasticFlowRight(F64) 0..4: [NaN, NaN, NaN, NaN]"
  "VGN01:irc:0(IrcValue) 0..4: [10, 30, 30, 90]" -> "3: DistanceComputer(Up, k=0.01)"
  "3: DistanceComputer(Up, k=0.01)" -> "ln(F64) 0..4: [0.1, 0.3, 0.3, 0.9]"
  "PlasticFlowLeft(F64) 0..4: [NaN, NaN, NaN, NaN]" -> "4: Swap rails"
  "PlasticFlowRight(F64) 0..4: [NaN, NaN, NaN, NaN]" -> "4: Swap rails"
  "4: Swap rails" -> "PlasticFlowLeftRail(F64) 0..4: [NaN, NaN, NaN, NaN]"
  "PlasticFlowRight(F64) 0..4: [NaN, NaN, NaN, NaN]" -> "5: Swap rails"
  "PlasticFlowLeft(F64) 0..4: [NaN, NaN, NaN, NaN]" -> "5: Swap rails"
  "5: Swap rails" -> "PlasticFlowRightRail(F64) 0..4: [NaN, NaN, NaN, NaN]"
}