Signal VGN01@TimeDistance(f64 0..5): [0, 0.2, 0.3, 0.9, 1.2]
Channel VGN01:irc:0@Time(irc 0..5): [0, 20, 30, 90, 120]
Signal ln@Time(f64 0..5): [0, 0.2, 0.3, 0.9, 1.2]
Signal WeCat3dLeftInside@TimeDistance(f64 0..4): [0.2, 0.3, 0.9, 1.2]
Channel WeCat3dLeftInside:Points:0@Time(wecat3d 0..4): [1280 points(first: X=0.20200000703334808, Z=0.0020000000949949026), 1280 points(first: X=0.203000009059906, Z=0.003000000026077032), 1280 points(first: X=0.20399999618530273, Z=0.004000000189989805), 1280 points(first: X=0.25, Z=0.05000000074505806)]
Signal WeCat3dRightInside@TimeDistance(f64 0..4): [0.2, 0.3, 0.9, 1.2]
Channel WeCat3dRightInside:Points:0@Time(wecat3d 0..4): [1280 points(first: X=1.2020001411437988, Z=1.002000093460083), 1280 points(first: X=1.2030000686645508, Z=1.003000020980835), 1280 points(first: X=1.2040001153945923, Z=1.0040000677108765), 1280 points(first: X=1.2500001192092896, Z=1.0500000715255737)]
Signal RailProfileLeftInside@Time(wecat3d 0..4): [1280 points(first: X=0.20200000703334808, Z=0.0020000000949949026), 1280 points(first: X=0.203000009059906, Z=0.003000000026077032), 1280 points(first: X=0.20399999618530273, Z=0.004000000189989805), 1280 points(first: X=0.25, Z=0.05000000074505806)]
Signal RailProfileRightInside@Time(wecat3d 0..4): [1280 points(first: X=1.2020001411437988, Z=1.002000093460083), 1280 points(first: X=1.2030000686645508, Z=1.003000020980835), 1280 points(first: X=1.2040001153945923, Z=1.0040000677108765), 1280 points(first: X=1.2500001192092896, Z=1.0500000715255737)]
Signal ProcessedRailProfileLeftInside@Time(ProcessedRailProfiles 0..4): [ProcessedProfile{Top: [2.0; 2.0], Side: [2.0; -59.9], Wear: 0.0 (at [2.0; -12.0]), Plastic flow: - (at [2.0; -2.4]), Running edge: [2.0; -2.4]}, ProcessedProfile{Top: [3.0; 3.0], Side: [3.0; -18.3], Wear: 0.0 (at [3.0; -11.0]), Plastic flow: - (at [3.0; -5.8]), Running edge: [3.0; -5.8]}, ProcessedProfile{Top: [4.0; 4.0], Side: [4.0; -57.9], Wear: 0.0 (at [4.0; -10.0]), Plastic flow: - (at [4.0; -0.4]), Running edge: [4.0; -0.4]}, ProcessedProfile{Top: [50.0; 10.0], Side: -, Wear: -, Plastic flow: - (at [50.0; 10.0]), Running edge: [50.0; 10.0]}]
Signal ProcessedRailProfileRightInside@Time(ProcessedRailProfiles 0..4): [ProcessedProfile{Top: -, Side: -, Wear: -, Plastic flow: -, Running edge: -}, ProcessedProfile{Top: -, Side: -, Wear: -, Plastic flow: -, Running edge: -}, ProcessedProfile{Top: -, Side: -, Wear: -, Plastic flow: -, Running edge: -}, ProcessedProfile{Top: -, Side: -, Wear: -, Plastic flow: -, Running edge: -}]
Channel WeCat3dLeftInside:Points:0@RailProfiles(wecat3d 0..1): [1280 points(first: X=0.20399999618530273, Z=0.004000000189989805)]
Channel WeCat3dRightInside:Points:0@RailProfiles(wecat3d 0..1): [1280 points(first: X=1.2040001153945923, Z=1.0040000677108765)]
Signal PlasticFlowLeft@Time(f64 0..4): [NaN, NaN, NaN, NaN]
Signal PlasticFlowRight@Time(f64 0..4): [NaN, NaN, NaN, NaN]
Channel VGN01:irc:0@GPK(irc 0..4): [10, 30, 30, 90]
Signal RailProfileLeftInside@RailProfiles(wecat3d 0..1): [1280 points(first: X=0.20399999618530273, Z=0.004000000189989805)]
Signal RailProfileRightInside@RailProfiles(wecat3d 0..1): [1280 points(first: X=1.2040001153945923, Z=1.0040000677108765)]
Signal PlasticFlowLeft@GPK(f64 0..4): [NaN, NaN, NaN, NaN]
Signal PlasticFlowRight@GPK(f64 0..4): [NaN, NaN, NaN, NaN]
Signal ln@GPK(f64 0..4): [0.1, 0.3, 0.3, 0.9]
Signal ProcessedRailProfileLeftInside@RailProfiles(ProcessedRailProfiles 0..1): [ProcessedProfile{Top: [4.0; 4.0], Side: [4.0; -57.9], Wear: 0.0 (at [4.0; -10.0]), Plastic flow: - (at [4.0; -0.4]), Running edge: [4.0; -0.4]}]
Signal ProcessedRailProfileRightInside@RailProfiles(ProcessedRailProfiles 0..1): [ProcessedProfile{Top: -, Side: -, Wear: -, Plastic flow: -, Running edge: -}]
Signal RailProfileLeftRailInside@RailProfiles(wecat3d 0..1): [1280 points(first: X=0.20399999618530273, Z=0.004000000189989805)]
Signal PlasticFlowLeftRail@GPK(f64 0..4): [NaN, NaN, NaN, NaN]
Signal RailProfileRightRailInside@RailProfiles(wecat3d 0..1): [1280 points(first: X=1.2040001153945923, Z=1.0040000677108765)]
Signal PlasticFlowRightRail@GPK(f64 0..4): [NaN, NaN, NaN, NaN]