<?xml version="1.0" encoding="UTF-8" standalone="no"?>
<!DOCTYPE svg PUBLIC "-//W3C//DTD SVG 1.1//EN"
 "http://www.w3.org/Graphics/SVG/1.1/DTD/svg11.dtd">
<!-- Generated by graphviz version 2.43.0 (0)
 -->
<!-- Title: %3 Pages: 1 -->
<svg width="1269pt" height="152pt"
 viewBox="0.00 0.00 1268.58 152.00" xmlns="http://www.w3.org/2000/svg" xmlns:xlink="http://www.w3.org/1999/xlink">
<g id="graph0" class="graph" transform="scale(1 1) rotate(0) translate(4 148)">
<title>%3</title>
<polygon fill="white" stroke="transparent" points="-4,4 -4,-148 1264.58,-148 1264.58,4 -4,4"/>
<!-- 0: VGN01 Resampler -->
<g id="node1" class="node">
<title>0: VGN01 Resampler</title>
<g id="a_node1"><a xlink:title="VGN Resampler">
<polygon fill="#e6ffff" stroke="black" points="188.47,-64.54 188.47,-79.46 134.39,-90 57.92,-90 3.85,-79.46 3.85,-64.54 57.92,-54 134.39,-54 188.47,-64.54"/>
<polygon fill="none" stroke="black" points="192.47,-61.25 192.47,-82.75 134.78,-94 57.53,-94 -0.16,-82.75 -0.16,-61.25 57.53,-50 134.78,-50 192.47,-61.25"/>
<text text-anchor="middle" x="96.16" y="-68.3" font-family="Helvetica,sans-Serif" font-size="14.00">VGN01 Resampler</text>
</a>
</g>
</g>
<!-- VGN01:ad:1(U16)  -->
<g id="node2" class="node">
<title>VGN01:ad:1(U16) </title>
<g id="a_node2"><a xlink:title="qRK, Quasi Gauge">
<polygon fill="#e6ffff" stroke="black" points="369.32,-144 240.32,-144 240.32,-108 369.32,-108 369.32,-144"/>
<text text-anchor="middle" x="304.82" y="-122.3" font-family="Helvetica,sans-Serif" font-size="14.00">VGN01:ad:1(U16) </text>
</a>
</g>
</g>
<!-- 0: VGN01 Resampler&#45;&gt;VGN01:ad:1(U16)  -->
<g id="edge1" class="edge">
<title>0: VGN01 Resampler&#45;&gt;VGN01:ad:1(U16) </title>
<path fill="none" stroke="black" d="M161.7,-88.86C183.46,-94.55 207.92,-100.94 230.32,-106.8"/>
<polygon fill="black" stroke="black" points="229.56,-110.21 240.12,-109.36 231.33,-103.44 229.56,-110.21"/>
</g>
<!-- VGN01:ad:2(U16)  -->
<g id="node3" class="node">
<title>VGN01:ad:2(U16) </title>
<g id="a_node3"><a xlink:title="SK, Alignment">
<polygon fill="#e6ffff" stroke="black" points="369.32,-90 240.32,-90 240.32,-54 369.32,-54 369.32,-90"/>
<text text-anchor="middle" x="304.82" y="-68.3" font-family="Helvetica,sans-Serif" font-size="14.00">VGN01:ad:2(U16) </text>
</a>
</g>
</g>
<!-- 0: VGN01 Resampler&#45;&gt;VGN01:ad:2(U16)  -->
<g id="edge2" class="edge">
<title>0: VGN01 Resampler&#45;&gt;VGN01:ad:2(U16) </title>
<path fill="none" stroke="black" d="M192.32,-72C204.98,-72 217.81,-72 230.03,-72"/>
<polygon fill="black" stroke="black" points="230.14,-75.5 240.14,-72 230.14,-68.5 230.14,-75.5"/>
</g>
<!-- VGN01:irc:0(IrcValue)  -->
<g id="node4" class="node">
<title>VGN01:irc:0(IrcValue) </title>
<g id="a_node4"><a xlink:title="ln, Travelled distance">
<polygon fill="#e6ffff" stroke="black" points="381.32,-36 228.32,-36 228.32,0 381.32,0 381.32,-36"/>
<text text-anchor="middle" x="304.82" y="-14.3" font-family="Helvetica,sans-Serif" font-size="14.00">VGN01:irc:0(IrcValue) </text>
</a>
</g>
</g>
<!-- 0: VGN01 Resampler&#45;&gt;VGN01:irc:0(IrcValue)  -->
<g id="edge3" class="edge">
<title>0: VGN01 Resampler&#45;&gt;VGN01:irc:0(IrcValue) </title>
<path fill="none" stroke="black" d="M161.7,-55.14C181.73,-49.9 204.05,-44.07 224.95,-38.61"/>
<polygon fill="black" stroke="black" points="225.97,-41.96 234.76,-36.05 224.2,-35.19 225.97,-41.96"/>
</g>
<!-- 2: AdCalibrator -->
<g id="node7" class="node">
<title>2: AdCalibrator</title>
<g id="a_node7"><a xlink:title="Computes a signal from a 16&#45;bit AD channel via KQ calibration. This processor is implicitly created by the channel definition.">
<polygon fill="#e6ffff" stroke="black" points="573.01,-118.54 573.01,-133.46 534.97,-144 481.17,-144 443.12,-133.46 443.12,-118.54 481.17,-108 534.97,-108 573.01,-118.54"/>
<text text-anchor="middle" x="508.07" y="-122.3" font-family="Helvetica,sans-Serif" font-size="14.00">AdCalibrator</text>
</a>
</g>
</g>
<!-- VGN01:ad:1(U16) &#45;&gt;2: AdCalibrator -->
<g id="edge6" class="edge">
<title>VGN01:ad:1(U16) &#45;&gt;2: AdCalibrator</title>
<path fill="none" stroke="black" d="M369.49,-126C389.68,-126 412.17,-126 433.02,-126"/>
<polygon fill="black" stroke="black" points="433.11,-129.5 443.11,-126 433.11,-122.5 433.11,-129.5"/>
</g>
<!-- 3: AdCalibrator -->
<g id="node9" class="node">
<title>3: AdCalibrator</title>
<g id="a_node9"><a xlink:title="Computes a signal from a 16&#45;bit AD channel via KQ calibration. This processor is implicitly created by the channel definition.">
<polygon fill="#e6ffff" stroke="black" points="573.01,-64.54 573.01,-79.46 534.97,-90 481.17,-90 443.12,-79.46 443.12,-64.54 481.17,-54 534.97,-54 573.01,-64.54"/>
<text text-anchor="middle" x="508.07" y="-68.3" font-family="Helvetica,sans-Serif" font-size="14.00">AdCalibrator</text>
</a>
</g>
</g>
<!-- VGN01:ad:2(U16) &#45;&gt;3: AdCalibrator -->
<g id="edge8" class="edge">
<title>VGN01:ad:2(U16) &#45;&gt;3: AdCalibrator</title>
<path fill="none" stroke="black" d="M369.49,-72C389.68,-72 412.17,-72 433.02,-72"/>
<polygon fill="black" stroke="black" points="433.11,-75.5 443.11,-72 433.11,-68.5 433.11,-75.5"/>
</g>
<!-- 1: DistanceComputer -->
<g id="node5" class="node">
<title>1: DistanceComputer</title>
<g id="a_node5"><a xlink:title="Computes travelled distance signal from a 64&#45;bit IRC channel via KQ calibration while respecting Orientation. This processor is implicitly created by the channel definition.">
<polygon fill="#e6ffff" stroke="black" points="598.57,-10.54 598.57,-25.46 545.55,-36 470.58,-36 417.56,-25.46 417.56,-10.54 470.58,0 545.55,0 598.57,-10.54"/>
<text text-anchor="middle" x="508.07" y="-14.3" font-family="Helvetica,sans-Serif" font-size="14.00">DistanceComputer</text>
</a>
</g>
</g>
<!-- VGN01:irc:0(IrcValue) &#45;&gt;1: DistanceComputer -->
<g id="edge4" class="edge">
<title>VGN01:irc:0(IrcValue) &#45;&gt;1: DistanceComputer</title>
<path fill="none" stroke="black" d="M381.33,-18C389.74,-18 398.41,-18 407.07,-18"/>
<polygon fill="black" stroke="black" points="407.22,-21.5 417.22,-18 407.22,-14.5 407.22,-21.5"/>
</g>
<!-- ln(F64)  -->
<g id="node6" class="node">
<title>ln(F64) </title>
<g id="a_node6"><a xlink:title="ln, Travelled distance">
<ellipse fill="#e6ffff" stroke="black" stroke-width="2" cx="686.16" cy="-18" rx="40.89" ry="18"/>
<text text-anchor="middle" x="686.16" y="-14.3" font-family="Helvetica,sans-Serif" font-size="14.00">ln(F64) </text>
</a>
</g>
</g>
<!-- 1: DistanceComputer&#45;&gt;ln(F64)  -->
<g id="edge5" class="edge">
<title>1: DistanceComputer&#45;&gt;ln(F64) </title>
<path fill="none" stroke="black" d="M598.66,-18C611.15,-18 623.6,-18 635,-18"/>
<polygon fill="black" stroke="black" points="635.15,-21.5 645.15,-18 635.15,-14.5 635.15,-21.5"/>
</g>
<!-- 4: Kilometrage -->
<g id="node11" class="node">
<title>4: Kilometrage</title>
<g id="a_node11"><a xlink:title="Computes current kilometrage from start kilometrage, direction and track events that alter the kilometrage">
<polygon fill="#e6ffff" stroke="black" points="1015.62,-10.54 1015.62,-25.46 978.88,-36 926.92,-36 890.18,-25.46 890.18,-10.54 926.92,0 978.88,0 1015.62,-10.54"/>
<text text-anchor="middle" x="952.9" y="-14.3" font-family="Helvetica,sans-Serif" font-size="14.00">Kilometrage</text>
</a>
</g>
</g>
<!-- ln(F64) &#45;&gt;4: Kilometrage -->
<g id="edge10" class="edge">
<title>ln(F64) &#45;&gt;4: Kilometrage</title>
<path fill="none" stroke="black" d="M727.37,-18C767.75,-18 830.84,-18 879.87,-18"/>
<polygon fill="black" stroke="black" points="880.11,-21.5 890.11,-18 880.11,-14.5 880.11,-21.5"/>
</g>
<!-- qRK(F64)  -->
<g id="node8" class="node">
<title>qRK(F64) </title>
<g id="a_node8"><a xlink:title="qRK, Quasi Gauge">
<ellipse fill="#e6ffff" stroke="black" stroke-width="2" cx="686.16" cy="-126" rx="51.19" ry="18"/>
<text text-anchor="middle" x="686.16" y="-122.3" font-family="Helvetica,sans-Serif" font-size="14.00">qRK(F64) </text>
</a>
</g>
</g>
<!-- 2: AdCalibrator&#45;&gt;qRK(F64)  -->
<g id="edge7" class="edge">
<title>2: AdCalibrator&#45;&gt;qRK(F64) </title>
<path fill="none" stroke="black" d="M573.14,-126C589.91,-126 607.95,-126 624.54,-126"/>
<polygon fill="black" stroke="black" points="624.66,-129.5 634.66,-126 624.66,-122.5 624.66,-129.5"/>
</g>
<!-- 5: PrimaryGeometryContact&#45;GaugeSLight -->
<g id="node13" class="node">
<title>5: PrimaryGeometryContact&#45;GaugeSLight</title>
<g id="a_node13"><a xlink:title="Computes Gauge for S&#45;Light Krab as `QuasiGauge &#45; Alignment`">
<polygon fill="#e6ffff" stroke="black" points="1132.18,-91.54 1132.18,-106.46 1027.16,-117 878.64,-117 773.62,-106.46 773.62,-91.54 878.64,-81 1027.16,-81 1132.18,-91.54"/>
<text text-anchor="middle" x="952.9" y="-95.3" font-family="Helvetica,sans-Serif" font-size="14.00">PrimaryGeometryContact&#45;GaugeSLight</text>
</a>
</g>
</g>
<!-- qRK(F64) &#45;&gt;5: PrimaryGeometryContact&#45;GaugeSLight -->
<g id="edge12" class="edge">
<title>qRK(F64) &#45;&gt;5: PrimaryGeometryContact&#45;GaugeSLight</title>
<path fill="none" stroke="black" d="M735.72,-121.05C758.69,-118.71 787.37,-115.78 816.26,-112.83"/>
<polygon fill="black" stroke="black" points="816.89,-116.29 826.48,-111.79 816.18,-109.32 816.89,-116.29"/>
</g>
<!-- SK(F64)  -->
<g id="node10" class="node">
<title>SK(F64) </title>
<g id="a_node10"><a xlink:title="SK, Alignment">
<ellipse fill="#e6ffff" stroke="black" stroke-width="2" cx="686.16" cy="-72" rx="46.29" ry="18"/>
<text text-anchor="middle" x="686.16" y="-68.3" font-family="Helvetica,sans-Serif" font-size="14.00">SK(F64) </text>
</a>
</g>
</g>
<!-- 3: AdCalibrator&#45;&gt;SK(F64)  -->
<g id="edge9" class="edge">
<title>3: AdCalibrator&#45;&gt;SK(F64) </title>
<path fill="none" stroke="black" d="M573.14,-72C591.72,-72 611.85,-72 629.84,-72"/>
<polygon fill="black" stroke="black" points="629.88,-75.5 639.88,-72 629.88,-68.5 629.88,-75.5"/>
</g>
<!-- SK(F64) &#45;&gt;5: PrimaryGeometryContact&#45;GaugeSLight -->
<g id="edge13" class="edge">
<title>SK(F64) &#45;&gt;5: PrimaryGeometryContact&#45;GaugeSLight</title>
<path fill="none" stroke="black" d="M730.88,-76.46C754.6,-78.88 785.35,-82.01 816.33,-85.17"/>
<polygon fill="black" stroke="black" points="816.09,-88.67 826.39,-86.2 816.8,-81.7 816.09,-88.67"/>
</g>
<!-- km(F64)  -->
<g id="node12" class="node">
<title>km(F64) </title>
<g id="a_node12"><a xlink:title="km, Kilometrage">
<ellipse fill="#e6ffff" stroke="black" stroke-width="2" cx="1214.43" cy="-18" rx="46.29" ry="18"/>
<text text-anchor="middle" x="1214.43" y="-14.3" font-family="Helvetica,sans-Serif" font-size="14.00">km(F64) </text>
</a>
</g>
</g>
<!-- 4: Kilometrage&#45;&gt;km(F64)  -->
<g id="edge11" class="edge">
<title>4: Kilometrage&#45;&gt;km(F64) </title>
<path fill="none" stroke="black" d="M1015.73,-18C1058.86,-18 1115.92,-18 1157.65,-18"/>
<polygon fill="black" stroke="black" points="1157.92,-21.5 1167.92,-18 1157.92,-14.5 1157.92,-21.5"/>
</g>
<!-- RK(F64)  -->
<g id="node14" class="node">
<title>RK(F64) </title>
<g id="a_node14"><a xlink:title="RK, Gauge">
<ellipse fill="#e6ffff" stroke="black" stroke-width="2" cx="1214.43" cy="-99" rx="46.29" ry="18"/>
<text text-anchor="middle" x="1214.43" y="-95.3" font-family="Helvetica,sans-Serif" font-size="14.00">RK(F64) </text>
</a>
</g>
</g>
<!-- 5: PrimaryGeometryContact&#45;GaugeSLight&#45;&gt;RK(F64)  -->
<g id="edge14" class="edge">
<title>5: PrimaryGeometryContact&#45;GaugeSLight&#45;&gt;RK(F64) </title>
<path fill="none" stroke="black" d="M1132.38,-99C1141.33,-99 1149.91,-99 1157.93,-99"/>
<polygon fill="black" stroke="black" points="1158.12,-102.5 1168.12,-99 1158.12,-95.5 1158.12,-102.5"/>
</g>
</g>
</svg>
