<?xml version="1.0" encoding="UTF-8" standalone="no"?>
<!DOCTYPE svg PUBLIC "-//W3C//DTD SVG 1.1//EN"
 "http://www.w3.org/Graphics/SVG/1.1/DTD/svg11.dtd">
<!-- Generated by graphviz version 2.43.0 (0)
 -->
<!-- Title: %3 Pages: 1 -->
<svg width="1386pt" height="206pt"
 viewBox="0.00 0.00 1385.94 206.00" xmlns="http://www.w3.org/2000/svg" xmlns:xlink="http://www.w3.org/1999/xlink">
<g id="graph0" class="graph" transform="scale(1 1) rotate(0) translate(4 202)">
<title>%3</title>
<polygon fill="white" stroke="transparent" points="-4,4 -4,-202 1381.94,-202 1381.94,4 -4,4"/>
<!-- 0: VGN01 Time Source -->
<g id="node1" class="node">
<title>0: VGN01 Time Source</title>
<g id="a_node1"><a xlink:title="VGN Time Source">
<polygon fill="#f0f0f0" stroke="black" points="205.29,-91.54 205.29,-106.46 146.31,-117 62.89,-117 3.9,-106.46 3.9,-91.54 62.89,-81 146.31,-81 205.29,-91.54"/>
<polygon fill="none" stroke="black" points="209.3,-88.2 209.3,-109.8 146.66,-121 62.53,-121 -0.1,-109.8 -0.1,-88.2 62.53,-77 146.66,-77 209.3,-88.2"/>
<text text-anchor="middle" x="104.6" y="-95.3" font-family="Helvetica,sans-Serif" font-size="14.00">VGN01 Time Source</text>
</a>
</g>
</g>
<!-- VGN01:ad:1(U16)  -->
<g id="node2" class="node">
<title>VGN01:ad:1(U16) </title>
<g id="a_node2"><a xlink:title="qRK, Quasi Gauge">
<polygon fill="#e6e6e6" stroke="black" points="436.44,-198 307.44,-198 307.44,-162 436.44,-162 436.44,-198"/>
<text text-anchor="middle" x="371.94" y="-176.3" font-family="Helvetica,sans-Serif" font-size="14.00">VGN01:ad:1(U16) </text>
</a>
</g>
</g>
<!-- 0: VGN01 Time Source&#45;&gt;VGN01:ad:1(U16)  -->
<g id="edge1" class="edge">
<title>0: VGN01 Time Source&#45;&gt;VGN01:ad:1(U16) </title>
<path fill="none" stroke="black" d="M153.72,-119.78C180.33,-130.71 214.2,-143.74 245.2,-153 261.83,-157.97 279.96,-162.41 297.14,-166.18"/>
<polygon fill="black" stroke="black" points="296.61,-169.65 307.12,-168.33 298.08,-162.81 296.61,-169.65"/>
</g>
<!-- VGN01:ad:2(U16)  -->
<g id="node3" class="node">
<title>VGN01:ad:2(U16) </title>
<g id="a_node3"><a xlink:title="SK, Alignment">
<polygon fill="#e6e6e6" stroke="black" points="436.44,-144 307.44,-144 307.44,-108 436.44,-108 436.44,-144"/>
<text text-anchor="middle" x="371.94" y="-122.3" font-family="Helvetica,sans-Serif" font-size="14.00">VGN01:ad:2(U16) </text>
</a>
</g>
</g>
<!-- 0: VGN01 Time Source&#45;&gt;VGN01:ad:2(U16)  -->
<g id="edge2" class="edge">
<title>0: VGN01 Time Source&#45;&gt;VGN01:ad:2(U16) </title>
<path fill="none" stroke="black" d="M209.33,-109.55C238.58,-112.53 269.81,-115.71 296.95,-118.47"/>
<polygon fill="black" stroke="black" points="296.83,-121.98 307.13,-119.51 297.54,-115.01 296.83,-121.98"/>
</g>
<!-- VGN01:irc:0(IrcValue)  -->
<g id="node4" class="node">
<title>VGN01:irc:0(IrcValue) </title>
<g id="a_node4"><a xlink:title="ln, Travelled distance">
<polygon fill="#e6e6e6" stroke="black" points="448.44,-90 295.44,-90 295.44,-54 448.44,-54 448.44,-90"/>
<text text-anchor="middle" x="371.94" y="-68.3" font-family="Helvetica,sans-Serif" font-size="14.00">VGN01:irc:0(IrcValue) </text>
</a>
</g>
</g>
<!-- 0: VGN01 Time Source&#45;&gt;VGN01:irc:0(IrcValue)  -->
<g id="edge3" class="edge">
<title>0: VGN01 Time Source&#45;&gt;VGN01:irc:0(IrcValue) </title>
<path fill="none" stroke="black" d="M209.33,-88.45C234.38,-85.9 260.88,-83.2 285.02,-80.74"/>
<polygon fill="black" stroke="black" points="285.61,-84.2 295.21,-79.71 284.9,-77.24 285.61,-84.2"/>
</g>
<!-- VGN01@TimeDistance(F64)  -->
<g id="node5" class="node">
<title>VGN01@TimeDistance(F64) </title>
<ellipse fill="#fafafa" stroke="black" stroke-width="2" cx="371.94" cy="-18" rx="126.98" ry="18"/>
<text text-anchor="middle" x="371.94" y="-14.3" font-family="Helvetica,sans-Serif" font-size="14.00">VGN01@TimeDistance(F64) </text>
</g>
<!-- 0: VGN01 Time Source&#45;&gt;VGN01@TimeDistance(F64)  -->
<g id="edge4" class="edge">
<title>0: VGN01 Time Source&#45;&gt;VGN01@TimeDistance(F64) </title>
<path fill="none" stroke="black" d="M153.72,-78.22C180.33,-67.29 214.2,-54.26 245.2,-45 257.81,-41.23 271.29,-37.77 284.56,-34.66"/>
<polygon fill="black" stroke="black" points="285.68,-38 294.65,-32.36 284.12,-31.17 285.68,-38"/>
</g>
<!-- 2: AdCalibrator -->
<g id="node8" class="node">
<title>2: AdCalibrator</title>
<g id="a_node8"><a xlink:title="Computes a signal from a 16&#45;bit AD channel via KQ calibration. This processor is implicitly created by the channel definition.">
<polygon fill="#e6e6e6" stroke="black" points="690.37,-172.54 690.37,-187.46 652.33,-198 598.53,-198 560.48,-187.46 560.48,-172.54 598.53,-162 652.33,-162 690.37,-172.54"/>
<text text-anchor="middle" x="625.43" y="-176.3" font-family="Helvetica,sans-Serif" font-size="14.00">AdCalibrator</text>
</a>
</g>
</g>
<!-- VGN01:ad:1(U16) &#45;&gt;2: AdCalibrator -->
<g id="edge7" class="edge">
<title>VGN01:ad:1(U16) &#45;&gt;2: AdCalibrator</title>
<path fill="none" stroke="black" d="M436.72,-180C471.16,-180 513.86,-180 549.83,-180"/>
<polygon fill="black" stroke="black" points="550.27,-183.5 560.27,-180 550.27,-176.5 550.27,-183.5"/>
</g>
<!-- 3: AdCalibrator -->
<g id="node10" class="node">
<title>3: AdCalibrator</title>
<g id="a_node10"><a xlink:title="Computes a signal from a 16&#45;bit AD channel via KQ calibration. This processor is implicitly created by the channel definition.">
<polygon fill="#e6e6e6" stroke="black" points="690.37,-118.54 690.37,-133.46 652.33,-144 598.53,-144 560.48,-133.46 560.48,-118.54 598.53,-108 652.33,-108 690.37,-118.54"/>
<text text-anchor="middle" x="625.43" y="-122.3" font-family="Helvetica,sans-Serif" font-size="14.00">AdCalibrator</text>
</a>
</g>
</g>
<!-- VGN01:ad:2(U16) &#45;&gt;3: AdCalibrator -->
<g id="edge9" class="edge">
<title>VGN01:ad:2(U16) &#45;&gt;3: AdCalibrator</title>
<path fill="none" stroke="black" d="M436.72,-126C471.16,-126 513.86,-126 549.83,-126"/>
<polygon fill="black" stroke="black" points="550.27,-129.5 560.27,-126 550.27,-122.5 550.27,-129.5"/>
</g>
<!-- 1: DistanceComputer -->
<g id="node6" class="node">
<title>1: DistanceComputer</title>
<g id="a_node6"><a xlink:title="Computes travelled distance signal from a 64&#45;bit IRC channel via KQ calibration while respecting Orientation. This processor is implicitly created by the channel definition.">
<polygon fill="#e6e6e6" stroke="black" points="715.93,-64.54 715.93,-79.46 662.91,-90 587.94,-90 534.93,-79.46 534.93,-64.54 587.94,-54 662.91,-54 715.93,-64.54"/>
<text text-anchor="middle" x="625.43" y="-68.3" font-family="Helvetica,sans-Serif" font-size="14.00">DistanceComputer</text>
</a>
</g>
</g>
<!-- VGN01:irc:0(IrcValue) &#45;&gt;1: DistanceComputer -->
<g id="edge5" class="edge">
<title>VGN01:irc:0(IrcValue) &#45;&gt;1: DistanceComputer</title>
<path fill="none" stroke="black" d="M448.73,-72C472.5,-72 499.12,-72 524.3,-72"/>
<polygon fill="black" stroke="black" points="524.62,-75.5 534.62,-72 524.62,-68.5 524.62,-75.5"/>
</g>
<!-- ln(F64)  -->
<g id="node7" class="node">
<title>ln(F64) </title>
<g id="a_node7"><a xlink:title="ln, Travelled distance">
<ellipse fill="#e6e6e6" stroke="black" stroke-width="2" cx="803.52" cy="-72" rx="40.89" ry="18"/>
<text text-anchor="middle" x="803.52" y="-68.3" font-family="Helvetica,sans-Serif" font-size="14.00">ln(F64) </text>
</a>
</g>
</g>
<!-- 1: DistanceComputer&#45;&gt;ln(F64)  -->
<g id="edge6" class="edge">
<title>1: DistanceComputer&#45;&gt;ln(F64) </title>
<path fill="none" stroke="black" d="M716.02,-72C728.51,-72 740.96,-72 752.36,-72"/>
<polygon fill="black" stroke="black" points="752.51,-75.5 762.51,-72 752.51,-68.5 752.51,-75.5"/>
</g>
<!-- 4: Kilometrage -->
<g id="node12" class="node">
<title>4: Kilometrage</title>
<g id="a_node12"><a xlink:title="Computes current kilometrage from start kilometrage, direction and track events that alter the kilometrage">
<polygon fill="#e6e6e6" stroke="black" points="1132.98,-64.54 1132.98,-79.46 1096.24,-90 1044.28,-90 1007.54,-79.46 1007.54,-64.54 1044.28,-54 1096.24,-54 1132.98,-64.54"/>
<text text-anchor="middle" x="1070.26" y="-68.3" font-family="Helvetica,sans-Serif" font-size="14.00">Kilometrage</text>
</a>
</g>
</g>
<!-- ln(F64) &#45;&gt;4: Kilometrage -->
<g id="edge11" class="edge">
<title>ln(F64) &#45;&gt;4: Kilometrage</title>
<path fill="none" stroke="black" d="M844.73,-72C885.11,-72 948.2,-72 997.23,-72"/>
<polygon fill="black" stroke="black" points="997.47,-75.5 1007.47,-72 997.47,-68.5 997.47,-75.5"/>
</g>
<!-- qRK(F64)  -->
<g id="node9" class="node">
<title>qRK(F64) </title>
<g id="a_node9"><a xlink:title="qRK, Quasi Gauge">
<ellipse fill="#e6e6e6" stroke="black" stroke-width="2" cx="803.52" cy="-180" rx="51.19" ry="18"/>
<text text-anchor="middle" x="803.52" y="-176.3" font-family="Helvetica,sans-Serif" font-size="14.00">qRK(F64) </text>
</a>
</g>
</g>
<!-- 2: AdCalibrator&#45;&gt;qRK(F64)  -->
<g id="edge8" class="edge">
<title>2: AdCalibrator&#45;&gt;qRK(F64) </title>
<path fill="none" stroke="black" d="M690.5,-180C707.28,-180 725.31,-180 741.9,-180"/>
<polygon fill="black" stroke="black" points="742.02,-183.5 752.02,-180 742.02,-176.5 742.02,-183.5"/>
</g>
<!-- 5: PrimaryGeometryContact&#45;GaugeSLight -->
<g id="node14" class="node">
<title>5: PrimaryGeometryContact&#45;GaugeSLight</title>
<g id="a_node14"><a xlink:title="Computes Gauge for S&#45;Light Krab as `QuasiGauge &#45; Alignment`">
<polygon fill="#e6e6e6" stroke="black" points="1249.54,-145.54 1249.54,-160.46 1144.52,-171 996,-171 890.98,-160.46 890.98,-145.54 996,-135 1144.52,-135 1249.54,-145.54"/>
<text text-anchor="middle" x="1070.26" y="-149.3" font-family="Helvetica,sans-Serif" font-size="14.00">PrimaryGeometryContact&#45;GaugeSLight</text>
</a>
</g>
</g>
<!-- qRK(F64) &#45;&gt;5: PrimaryGeometryContact&#45;GaugeSLight -->
<g id="edge13" class="edge">
<title>qRK(F64) &#45;&gt;5: PrimaryGeometryContact&#45;GaugeSLight</title>
<path fill="none" stroke="black" d="M853.08,-175.05C876.05,-172.71 904.73,-169.78 933.62,-166.83"/>
<polygon fill="black" stroke="black" points="934.25,-170.29 943.84,-165.79 933.54,-163.32 934.25,-170.29"/>
</g>
<!-- SK(F64)  -->
<g id="node11" class="node">
<title>SK(F64) </title>
<g id="a_node11"><a xlink:title="SK, Alignment">
<ellipse fill="#e6e6e6" stroke="black" stroke-width="2" cx="803.52" cy="-126" rx="46.29" ry="18"/>
<text text-anchor="middle" x="803.52" y="-122.3" font-family="Helvetica,sans-Serif" font-size="14.00">SK(F64) </text>
</a>
</g>
</g>
<!-- 3: AdCalibrator&#45;&gt;SK(F64)  -->
<g id="edge10" class="edge">
<title>3: AdCalibrator&#45;&gt;SK(F64) </title>
<path fill="none" stroke="black" d="M690.5,-126C709.08,-126 729.21,-126 747.21,-126"/>
<polygon fill="black" stroke="black" points="747.24,-129.5 757.24,-126 747.24,-122.5 747.24,-129.5"/>
</g>
<!-- SK(F64) &#45;&gt;5: PrimaryGeometryContact&#45;GaugeSLight -->
<g id="edge14" class="edge">
<title>SK(F64) &#45;&gt;5: PrimaryGeometryContact&#45;GaugeSLight</title>
<path fill="none" stroke="black" d="M848.24,-130.46C871.96,-132.88 902.71,-136.01 933.69,-139.17"/>
<polygon fill="black" stroke="black" points="933.45,-142.67 943.75,-140.2 934.16,-135.7 933.45,-142.67"/>
</g>
<!-- km(F64)  -->
<g id="node13" class="node">
<title>km(F64) </title>
<g id="a_node13"><a xlink:title="km, Kilometrage">
<ellipse fill="#e6e6e6" stroke="black" stroke-width="2" cx="1331.8" cy="-72" rx="46.29" ry="18"/>
<text text-anchor="middle" x="1331.8" y="-68.3" font-family="Helvetica,sans-Serif" font-size="14.00">km(F64) </text>
</a>
</g>
</g>
<!-- 4: Kilometrage&#45;&gt;km(F64)  -->
<g id="edge12" class="edge">
<title>4: Kilometrage&#45;&gt;km(F64) </title>
<path fill="none" stroke="black" d="M1133.09,-72C1176.22,-72 1233.28,-72 1275.01,-72"/>
<polygon fill="black" stroke="black" points="1275.28,-75.5 1285.28,-72 1275.28,-68.5 1275.28,-75.5"/>
</g>
<!-- RK(F64)  -->
<g id="node15" class="node">
<title>RK(F64) </title>
<g id="a_node15"><a xlink:title="RK, Gauge">
<ellipse fill="#e6e6e6" stroke="black" stroke-width="2" cx="1331.8" cy="-153" rx="46.29" ry="18"/>
<text text-anchor="middle" x="1331.8" y="-149.3" font-family="Helvetica,sans-Serif" font-size="14.00">RK(F64) </text>
</a>
</g>
</g>
<!-- 5: PrimaryGeometryContact&#45;GaugeSLight&#45;&gt;RK(F64)  -->
<g id="edge15" class="edge">
<title>5: PrimaryGeometryContact&#45;GaugeSLight&#45;&gt;RK(F64) </title>
<path fill="none" stroke="black" d="M1249.74,-153C1258.69,-153 1267.28,-153 1275.29,-153"/>
<polygon fill="black" stroke="black" points="1275.48,-156.5 1285.48,-153 1275.48,-149.5 1275.48,-156.5"/>
</g>
</g>
</svg>
