digraph {
  rankdir=LR;  node [shape=box];  graph [fontname = "helvetica"]  node [fontname = "helvetica"]  edge [fontname = "helvetica"]    "0: VGN01 Time Source" [shape=doubleoctagon, style="filled,solid",fillcolor="#F0F0F0", label="VGN01 Time Source", tooltip="VGN Time Source"];
    "VGN01:ad:1(U16) " [tooltip="qRK, Quasi Gauge", shape=rectangle, style="filled,solid", fillcolor="#E6E6E6"];
    "VGN01:ad:2(U16) " [tooltip="SK, Alignment", shape=rectangle, style="filled,solid", fillcolor="#E6E6E6"];
    "VGN01:irc:0(IrcValue) " [tooltip="ln, Travelled distance", shape=rectangle, style="filled,solid", fillcolor="#E6E6E6"];
    "VGN01@TimeDistance(F64) " [tooltip="", shape=oval, style="filled,solid,bold", fillcolor="#FAFAFA"];
    "1: DistanceComputer" [shape=octagon, style="filled,solid",fillcolor="#E6E6E6", label="DistanceComputer", tooltip="Computes travelled distance signal from a 64-bit IRC channel via KQ calibration while respecting Orientation. This processor is implicitly created by the channel definition."];
    "VGN01:irc:0(IrcValue) " [tooltip="ln, Travelled distance", shape=rectangle, style="filled,solid", fillcolor="#E6E6E6"];
    "ln(F64) " [tooltip="ln, Travelled distance", shape=oval, style="filled,solid,bold", fillcolor="#E6E6E6"];
    "2: AdCalibrator" [shape=octagon, style="filled,solid",fillcolor="#E6E6E6", label="AdCalibrator", tooltip="Computes a signal from a 16-bit AD channel via KQ calibration. This processor is implicitly created by the channel definition."];
    "VGN01:ad:1(U16) " [tooltip="qRK, Quasi Gauge", shape=rectangle, style="filled,solid", fillcolor="#E6E6E6"];
    "qRK(F64) " [tooltip="qRK, Quasi Gauge", shape=oval, style="filled,solid,bold", fillcolor="#E6E6E6"];
    "3: AdCalibrator" [shape=octagon, style="filled,solid",fillcolor="#E6E6E6", label="AdCalibrator", tooltip="Computes a signal from a 16-bit AD channel via KQ calibration. This processor is implicitly created by the channel definition."];
    "VGN01:ad:2(U16) " [tooltip="SK, Alignment", shape=rectangle, style="filled,solid", fillcolor="#E6E6E6"];
    "SK(F64) " [tooltip="SK, Alignment", shape=oval, style="filled,solid,bold", fillcolor="#E6E6E6"];
    "4: Kilometrage" [shape=octagon, style="filled,solid",fillcolor="#E6E6E6", label="Kilometrage", tooltip="Computes current kilometrage from start kilometrage, direction and track events that alter the kilometrage"];
    "ln(F64) " [tooltip="ln, Travelled distance", shape=oval, style="filled,solid,bold", fillcolor="#E6E6E6"];
    "km(F64) " [tooltip="km, Kilometrage", shape=oval, style="filled,solid,bold", fillcolor="#E6E6E6"];
    "5: PrimaryGeometryContact-GaugeSLight" [shape=octagon, style="filled,solid",fillcolor="#E6E6E6", label="PrimaryGeometryContact-GaugeSLight", tooltip="Computes Gauge for S-Light Krab as `QuasiGauge - Alignment`"];
    "qRK(F64) " [tooltip="qRK, Quasi Gauge", shape=oval, style="filled,solid,bold", fillcolor="#E6E6E6"];
    "SK(F64) " [tooltip="SK, Alignment", shape=oval, style="filled,solid,bold", fillcolor="#E6E6E6"];
    "RK(F64) " [tooltip="RK, Gauge", shape=oval, style="filled,solid,bold", fillcolor="#E6E6E6"];
  "0: VGN01 Time Source" -> "VGN01:ad:1(U16) "
  "0: VGN01 Time Source" -> "VGN01:ad:2(U16) "
  "0: VGN01 Time Source" -> "VGN01:irc:0(IrcValue) "
  "0: VGN01 Time Source" -> "VGN01@TimeDistance(F64) "
  "VGN01:irc:0(IrcValue) " -> "1: DistanceComputer"
  "1: DistanceComputer" -> "ln(F64) "
  "VGN01:ad:1(U16) " -> "2: AdCalibrator"
  "2: AdCalibrator" -> "qRK(F64) "
  "VGN01:ad:2(U16) " -> "3: AdCalibrator"
  "3: AdCalibrator" -> "SK(F64) "
  "ln(F64) " -> "4: Kilometrage"
  "4: Kilometrage" -> "km(F64) "
  "qRK(F64) " -> "5: PrimaryGeometryContact-GaugeSLight"
  "SK(F64) " -> "5: PrimaryGeometryContact-GaugeSLight"
  "5: PrimaryGeometryContact-GaugeSLight" -> "RK(F64) "
}