<?xml version="1.0" encoding="UTF-8" standalone="no"?>
<!DOCTYPE svg PUBLIC "-//W3C//DTD SVG 1.1//EN"
 "http://www.w3.org/Graphics/SVG/1.1/DTD/svg11.dtd">
<!-- Generated by graphviz version 2.43.0 (0)
 -->
<!-- Title: %3 Pages: 1 -->
<svg width="725pt" height="52pt"
 viewBox="0.00 0.00 724.71 52.00" xmlns="http://www.w3.org/2000/svg" xmlns:xlink="http://www.w3.org/1999/xlink">
<g id="graph0" class="graph" transform="scale(1 1) rotate(0) translate(4 48)">
<title>%3</title>
<polygon fill="white" stroke="transparent" points="-4,4 -4,-48 720.71,-48 720.71,4 -4,4"/>
<!-- 0: VGN01 Resampler -->
<g id="node1" class="node">
<title>0: VGN01 Resampler</title>
<g id="a_node1"><a xlink:title="VGN Resampler">
<polygon fill="#e6ffff" stroke="black" points="188.47,-14.54 188.47,-29.46 134.39,-40 57.92,-40 3.85,-29.46 3.85,-14.54 57.92,-4 134.39,-4 188.47,-14.54"/>
<polygon fill="none" stroke="black" points="192.47,-11.25 192.47,-32.75 134.78,-44 57.53,-44 -0.16,-32.75 -0.16,-11.25 57.53,0 134.78,0 192.47,-11.25"/>
<text text-anchor="middle" x="96.16" y="-18.3" font-family="Helvetica,sans-Serif" font-size="14.00">VGN01 Resampler</text>
</a>
</g>
</g>
<!-- VGN01:irc:0(IrcValue)  -->
<g id="node2" class="node">
<title>VGN01:irc:0(IrcValue) </title>
<g id="a_node2"><a xlink:title="ln, Travelled distance">
<polygon fill="#e6ffff" stroke="black" points="381.32,-40 228.32,-40 228.32,-4 381.32,-4 381.32,-40"/>
<text text-anchor="middle" x="304.82" y="-18.3" font-family="Helvetica,sans-Serif" font-size="14.00">VGN01:irc:0(IrcValue) </text>
</a>
</g>
</g>
<!-- 0: VGN01 Resampler&#45;&gt;VGN01:irc:0(IrcValue)  -->
<g id="edge1" class="edge">
<title>0: VGN01 Resampler&#45;&gt;VGN01:irc:0(IrcValue) </title>
<path fill="none" stroke="black" d="M192.32,-22C200.83,-22 209.42,-22 217.84,-22"/>
<polygon fill="black" stroke="black" points="218.02,-25.5 228.02,-22 218.02,-18.5 218.02,-25.5"/>
</g>
<!-- 1: DistanceComputer -->
<g id="node3" class="node">
<title>1: DistanceComputer</title>
<g id="a_node3"><a xlink:title="Computes travelled distance signal from a 64&#45;bit IRC channel via KQ calibration while respecting Orientation. This processor is implicitly created by the channel definition.">
<polygon fill="#e6ffff" stroke="black" points="598.57,-14.54 598.57,-29.46 545.55,-40 470.58,-40 417.56,-29.46 417.56,-14.54 470.58,-4 545.55,-4 598.57,-14.54"/>
<text text-anchor="middle" x="508.07" y="-18.3" font-family="Helvetica,sans-Serif" font-size="14.00">DistanceComputer</text>
</a>
</g>
</g>
<!-- VGN01:irc:0(IrcValue) &#45;&gt;1: DistanceComputer -->
<g id="edge2" class="edge">
<title>VGN01:irc:0(IrcValue) &#45;&gt;1: DistanceComputer</title>
<path fill="none" stroke="black" d="M381.33,-22C389.74,-22 398.41,-22 407.07,-22"/>
<polygon fill="black" stroke="black" points="407.22,-25.5 417.22,-22 407.22,-18.5 407.22,-25.5"/>
</g>
<!-- ln(F64)  -->
<g id="node4" class="node">
<title>ln(F64) </title>
<g id="a_node4"><a xlink:title="ln, Travelled distance">
<ellipse fill="#e6ffff" stroke="black" stroke-width="2" cx="675.76" cy="-22" rx="40.89" ry="18"/>
<text text-anchor="middle" x="675.76" y="-18.3" font-family="Helvetica,sans-Serif" font-size="14.00">ln(F64) </text>
</a>
</g>
</g>
<!-- 1: DistanceComputer&#45;&gt;ln(F64)  -->
<g id="edge3" class="edge">
<title>1: DistanceComputer&#45;&gt;ln(F64) </title>
<path fill="none" stroke="black" d="M598.7,-22C607.5,-22 616.19,-22 624.37,-22"/>
<polygon fill="black" stroke="black" points="624.45,-25.5 634.45,-22 624.45,-18.5 624.45,-25.5"/>
</g>
</g>
</svg>
