digraph {
  rankdir=LR;  node [shape=box];  graph [fontname = "helvetica"]  node [fontname = "helvetica"]  edge [fontname = "helvetica"]    "0: VGN01 Resampler" [shape=doubleoctagon, style="filled,solid",fillcolor="#E6FFFF", label="VGN01 Resampler", tooltip="VGN Resampler"];
    "VGN01:irc:0@GPK(IrcValue) " [tooltip="ln, Travelled distance", shape=rectangle, style="filled,solid", fillcolor="#E6FFFF"];
    "1: VGN01 Time Source" [shape=doubleoctagon, style="filled,solid",fillcolor="#F0F0F0", label="VGN01 Time Source", tooltip="VGN Time Source"];
    "VGN01:irc:0@Time(IrcValue) " [tooltip="ln, Travelled distance", shape=rectangle, style="filled,solid", fillcolor="#E6E6E6"];
    "VGN01@TimeDistance(F64) " [tooltip="", shape=oval, style="filled,solid,bold", fillcolor="#FAFAFA"];
    "2: DistanceComputer" [shape=octagon, style="filled,solid",fillcolor="#E6FFFF", label="DistanceComputer", tooltip="Computes travelled distance signal from a 64-bit IRC channel via KQ calibration while respecting Orientation. This processor is implicitly created by the channel definition."];
    "VGN01:irc:0@GPK(IrcValue) " [tooltip="ln, Travelled distance", shape=rectangle, style="filled,solid", fillcolor="#E6FFFF"];
    "ln@GPK(F64) " [tooltip="ln, Travelled distance", shape=oval, style="filled,solid,bold", fillcolor="#E6FFFF"];
    "3: DistanceComputer" [shape=octagon, style="filled,solid",fillcolor="#E6E6E6", label="DistanceComputer", tooltip="Computes travelled distance signal from a 64-bit IRC channel via KQ calibration while respecting Orientation. This processor is implicitly created by the channel definition."];
    "VGN01:irc:0@Time(IrcValue) " [tooltip="ln, Travelled distance", shape=rectangle, style="filled,solid", fillcolor="#E6E6E6"];
    "ln@Time(F64) " [tooltip="ln, Travelled distance", shape=oval, style="filled,solid,bold", fillcolor="#E6E6E6"];
  "0: VGN01 Resampler" -> "VGN01:irc:0@GPK(IrcValue) "
  "1: VGN01 Time Source" -> "VGN01:irc:0@Time(IrcValue) "
  "1: VGN01 Time Source" -> "VGN01@TimeDistance(F64) "
  "VGN01:irc:0@GPK(IrcValue) " -> "2: DistanceComputer"
  "2: DistanceComputer" -> "ln@GPK(F64) "
  "VGN01:irc:0@Time(IrcValue) " -> "3: DistanceComputer"
  "3: DistanceComputer" -> "ln@Time(F64) "
}