digraph {
  rankdir=LR;  node [shape=box];  graph [fontname = "helvetica"]  node [fontname = "helvetica"]  edge [fontname = "helvetica"]    "0: VGN01 Resampler" [shape=doubleoctagon, style="filled,solid",fillcolor="#E6FFFF", label="VGN01 Resampler", tooltip="VGN Resampler"];
    "VGN01:irc:0(IrcValue) 0..4: [10, 30, 30, 90]" [tooltip="ln, Travelled distance", shape=rectangle, style="filled,solid", fillcolor="#E6FFFF"];
    "1: DistanceComputer(Up, k=0.01)" [shape=octagon, style="filled,solid",fillcolor="#E6FFFF", label="DistanceComputer(Up, k=0.01)", tooltip="Computes travelled distance signal from a 64-bit IRC channel via KQ calibration while respecting Orientation. This processor is implicitly created by the channel definition."];
    "VGN01:irc:0(IrcValue) 0..4: [10, 30, 30, 90]" [tooltip="ln, Travelled distance", shape=rectangle, style="filled,solid", fillcolor="#E6FFFF"];
    "ln(F64) 0..4: [0.1, 0.3, 0.3, 0.9]" [tooltip="ln, Travelled distance", shape=oval, style="filled,solid,bold", fillcolor="#E6FFFF"];
  "0: VGN01 Resampler" -> "VGN01:irc:0(IrcValue) 0..4: [10, 30, 30, 90]"
  "VGN01:irc:0(IrcValue) 0..4: [10, 30, 30, 90]" -> "1: DistanceComputer(Up, k=0.01)"
  "1: DistanceComputer(Up, k=0.01)" -> "ln(F64) 0..4: [0.1, 0.3, 0.3, 0.9]"
}