digraph {
  rankdir=LR;  node [shape=box];  graph [fontname = "helvetica"]  node [fontname = "helvetica"]  edge [fontname = "helvetica"]    "0: VGN01 Time Source" [shape=doubleoctagon, style="filled,solid",fillcolor="#F0F0F0", label="VGN01 Time Source", tooltip="VGN Time Source"];
    "VGN01:irc:0(IrcValue) " [tooltip="ln, Travelled distance", shape=rectangle, style="filled,solid", fillcolor="#E6E6E6"];
    "VGN01@TimeDistance(F64) " [tooltip="", shape=oval, style="filled,solid,bold", fillcolor="#FAFAFA"];
    "1: DistanceComputer" [shape=octagon, style="filled,solid",fillcolor="#E6E6E6", label="DistanceComputer", tooltip="Computes travelled distance signal from a 64-bit IRC channel via KQ calibration while respecting Orientation. This processor is implicitly created by the channel definition."];
    "VGN01:irc:0(IrcValue) " [tooltip="ln, Travelled distance", shape=rectangle, style="filled,solid", fillcolor="#E6E6E6"];
    "ln(F64) " [tooltip="ln, Travelled distance", shape=oval, style="filled,solid,bold", fillcolor="#E6E6E6"];
    "2: WeCat3dLeftInside Time Source" [shape=doubleoctagon, style="filled,solid",fillcolor="#F0F0F0", label="WeCat3dLeftInside Time Source", tooltip="WeCat3d Time Source"];
    "ln(F64) " [tooltip="ln, Travelled distance", shape=oval, style="filled,solid,bold", fillcolor="#E6E6E6"];
    "WeCat3dLeftInside:Points:0(WeCat3dPoints) " [tooltip="RailProfileLeftInside, Profily leva vnitrni kolejnice", shape=rectangle, style="filled,solid", fillcolor="#E6E6E6"];
    "WeCat3dLeftInside@TimeDistance(F64) " [tooltip="", shape=oval, style="filled,solid,bold", fillcolor="#FAFAFA"];
    "3: RailProfile-Calibrate" [shape=octagon, style="filled,solid",fillcolor="#E6E6E6", label="RailProfile-Calibrate", tooltip="Transforms (translates, rotates, flips) points according to the calibration.
For details see docs at https://bitbucket.org/kzvsro/kzv-doc/wiki/MicroEpsilon."];
    "WeCat3dLeftInside:Points:0(WeCat3dPoints) " [tooltip="RailProfileLeftInside, Profily leva vnitrni kolejnice", shape=rectangle, style="filled,solid", fillcolor="#E6E6E6"];
    "RailProfileLeftInside(WeCat3dPoints) " [tooltip="RailProfileLeftInside, Profily leva vnitrni kolejnice", shape=oval, style="filled,solid,bold", fillcolor="#E6E6E6"];
    "4: WeCat3dLeftInside Resampler " [shape=doubleoctagon, style="filled,solid",fillcolor="#F2E6F2", label="WeCat3dLeftInside Resampler ", tooltip="WeCat3d Resampler"];
    "ln(F64) " [tooltip="ln, Travelled distance", shape=oval, style="filled,solid,bold", fillcolor="#E6E6E6"];
    "WeCat3dLeftInside:Points:0@RailProfiles(WeCat3dPoints) " [tooltip="RailProfileLeftInside, Profily leva vnitrni kolejnice", shape=rectangle, style="filled,solid", fillcolor="#FFE6FF"];
    "5: RailProfile-Process" [shape=octagon, style="filled,solid",fillcolor="#E6E6E6", label="RailProfile-Process", tooltip="Computes relevant points and values on the profile
(wear, plastic flow, points classification, head top, side, running edge)
Constants are read either from Algorithm itself, or from calibration constants prefixed with `RailProfile.`.
"];
    "RailProfileLeftInside(WeCat3dPoints) " [tooltip="RailProfileLeftInside, Profily leva vnitrni kolejnice", shape=oval, style="filled,solid,bold", fillcolor="#E6E6E6"];
    "ProcessedRailProfileLeftInside(ProcessedRailProfile) " [tooltip="ProcessedRailProfileLeftInside, Zpracovane profily leva vnitrni kolejnice", shape=oval, style="filled,solid,bold", fillcolor="#E6E6E6"];
    "6: RailProfile-HorizontalWear" [shape=octagon, style="filled,solid",fillcolor="#E6E6E6", label="RailProfile-HorizontalWear", tooltip="Horizontal wear of the processed profile"];
    "ProcessedRailProfileLeftInside(ProcessedRailProfile) " [tooltip="ProcessedRailProfileLeftInside, Zpracovane profily leva vnitrni kolejnice", shape=oval, style="filled,solid,bold", fillcolor="#E6E6E6"];
    "HorizontalWearLeft(F64) " [tooltip="HorizontalWearLeft, Vodorovné ojetí levé", shape=oval, style="filled,solid,bold", fillcolor="#E6E6E6"];
    "7: TimeToDistance Resampler(Average(f64))" [shape=octagon, style="filled,solid",fillcolor="#F5ECF5", label="TimeToDistance Resampler(Average(f64))", tooltip="Resample from time to distance domain. Resamples f64 values by averaging them. Discard values when the sampling signal doesn't change (the trolley is standing still)"];
    "WeCat3dLeftInside@TimeDistance(F64) " [tooltip="", shape=oval, style="filled,solid,bold", fillcolor="#FAFAFA"];
    "HorizontalWearLeft(F64) " [tooltip="HorizontalWearLeft, Vodorovné ojetí levé", shape=oval, style="filled,solid,bold", fillcolor="#E6E6E6"];
    "HorizontalWearLeft@RailProfiles(F64) " [tooltip="HorizontalWearLeft, Vodorovné ojetí levé", shape=oval, style="filled,solid,bold", fillcolor="#FFE6FF"];
  "0: VGN01 Time Source" -> "VGN01:irc:0(IrcValue) "
  "0: VGN01 Time Source" -> "VGN01@TimeDistance(F64) "
  "VGN01:irc:0(IrcValue) " -> "1: DistanceComputer"
  "1: DistanceComputer" -> "ln(F64) "
  "ln(F64) " -> "2: WeCat3dLeftInside Time Source"
  "2: WeCat3dLeftInside Time Source" -> "WeCat3dLeftInside:Points:0(WeCat3dPoints) "
  "2: WeCat3dLeftInside Time Source" -> "WeCat3dLeftInside@TimeDistance(F64) "
  "WeCat3dLeftInside:Points:0(WeCat3dPoints) " -> "3: RailProfile-Calibrate"
  "3: RailProfile-Calibrate" -> "RailProfileLeftInside(WeCat3dPoints) "
  "ln(F64) " -> "4: WeCat3dLeftInside Resampler "
  "4: WeCat3dLeftInside Resampler " -> "WeCat3dLeftInside:Points:0@RailProfiles(WeCat3dPoints) "
  "RailProfileLeftInside(WeCat3dPoints) " -> "5: RailProfile-Process"
  "5: RailProfile-Process" -> "ProcessedRailProfileLeftInside(ProcessedRailProfile) "
  "ProcessedRailProfileLeftInside(ProcessedRailProfile) " -> "6: RailProfile-HorizontalWear"
  "6: RailProfile-HorizontalWear" -> "HorizontalWearLeft(F64) "
  "WeCat3dLeftInside@TimeDistance(F64) " -> "7: TimeToDistance Resampler(Average(f64))"
  "HorizontalWearLeft(F64) " -> "7: TimeToDistance Resampler(Average(f64))"
  "7: TimeToDistance Resampler(Average(f64))" -> "HorizontalWearLeft@RailProfiles(F64) "
}