<?xml version="1.0" encoding="UTF-8" standalone="no"?>
<!DOCTYPE svg PUBLIC "-//W3C//DTD SVG 1.1//EN"
 "http://www.w3.org/Graphics/SVG/1.1/DTD/svg11.dtd">
<!-- Generated by graphviz version 2.43.0 (0)
 -->
<!-- Title: %3 Pages: 1 -->
<svg width="4666pt" height="365pt"
 viewBox="0.00 0.00 4665.76 364.66" xmlns="http://www.w3.org/2000/svg" xmlns:xlink="http://www.w3.org/1999/xlink">
<g id="graph0" class="graph" transform="scale(1 1) rotate(0) translate(4 360.66)">
<title>%3</title>
<polygon fill="white" stroke="transparent" points="-4,4 -4,-360.66 4661.76,-360.66 4661.76,4 -4,4"/>
<!-- 0: WeCat3dLeftInside Resampler  -->
<g id="node1" class="node">
<title>0: WeCat3dLeftInside Resampler </title>
<g id="a_node1"><a xlink:title="WeCat3d Resampler">
<polygon fill="#f2e6f2" stroke="black" points="910.27,-170.87 910.27,-185.79 825.43,-196.33 705.44,-196.33 620.59,-185.79 620.59,-170.87 705.44,-160.33 825.43,-160.33 910.27,-170.87"/>
<polygon fill="none" stroke="black" points="914.27,-167.34 914.27,-189.32 825.68,-200.33 705.19,-200.33 616.59,-189.32 616.59,-167.34 705.19,-156.33 825.68,-156.33 914.27,-167.34"/>
<text text-anchor="middle" x="765.43" y="-174.63" font-family="Helvetica,sans-Serif" font-size="14.00">WeCat3dLeftInside Resampler </text>
</a>
</g>
</g>
<!-- WeCat3dLeftInside:Points:0(WeCat3dPoints) 0..1: [1280 points(first: X=0.204, Z=0.004)] -->
<g id="node3" class="node">
<title>WeCat3dLeftInside:Points:0(WeCat3dPoints) 0..1: [1280 points(first: X=0.204, Z=0.004)]</title>
<g id="a_node3"><a xlink:title="RailProfileLeftInside, Profily leva vnitrni kolejnice">
<polygon fill="#ffe6ff" stroke="black" points="1555.61,-196.33 1009.61,-196.33 1009.61,-160.33 1555.61,-160.33 1555.61,-196.33"/>
<text text-anchor="middle" x="1282.61" y="-174.63" font-family="Helvetica,sans-Serif" font-size="14.00">WeCat3dLeftInside:Points:0(WeCat3dPoints) 0..1: [1280 points(first: X=0.204, Z=0.004)]</text>
</a>
</g>
</g>
<!-- 0: WeCat3dLeftInside Resampler &#45;&gt;WeCat3dLeftInside:Points:0(WeCat3dPoints) 0..1: [1280 points(first: X=0.204, Z=0.004)] -->
<g id="edge2" class="edge">
<title>0: WeCat3dLeftInside Resampler &#45;&gt;WeCat3dLeftInside:Points:0(WeCat3dPoints) 0..1: [1280 points(first: X=0.204, Z=0.004)]</title>
<path fill="none" stroke="black" d="M914.41,-178.33C941.14,-178.33 969.8,-178.33 998.89,-178.33"/>
<polygon fill="black" stroke="black" points="999.2,-181.83 1009.2,-178.33 999.2,-174.83 999.2,-181.83"/>
</g>
<!-- ln@Time(F64) 0..5: [0, 0.2, 0.3, 0.9, 1.2] -->
<g id="node2" class="node">
<title>ln@Time(F64) 0..5: [0, 0.2, 0.3, 0.9, 1.2]</title>
<g id="a_node2"><a xlink:title="ln, Travelled distance">
<ellipse fill="#e6e6e6" stroke="black" stroke-width="2" cx="260.63" cy="-178.33" rx="167.87" ry="18"/>
<text text-anchor="middle" x="260.63" y="-174.63" font-family="Helvetica,sans-Serif" font-size="14.00">ln@Time(F64) 0..5: [0, 0.2, 0.3, 0.9, 1.2]</text>
</a>
</g>
</g>
<!-- ln@Time(F64) 0..5: [0, 0.2, 0.3, 0.9, 1.2]&#45;&gt;0: WeCat3dLeftInside Resampler  -->
<g id="edge1" class="edge">
<title>ln@Time(F64) 0..5: [0, 0.2, 0.3, 0.9, 1.2]&#45;&gt;0: WeCat3dLeftInside Resampler </title>
<path fill="none" stroke="black" d="M428.36,-178.33C485.66,-178.33 549.61,-178.33 606.22,-178.33"/>
<polygon fill="black" stroke="black" points="606.33,-181.83 616.33,-178.33 606.33,-174.83 606.33,-181.83"/>
</g>
<!-- 1: RailProfile&#45;Calibrate(OffsetX: 0 mm, OffsetZ: 0 mm, Angle: 0°0&#39;, Right rail, X Camera axis flipped) -->
<g id="node4" class="node">
<title>1: RailProfile&#45;Calibrate(OffsetX: 0 mm, OffsetZ: 0 mm, Angle: 0°0&#39;, Right rail, X Camera axis flipped)</title>
<g id="a_node4"><a xlink:title="Transforms (translates, rotates, flips) points according to the calibration.&#10;For details see docs at https://bitbucket.org/kzvsro/kzv&#45;doc/wiki/MicroEpsilon.">
<polygon fill="#ffe6ff" stroke="black" points="1966.66,-161.5 1966.66,-195.16 1856.81,-218.96 1701.45,-218.96 1591.6,-195.16 1591.6,-161.5 1701.45,-137.7 1856.81,-137.7 1966.66,-161.5"/>
<text text-anchor="middle" x="1779.13" y="-189.63" font-family="Helvetica,sans-Serif" font-size="14.00">RailProfile&#45;Calibrate(OffsetX: 0 mm,</text>
<text text-anchor="middle" x="1779.13" y="-174.63" font-family="Helvetica,sans-Serif" font-size="14.00">OffsetZ: 0 mm, Angle: 0°0&#39;, Right rail,</text>
<text text-anchor="middle" x="1779.13" y="-159.63" font-family="Helvetica,sans-Serif" font-size="14.00">X Camera axis flipped)</text>
</a>
</g>
</g>
<!-- WeCat3dLeftInside:Points:0(WeCat3dPoints) 0..1: [1280 points(first: X=0.204, Z=0.004)]&#45;&gt;1: RailProfile&#45;Calibrate(OffsetX: 0 mm, OffsetZ: 0 mm, Angle: 0°0&#39;, Right rail, X Camera axis flipped) -->
<g id="edge3" class="edge">
<title>WeCat3dLeftInside:Points:0(WeCat3dPoints) 0..1: [1280 points(first: X=0.204, Z=0.004)]&#45;&gt;1: RailProfile&#45;Calibrate(OffsetX: 0 mm, OffsetZ: 0 mm, Angle: 0°0&#39;, Right rail, X Camera axis flipped)</title>
<path fill="none" stroke="black" d="M1555.82,-178.33C1564.35,-178.33 1572.84,-178.33 1581.24,-178.33"/>
<polygon fill="black" stroke="black" points="1581.45,-181.83 1591.45,-178.33 1581.45,-174.83 1581.45,-181.83"/>
</g>
<!-- RailProfileLeftInside(WeCat3dPoints) 0..1: [1280 points(first: X=0.204, Z=0.004)] -->
<g id="node5" class="node">
<title>RailProfileLeftInside(WeCat3dPoints) 0..1: [1280 points(first: X=0.204, Z=0.004)]</title>
<g id="a_node5"><a xlink:title="RailProfileLeftInside, Profily leva vnitrni kolejnice">
<ellipse fill="#ffe6ff" stroke="black" stroke-width="2" cx="2326.31" cy="-178.33" rx="323.84" ry="18"/>
<text text-anchor="middle" x="2326.31" y="-174.63" font-family="Helvetica,sans-Serif" font-size="14.00">RailProfileLeftInside(WeCat3dPoints) 0..1: [1280 points(first: X=0.204, Z=0.004)]</text>
</a>
</g>
</g>
<!-- 1: RailProfile&#45;Calibrate(OffsetX: 0 mm, OffsetZ: 0 mm, Angle: 0°0&#39;, Right rail, X Camera axis flipped)&#45;&gt;RailProfileLeftInside(WeCat3dPoints) 0..1: [1280 points(first: X=0.204, Z=0.004)] -->
<g id="edge4" class="edge">
<title>1: RailProfile&#45;Calibrate(OffsetX: 0 mm, OffsetZ: 0 mm, Angle: 0°0&#39;, Right rail, X Camera axis flipped)&#45;&gt;RailProfileLeftInside(WeCat3dPoints) 0..1: [1280 points(first: X=0.204, Z=0.004)]</title>
<path fill="none" stroke="black" d="M1966.99,-178.33C1975.3,-178.33 1983.72,-178.33 1992.23,-178.33"/>
<polygon fill="black" stroke="black" points="1992.26,-181.83 2002.26,-178.33 1992.26,-174.83 1992.26,-181.83"/>
</g>
<!-- 2: RailProfile&#45;Process(Wear point to head top vertical distance: 14 mm
Rail bounding box:left: &#45;15 mm, right: 50 mm, bottom: &#45;150 mm, top: 10 mm
Head bounding box:left: &#45;15 mm, right: 10 mm, bottom: &#45;60 mm, top: 0 mm
Cluster filter: Minimum points in cluster = 5, Max distance = 1 mm
Head side detector: Angle = 0°0&#39;, number of points in line = 7, maximum deviation = 0.05 mm
Wear point X computer: Y range = 0.5 mm, maximum X range = 2 mm
Minimum horizontal leap between plastic flow and head side = 1 mm) -->
<g id="node6" class="node">
<title>2: RailProfile&#45;Process(Wear point to head top vertical distance: 14 mm
Rail bounding box:left: &#45;15 mm, right: 50 mm, bottom: &#45;150 mm, top: 10 mm
Head bounding box:left: &#45;15 mm, right: 10 mm, bottom: &#45;60 mm, top: 0 mm
Cluster filter: Minimum points in cluster = 5, Max distance = 1 mm
Head side detector: Angle = 0°0&#39;, number of points in line = 7, maximum deviation = 0.05 mm
Wear point X computer: Y range = 0.5 mm, maximum X range = 2 mm
Minimum horizontal leap between plastic flow and head side = 1 mm)</title>
<g id="a_node6"><a xlink:title="Computes relevant points and values on the profile&#10;(wear, plastic flow, points classification, head top, side, running edge)&#10;Constants are read either from Algorithm itself, or from calibration constants prefixed with `RailProfile.`.&#10;">
<polygon fill="#ffe6ff" stroke="black" points="3110.01,-104.53 3110.01,-252.13 2985.81,-356.49 2810.17,-356.49 2685.98,-252.13 2685.98,-104.53 2810.17,-0.17 2985.81,-0.17 3110.01,-104.53"/>
<text text-anchor="middle" x="2897.99" y="-279.63" font-family="Helvetica,sans-Serif" font-size="14.00">RailProfile&#45;Process(Wear point to head</text>
<text text-anchor="middle" x="2897.99" y="-264.63" font-family="Helvetica,sans-Serif" font-size="14.00">top vertical distance: 14 mm</text>
<text text-anchor="middle" x="2897.99" y="-249.63" font-family="Helvetica,sans-Serif" font-size="14.00">Rail bounding box:left: &#45;15 mm, right:</text>
<text text-anchor="middle" x="2897.99" y="-234.63" font-family="Helvetica,sans-Serif" font-size="14.00">50 mm, bottom: &#45;150 mm, top: 10 mm</text>
<text text-anchor="middle" x="2897.99" y="-219.63" font-family="Helvetica,sans-Serif" font-size="14.00">Head bounding box:left: &#45;15 mm, right:</text>
<text text-anchor="middle" x="2897.99" y="-204.63" font-family="Helvetica,sans-Serif" font-size="14.00">10 mm, bottom: &#45;60 mm, top: 0 mm</text>
<text text-anchor="middle" x="2897.99" y="-189.63" font-family="Helvetica,sans-Serif" font-size="14.00">Cluster filter: Minimum points in</text>
<text text-anchor="middle" x="2897.99" y="-174.63" font-family="Helvetica,sans-Serif" font-size="14.00">cluster = 5, Max distance = 1 mm</text>
<text text-anchor="middle" x="2897.99" y="-159.63" font-family="Helvetica,sans-Serif" font-size="14.00">Head side detector: Angle = 0°0&#39;, number</text>
<text text-anchor="middle" x="2897.99" y="-144.63" font-family="Helvetica,sans-Serif" font-size="14.00">of points in line = 7, maximum deviation</text>
<text text-anchor="middle" x="2897.99" y="-129.63" font-family="Helvetica,sans-Serif" font-size="14.00">= 0.05 mm</text>
<text text-anchor="middle" x="2897.99" y="-114.63" font-family="Helvetica,sans-Serif" font-size="14.00">Wear point X computer: Y range = 0.5 mm,</text>
<text text-anchor="middle" x="2897.99" y="-99.63" font-family="Helvetica,sans-Serif" font-size="14.00">maximum X range = 2 mm</text>
<text text-anchor="middle" x="2897.99" y="-84.63" font-family="Helvetica,sans-Serif" font-size="14.00">Minimum horizontal leap between plastic</text>
<text text-anchor="middle" x="2897.99" y="-69.63" font-family="Helvetica,sans-Serif" font-size="14.00">flow and head side = 1 mm)</text>
</a>
</g>
</g>
<!-- RailProfileLeftInside(WeCat3dPoints) 0..1: [1280 points(first: X=0.204, Z=0.004)]&#45;&gt;2: RailProfile&#45;Process(Wear point to head top vertical distance: 14 mm
Rail bounding box:left: &#45;15 mm, right: 50 mm, bottom: &#45;150 mm, top: 10 mm
Head bounding box:left: &#45;15 mm, right: 10 mm, bottom: &#45;60 mm, top: 0 mm
Cluster filter: Minimum points in cluster = 5, Max distance = 1 mm
Head side detector: Angle = 0°0&#39;, number of points in line = 7, maximum deviation = 0.05 mm
Wear point X computer: Y range = 0.5 mm, maximum X range = 2 mm
Minimum horizontal leap between plastic flow and head side = 1 mm) -->
<g id="edge5" class="edge">
<title>RailProfileLeftInside(WeCat3dPoints) 0..1: [1280 points(first: X=0.204, Z=0.004)]&#45;&gt;2: RailProfile&#45;Process(Wear point to head top vertical distance: 14 mm
Rail bounding box:left: &#45;15 mm, right: 50 mm, bottom: &#45;150 mm, top: 10 mm
Head bounding box:left: &#45;15 mm, right: 10 mm, bottom: &#45;60 mm, top: 0 mm
Cluster filter: Minimum points in cluster = 5, Max distance = 1 mm
Head side detector: Angle = 0°0&#39;, number of points in line = 7, maximum deviation = 0.05 mm
Wear point X computer: Y range = 0.5 mm, maximum X range = 2 mm
Minimum horizontal leap between plastic flow and head side = 1 mm)</title>
<path fill="none" stroke="black" d="M2650.02,-178.33C2658.6,-178.33 2667.14,-178.33 2675.59,-178.33"/>
<polygon fill="black" stroke="black" points="2675.86,-181.83 2685.86,-178.33 2675.86,-174.83 2675.86,-181.83"/>
</g>
<!-- ProcessedRailProfileLeftInside(ProcessedRailProfile) 0..1: [ProcessedProfile{Top: [4.0; 4.0], Side: [4.0; &#45;57.9], Wear: 0.0 (at [4.0; &#45;10.0]), Plastic flow: &#45; (at [4.0; &#45;0.4]), Running edge: [4.0; &#45;0.4]}] -->
<g id="node7" class="node">
<title>ProcessedRailProfileLeftInside(ProcessedRailProfile) 0..1: [ProcessedProfile{Top: [4.0; 4.0], Side: [4.0; &#45;57.9], Wear: 0.0 (at [4.0; &#45;10.0]), Plastic flow: &#45; (at [4.0; &#45;0.4]), Running edge: [4.0; &#45;0.4]}]</title>
<g id="a_node7"><a xlink:title="ProcessedRailProfileLeftInside, Zpracovane profily leva vnitrni kolejnice">
<ellipse fill="#ffe6ff" stroke="black" stroke-width="2" cx="3901.88" cy="-178.33" rx="755.77" ry="18"/>
<text text-anchor="middle" x="3901.88" y="-174.63" font-family="Helvetica,sans-Serif" font-size="14.00">ProcessedRailProfileLeftInside(ProcessedRailProfile) 0..1: [ProcessedProfile{Top: [4.0; 4.0], Side: [4.0; &#45;57.9], Wear: 0.0 (at [4.0; &#45;10.0]), Plastic flow: &#45; (at [4.0; &#45;0.4]), Running edge: [4.0; &#45;0.4]}]</text>
</a>
</g>
</g>
<!-- 2: RailProfile&#45;Process(Wear point to head top vertical distance: 14 mm
Rail bounding box:left: &#45;15 mm, right: 50 mm, bottom: &#45;150 mm, top: 10 mm
Head bounding box:left: &#45;15 mm, right: 10 mm, bottom: &#45;60 mm, top: 0 mm
Cluster filter: Minimum points in cluster = 5, Max distance = 1 mm
Head side detector: Angle = 0°0&#39;, number of points in line = 7, maximum deviation = 0.05 mm
Wear point X computer: Y range = 0.5 mm, maximum X range = 2 mm
Minimum horizontal leap between plastic flow and head side = 1 mm)&#45;&gt;ProcessedRailProfileLeftInside(ProcessedRailProfile) 0..1: [ProcessedProfile{Top: [4.0; 4.0], Side: [4.0; &#45;57.9], Wear: 0.0 (at [4.0; &#45;10.0]), Plastic flow: &#45; (at [4.0; &#45;0.4]), Running edge: [4.0; &#45;0.4]}] -->
<g id="edge6" class="edge">
<title>2: RailProfile&#45;Process(Wear point to head top vertical distance: 14 mm
Rail bounding box:left: &#45;15 mm, right: 50 mm, bottom: &#45;150 mm, top: 10 mm
Head bounding box:left: &#45;15 mm, right: 10 mm, bottom: &#45;60 mm, top: 0 mm
Cluster filter: Minimum points in cluster = 5, Max distance = 1 mm
Head side detector: Angle = 0°0&#39;, number of points in line = 7, maximum deviation = 0.05 mm
Wear point X computer: Y range = 0.5 mm, maximum X range = 2 mm
Minimum horizontal leap between plastic flow and head side = 1 mm)&#45;&gt;ProcessedRailProfileLeftInside(ProcessedRailProfile) 0..1: [ProcessedProfile{Top: [4.0; 4.0], Side: [4.0; &#45;57.9], Wear: 0.0 (at [4.0; &#45;10.0]), Plastic flow: &#45; (at [4.0; &#45;0.4]), Running edge: [4.0; &#45;0.4]}]</title>
<path fill="none" stroke="black" d="M3110.24,-178.33C3118.5,-178.33 3126.91,-178.33 3135.47,-178.33"/>
<polygon fill="black" stroke="black" points="3135.58,-181.83 3145.58,-178.33 3135.58,-174.83 3135.58,-181.83"/>
</g>
<!-- 3: TimeToDistanceResampler(1 m, Average(f64)) -->
<g id="node8" class="node">
<title>3: TimeToDistanceResampler(1 m, Average(f64))</title>
<g id="a_node8"><a xlink:title="Resample from time to distance domain. Resamples f64 values by averaging them. Discard values when the sampling signal doesn&#39;t change (the trolley is standing still)">
<polygon fill="#f5ecf5" stroke="black" points="973.79,-258.25 973.79,-282.41 851.74,-299.5 679.13,-299.5 557.07,-282.41 557.07,-258.25 679.13,-241.16 851.74,-241.16 973.79,-258.25"/>
<text text-anchor="middle" x="765.43" y="-274.13" font-family="Helvetica,sans-Serif" font-size="14.00">TimeToDistanceResampler(1 m, Average(</text>
<text text-anchor="middle" x="765.43" y="-259.13" font-family="Helvetica,sans-Serif" font-size="14.00">f64))</text>
</a>
</g>
</g>
<!-- HorizontalWearLeft(F64) 0..1: [0] -->
<g id="node11" class="node">
<title>HorizontalWearLeft(F64) 0..1: [0]</title>
<g id="a_node11"><a xlink:title="HorizontalWearLeft, Vodorovné ojetí levé">
<ellipse fill="#ffe6ff" stroke="black" stroke-width="2" cx="1282.61" cy="-270.33" rx="139.18" ry="18"/>
<text text-anchor="middle" x="1282.61" y="-266.63" font-family="Helvetica,sans-Serif" font-size="14.00">HorizontalWearLeft(F64) 0..1: [0]</text>
</a>
</g>
</g>
<!-- 3: TimeToDistanceResampler(1 m, Average(f64))&#45;&gt;HorizontalWearLeft(F64) 0..1: [0] -->
<g id="edge9" class="edge">
<title>3: TimeToDistanceResampler(1 m, Average(f64))&#45;&gt;HorizontalWearLeft(F64) 0..1: [0]</title>
<path fill="none" stroke="black" d="M973.75,-270.33C1027.11,-270.33 1083.47,-270.33 1133.17,-270.33"/>
<polygon fill="black" stroke="black" points="1133.35,-273.83 1143.35,-270.33 1133.35,-266.83 1133.35,-273.83"/>
</g>
<!-- WeCat3dLeftInside@TimeDistance(F64) 0..4: [0.2, 0.3, 0.9, 1.2] -->
<g id="node9" class="node">
<title>WeCat3dLeftInside@TimeDistance(F64) 0..4: [0.2, 0.3, 0.9, 1.2]</title>
<ellipse fill="#fafafa" stroke="black" stroke-width="2" cx="260.63" cy="-293.33" rx="260.75" ry="18"/>
<text text-anchor="middle" x="260.63" y="-289.63" font-family="Helvetica,sans-Serif" font-size="14.00">WeCat3dLeftInside@TimeDistance(F64) 0..4: [0.2, 0.3, 0.9, 1.2]</text>
</g>
<!-- WeCat3dLeftInside@TimeDistance(F64) 0..4: [0.2, 0.3, 0.9, 1.2]&#45;&gt;3: TimeToDistanceResampler(1 m, Average(f64)) -->
<g id="edge7" class="edge">
<title>WeCat3dLeftInside@TimeDistance(F64) 0..4: [0.2, 0.3, 0.9, 1.2]&#45;&gt;3: TimeToDistanceResampler(1 m, Average(f64))</title>
<path fill="none" stroke="black" d="M478.51,-283.41C501.2,-282.37 524.27,-281.32 546.97,-280.28"/>
<polygon fill="black" stroke="black" points="547.19,-283.77 557.02,-279.82 546.87,-276.78 547.19,-283.77"/>
</g>
<!-- HorizontalWearLeft@Time(F64) 0..4: [0, 0, 0, NaN] -->
<g id="node10" class="node">
<title>HorizontalWearLeft@Time(F64) 0..4: [0, 0, 0, NaN]</title>
<g id="a_node10"><a xlink:title="HorizontalWearLeft, Vodorovné ojetí levé">
<ellipse fill="#e6e6e6" stroke="black" stroke-width="2" cx="260.63" cy="-239.33" rx="209.86" ry="18"/>
<text text-anchor="middle" x="260.63" y="-235.63" font-family="Helvetica,sans-Serif" font-size="14.00">HorizontalWearLeft@Time(F64) 0..4: [0, 0, 0, NaN]</text>
</a>
</g>
</g>
<!-- HorizontalWearLeft@Time(F64) 0..4: [0, 0, 0, NaN]&#45;&gt;3: TimeToDistanceResampler(1 m, Average(f64)) -->
<g id="edge8" class="edge">
<title>HorizontalWearLeft@Time(F64) 0..4: [0, 0, 0, NaN]&#45;&gt;3: TimeToDistanceResampler(1 m, Average(f64))</title>
<path fill="none" stroke="black" d="M431.5,-249.8C469.6,-252.15 510.5,-254.67 550.14,-257.12"/>
<polygon fill="black" stroke="black" points="549.99,-260.62 560.18,-257.74 550.42,-253.63 549.99,-260.62"/>
</g>
</g>
</svg>
