<?xml version="1.0" encoding="UTF-8" standalone="no"?>
<!DOCTYPE svg PUBLIC "-//W3C//DTD SVG 1.1//EN"
 "http://www.w3.org/Graphics/SVG/1.1/DTD/svg11.dtd">
<!-- Generated by graphviz version 2.43.0 (0)
 -->
<!-- Title: %3 Pages: 1 -->
<svg width="1200pt" height="152pt"
 viewBox="0.00 0.00 1200.48 152.00" xmlns="http://www.w3.org/2000/svg" xmlns:xlink="http://www.w3.org/1999/xlink">
<g id="graph0" class="graph" transform="scale(1 1) rotate(0) translate(4 148)">
<title>%3</title>
<polygon fill="white" stroke="transparent" points="-4,4 -4,-148 1196.48,-148 1196.48,4 -4,4"/>
<!-- 0: VGN01 Time Source -->
<g id="node1" class="node">
<title>0: VGN01 Time Source</title>
<g id="a_node1"><a xlink:title="VGN Time Source">
<polygon fill="#f0f0f0" stroke="black" points="205.29,-64.54 205.29,-79.46 146.31,-90 62.89,-90 3.9,-79.46 3.9,-64.54 62.89,-54 146.31,-54 205.29,-64.54"/>
<polygon fill="none" stroke="black" points="209.3,-61.2 209.3,-82.8 146.66,-94 62.53,-94 -0.1,-82.8 -0.1,-61.2 62.53,-50 146.66,-50 209.3,-61.2"/>
<text text-anchor="middle" x="104.6" y="-68.3" font-family="Helvetica,sans-Serif" font-size="14.00">VGN01 Time Source</text>
</a>
</g>
</g>
<!-- VGN01:ad:0(U16)  -->
<g id="node2" class="node">
<title>VGN01:ad:0(U16) </title>
<g id="a_node2"><a xlink:title="qR0_Right, Corrugation sensor 0 Right">
<polygon fill="#e6e6e6" stroke="black" points="436.44,-144 307.44,-144 307.44,-108 436.44,-108 436.44,-144"/>
<text text-anchor="middle" x="371.94" y="-122.3" font-family="Helvetica,sans-Serif" font-size="14.00">VGN01:ad:0(U16) </text>
</a>
</g>
</g>
<!-- 0: VGN01 Time Source&#45;&gt;VGN01:ad:0(U16)  -->
<g id="edge1" class="edge">
<title>0: VGN01 Time Source&#45;&gt;VGN01:ad:0(U16) </title>
<path fill="none" stroke="black" d="M182.7,-87.69C218.79,-95.04 261.57,-103.74 297.22,-111"/>
<polygon fill="black" stroke="black" points="296.57,-114.44 307.07,-113 297.97,-107.58 296.57,-114.44"/>
</g>
<!-- VGN01:irc:0(IrcValue)  -->
<g id="node3" class="node">
<title>VGN01:irc:0(IrcValue) </title>
<g id="a_node3"><a xlink:title="ln, Travelled distance">
<polygon fill="#e6e6e6" stroke="black" points="448.44,-90 295.44,-90 295.44,-54 448.44,-54 448.44,-90"/>
<text text-anchor="middle" x="371.94" y="-68.3" font-family="Helvetica,sans-Serif" font-size="14.00">VGN01:irc:0(IrcValue) </text>
</a>
</g>
</g>
<!-- 0: VGN01 Time Source&#45;&gt;VGN01:irc:0(IrcValue)  -->
<g id="edge2" class="edge">
<title>0: VGN01 Time Source&#45;&gt;VGN01:irc:0(IrcValue) </title>
<path fill="none" stroke="black" d="M209.33,-72C234.38,-72 260.88,-72 285.02,-72"/>
<polygon fill="black" stroke="black" points="285.21,-75.5 295.21,-72 285.21,-68.5 285.21,-75.5"/>
</g>
<!-- VGN01@TimeDistance(F64)  -->
<g id="node4" class="node">
<title>VGN01@TimeDistance(F64) </title>
<ellipse fill="#fafafa" stroke="black" stroke-width="2" cx="371.94" cy="-18" rx="126.98" ry="18"/>
<text text-anchor="middle" x="371.94" y="-14.3" font-family="Helvetica,sans-Serif" font-size="14.00">VGN01@TimeDistance(F64) </text>
</g>
<!-- 0: VGN01 Time Source&#45;&gt;VGN01@TimeDistance(F64)  -->
<g id="edge3" class="edge">
<title>0: VGN01 Time Source&#45;&gt;VGN01@TimeDistance(F64) </title>
<path fill="none" stroke="black" d="M182.7,-56.31C215.99,-49.53 254.97,-41.6 288.79,-34.72"/>
<polygon fill="black" stroke="black" points="289.55,-38.14 298.65,-32.71 288.15,-31.28 289.55,-38.14"/>
</g>
<!-- 2: AdCalibrator -->
<g id="node7" class="node">
<title>2: AdCalibrator</title>
<g id="a_node7"><a xlink:title="Computes a signal from a 16&#45;bit AD channel via KQ calibration. This processor is implicitly created by the channel definition.">
<polygon fill="#e6e6e6" stroke="black" points="690.37,-118.54 690.37,-133.46 652.33,-144 598.53,-144 560.48,-133.46 560.48,-118.54 598.53,-108 652.33,-108 690.37,-118.54"/>
<text text-anchor="middle" x="625.43" y="-122.3" font-family="Helvetica,sans-Serif" font-size="14.00">AdCalibrator</text>
</a>
</g>
</g>
<!-- VGN01:ad:0(U16) &#45;&gt;2: AdCalibrator -->
<g id="edge6" class="edge">
<title>VGN01:ad:0(U16) &#45;&gt;2: AdCalibrator</title>
<path fill="none" stroke="black" d="M436.72,-126C471.16,-126 513.86,-126 549.83,-126"/>
<polygon fill="black" stroke="black" points="550.27,-129.5 560.27,-126 550.27,-122.5 550.27,-129.5"/>
</g>
<!-- 1: DistanceComputer -->
<g id="node5" class="node">
<title>1: DistanceComputer</title>
<g id="a_node5"><a xlink:title="Computes travelled distance signal from a 64&#45;bit IRC channel via KQ calibration while respecting Orientation. This processor is implicitly created by the channel definition.">
<polygon fill="#e6e6e6" stroke="black" points="715.93,-64.54 715.93,-79.46 662.91,-90 587.94,-90 534.93,-79.46 534.93,-64.54 587.94,-54 662.91,-54 715.93,-64.54"/>
<text text-anchor="middle" x="625.43" y="-68.3" font-family="Helvetica,sans-Serif" font-size="14.00">DistanceComputer</text>
</a>
</g>
</g>
<!-- VGN01:irc:0(IrcValue) &#45;&gt;1: DistanceComputer -->
<g id="edge4" class="edge">
<title>VGN01:irc:0(IrcValue) &#45;&gt;1: DistanceComputer</title>
<path fill="none" stroke="black" d="M448.73,-72C472.5,-72 499.12,-72 524.3,-72"/>
<polygon fill="black" stroke="black" points="524.62,-75.5 534.62,-72 524.62,-68.5 524.62,-75.5"/>
</g>
<!-- ln(F64)  -->
<g id="node6" class="node">
<title>ln(F64) </title>
<g id="a_node6"><a xlink:title="ln, Travelled distance">
<ellipse fill="#e6e6e6" stroke="black" stroke-width="2" cx="827.57" cy="-72" rx="40.89" ry="18"/>
<text text-anchor="middle" x="827.57" y="-68.3" font-family="Helvetica,sans-Serif" font-size="14.00">ln(F64) </text>
</a>
</g>
</g>
<!-- 1: DistanceComputer&#45;&gt;ln(F64)  -->
<g id="edge5" class="edge">
<title>1: DistanceComputer&#45;&gt;ln(F64) </title>
<path fill="none" stroke="black" d="M715.96,-72C736.68,-72 758,-72 776.33,-72"/>
<polygon fill="black" stroke="black" points="776.47,-75.5 786.47,-72 776.47,-68.5 776.47,-75.5"/>
</g>
<!-- 3: Kilometrage -->
<g id="node9" class="node">
<title>3: Kilometrage</title>
<g id="a_node9"><a xlink:title="Computes current kilometrage from start kilometrage, direction and track events that alter the kilometrage">
<polygon fill="#e6e6e6" stroke="black" points="1064.3,-64.54 1064.3,-79.46 1027.56,-90 975.59,-90 938.85,-79.46 938.85,-64.54 975.59,-54 1027.56,-54 1064.3,-64.54"/>
<text text-anchor="middle" x="1001.57" y="-68.3" font-family="Helvetica,sans-Serif" font-size="14.00">Kilometrage</text>
</a>
</g>
</g>
<!-- ln(F64) &#45;&gt;3: Kilometrage -->
<g id="edge8" class="edge">
<title>ln(F64) &#45;&gt;3: Kilometrage</title>
<path fill="none" stroke="black" d="M868.9,-72C886.74,-72 908.27,-72 928.7,-72"/>
<polygon fill="black" stroke="black" points="928.95,-75.5 938.95,-72 928.95,-68.5 928.95,-75.5"/>
</g>
<!-- qR0_Right(F64)  -->
<g id="node8" class="node">
<title>qR0_Right(F64) </title>
<g id="a_node8"><a xlink:title="qR0_Right, Corrugation sensor 0 Right">
<ellipse fill="#e6e6e6" stroke="black" stroke-width="2" cx="827.57" cy="-126" rx="75.29" ry="18"/>
<text text-anchor="middle" x="827.57" y="-122.3" font-family="Helvetica,sans-Serif" font-size="14.00">qR0_Right(F64) </text>
</a>
</g>
</g>
<!-- 2: AdCalibrator&#45;&gt;qR0_Right(F64)  -->
<g id="edge7" class="edge">
<title>2: AdCalibrator&#45;&gt;qR0_Right(F64) </title>
<path fill="none" stroke="black" d="M690.3,-126C706.75,-126 724.71,-126 742.03,-126"/>
<polygon fill="black" stroke="black" points="742.14,-129.5 752.14,-126 742.14,-122.5 742.14,-129.5"/>
</g>
<!-- km(F64)  -->
<g id="node10" class="node">
<title>km(F64) </title>
<g id="a_node10"><a xlink:title="km, Kilometrage">
<ellipse fill="#e6e6e6" stroke="black" stroke-width="2" cx="1146.33" cy="-72" rx="46.29" ry="18"/>
<text text-anchor="middle" x="1146.33" y="-68.3" font-family="Helvetica,sans-Serif" font-size="14.00">km(F64) </text>
</a>
</g>
</g>
<!-- 3: Kilometrage&#45;&gt;km(F64)  -->
<g id="edge9" class="edge">
<title>3: Kilometrage&#45;&gt;km(F64) </title>
<path fill="none" stroke="black" d="M1064.36,-72C1072.73,-72 1081.28,-72 1089.54,-72"/>
<polygon fill="black" stroke="black" points="1089.81,-75.5 1099.81,-72 1089.81,-68.5 1089.81,-75.5"/>
</g>
</g>
</svg>
