digraph {
  rankdir=LR;  node [shape=box];  graph [fontname = "helvetica"]  node [fontname = "helvetica"]  edge [fontname = "helvetica"]    "0: Domain Resampler(Average(f64)) 0.05 -> 0.25" [shape=octagon, style="filled,solid",fillcolor="#F2F2FF", label="Domain Resampler(Average(f64)) 0.05 ->\n0.25", tooltip="Resample from one domain to another. Resamples f64 values by averaging them. Discard values when the sampling signal doesn't change (the trolley is standing still)"];
    "km@Corrugation(F64) " [tooltip="", shape=oval, style="filled,solid,bold", fillcolor="#E6FFFF"];
    "km(F64) " [tooltip="km, Kilometrage", shape=oval, style="filled,solid,bold", fillcolor="#FFE6FF"];
  "km@Corrugation(F64) " -> "0: Domain Resampler(Average(f64)) 0.05 -> 0.25"
  "0: Domain Resampler(Average(f64)) 0.05 -> 0.25" -> "km(F64) "
}