<?xml version="1.0" encoding="UTF-8" standalone="no"?>
<!DOCTYPE svg PUBLIC "-//W3C//DTD SVG 1.1//EN"
 "http://www.w3.org/Graphics/SVG/1.1/DTD/svg11.dtd">
<!-- Generated by graphviz version 2.43.0 (0)
 -->
<!-- Title: %3 Pages: 1 -->
<svg width="1819pt" height="109pt"
 viewBox="0.00 0.00 1818.83 109.08" xmlns="http://www.w3.org/2000/svg" xmlns:xlink="http://www.w3.org/1999/xlink">
<g id="graph0" class="graph" transform="scale(1 1) rotate(0) translate(4 105.08)">
<title>%3</title>
<polygon fill="white" stroke="transparent" points="-4,4 -4,-105.08 1814.83,-105.08 1814.83,4 -4,4"/>
<!-- 0: VGN01 Resampler -->
<g id="node1" class="node">
<title>0: VGN01 Resampler</title>
<g id="a_node1"><a xlink:title="VGN Resampler">
<polygon fill="#e6ffff" stroke="black" points="188.47,-48.63 188.47,-63.54 134.39,-74.08 57.92,-74.08 3.85,-63.54 3.85,-48.63 57.92,-38.08 134.39,-38.08 188.47,-48.63"/>
<polygon fill="none" stroke="black" points="192.47,-45.33 192.47,-66.83 134.78,-78.08 57.53,-78.08 -0.16,-66.83 -0.16,-45.33 57.53,-34.08 134.78,-34.08 192.47,-45.33"/>
<text text-anchor="middle" x="96.16" y="-52.38" font-family="Helvetica,sans-Serif" font-size="14.00">VGN01 Resampler</text>
</a>
</g>
</g>
<!-- VGN01:ad:0(U16)  -->
<g id="node2" class="node">
<title>VGN01:ad:0(U16) </title>
<g id="a_node2"><a xlink:title="qR0_Right, Corrugation sensor 0 Right">
<polygon fill="#e6ffff" stroke="black" points="369.32,-101.08 240.32,-101.08 240.32,-65.08 369.32,-65.08 369.32,-101.08"/>
<text text-anchor="middle" x="304.82" y="-79.38" font-family="Helvetica,sans-Serif" font-size="14.00">VGN01:ad:0(U16) </text>
</a>
</g>
</g>
<!-- 0: VGN01 Resampler&#45;&gt;VGN01:ad:0(U16)  -->
<g id="edge1" class="edge">
<title>0: VGN01 Resampler&#45;&gt;VGN01:ad:0(U16) </title>
<path fill="none" stroke="black" d="M187.5,-67.89C201.61,-69.73 216.04,-71.62 229.73,-73.4"/>
<polygon fill="black" stroke="black" points="229.67,-76.93 240.04,-74.75 230.57,-69.99 229.67,-76.93"/>
</g>
<!-- VGN01:irc:0(IrcValue)  -->
<g id="node3" class="node">
<title>VGN01:irc:0(IrcValue) </title>
<g id="a_node3"><a xlink:title="ln, Travelled distance">
<polygon fill="#e6ffff" stroke="black" points="381.32,-47.08 228.32,-47.08 228.32,-11.08 381.32,-11.08 381.32,-47.08"/>
<text text-anchor="middle" x="304.82" y="-25.38" font-family="Helvetica,sans-Serif" font-size="14.00">VGN01:irc:0(IrcValue) </text>
</a>
</g>
</g>
<!-- 0: VGN01 Resampler&#45;&gt;VGN01:irc:0(IrcValue)  -->
<g id="edge2" class="edge">
<title>0: VGN01 Resampler&#45;&gt;VGN01:irc:0(IrcValue) </title>
<path fill="none" stroke="black" d="M187.5,-44.28C197.68,-42.95 208.04,-41.6 218.16,-40.28"/>
<polygon fill="black" stroke="black" points="218.72,-43.73 228.18,-38.97 217.81,-36.79 218.72,-43.73"/>
</g>
<!-- 3: AdCalibrator(K: 0, Q: 0) -->
<g id="node8" class="node">
<title>3: AdCalibrator(K: 0, Q: 0)</title>
<g id="a_node8"><a xlink:title="Computes a signal from a 16&#45;bit AD channel via KQ calibration. This processor is implicitly created by the channel definition.">
<polygon fill="#e6ffff" stroke="black" points="672.13,-75.63 672.13,-90.54 606.93,-101.08 514.72,-101.08 449.52,-90.54 449.52,-75.63 514.72,-65.08 606.93,-65.08 672.13,-75.63"/>
<text text-anchor="middle" x="560.83" y="-79.38" font-family="Helvetica,sans-Serif" font-size="14.00">AdCalibrator(K: 0, Q: 0)</text>
</a>
</g>
</g>
<!-- VGN01:ad:0(U16) &#45;&gt;3: AdCalibrator(K: 0, Q: 0) -->
<g id="edge7" class="edge">
<title>VGN01:ad:0(U16) &#45;&gt;3: AdCalibrator(K: 0, Q: 0)</title>
<path fill="none" stroke="black" d="M369.59,-83.08C390.8,-83.08 415.18,-83.08 439.25,-83.08"/>
<polygon fill="black" stroke="black" points="439.54,-86.58 449.54,-83.08 439.54,-79.58 439.54,-86.58"/>
</g>
<!-- 1: DistanceComputer(Up, k=0.01) -->
<g id="node4" class="node">
<title>1: DistanceComputer(Up, k=0.01)</title>
<g id="a_node4"><a xlink:title="Computes travelled distance signal from a 64&#45;bit IRC channel via KQ calibration while respecting Orientation. This processor is implicitly created by the channel definition.">
<polygon fill="#e6ffff" stroke="black" points="704.35,-21.63 704.35,-36.54 620.28,-47.08 501.38,-47.08 417.3,-36.54 417.3,-21.63 501.38,-11.08 620.28,-11.08 704.35,-21.63"/>
<text text-anchor="middle" x="560.83" y="-25.38" font-family="Helvetica,sans-Serif" font-size="14.00">DistanceComputer(Up, k=0.01)</text>
</a>
</g>
</g>
<!-- VGN01:irc:0(IrcValue) &#45;&gt;1: DistanceComputer(Up, k=0.01) -->
<g id="edge3" class="edge">
<title>VGN01:irc:0(IrcValue) &#45;&gt;1: DistanceComputer(Up, k=0.01)</title>
<path fill="none" stroke="black" d="M381.34,-29.08C389.63,-29.08 398.27,-29.08 407.08,-29.08"/>
<polygon fill="black" stroke="black" points="407.09,-32.58 417.09,-29.08 407.09,-25.58 407.09,-32.58"/>
</g>
<!-- ln(F64)  -->
<g id="node5" class="node">
<title>ln(F64) </title>
<g id="a_node5"><a xlink:title="ln, Travelled distance">
<ellipse fill="#e6ffff" stroke="black" stroke-width="2" cx="815.73" cy="-29.08" rx="40.89" ry="18"/>
<text text-anchor="middle" x="815.73" y="-25.38" font-family="Helvetica,sans-Serif" font-size="14.00">ln(F64) </text>
</a>
</g>
</g>
<!-- 1: DistanceComputer(Up, k=0.01)&#45;&gt;ln(F64)  -->
<g id="edge4" class="edge">
<title>1: DistanceComputer(Up, k=0.01)&#45;&gt;ln(F64) </title>
<path fill="none" stroke="black" d="M704.54,-29.08C726.08,-29.08 746.98,-29.08 764.69,-29.08"/>
<polygon fill="black" stroke="black" points="764.73,-32.58 774.73,-29.08 764.73,-25.58 764.73,-32.58"/>
</g>
<!-- 2: Kilometrage -->
<g id="node6" class="node">
<title>2: Kilometrage</title>
<g id="a_node6"><a xlink:title="Computes current kilometrage from start kilometrage, direction and track events that alter the kilometrage">
<polygon fill="#e6ffff" stroke="black" points="1052.46,-21.63 1052.46,-36.54 1015.72,-47.08 963.76,-47.08 927.02,-36.54 927.02,-21.63 963.76,-11.08 1015.72,-11.08 1052.46,-21.63"/>
<text text-anchor="middle" x="989.74" y="-25.38" font-family="Helvetica,sans-Serif" font-size="14.00">Kilometrage</text>
</a>
</g>
</g>
<!-- ln(F64) &#45;&gt;2: Kilometrage -->
<g id="edge5" class="edge">
<title>ln(F64) &#45;&gt;2: Kilometrage</title>
<path fill="none" stroke="black" d="M857.06,-29.08C874.9,-29.08 896.43,-29.08 916.87,-29.08"/>
<polygon fill="black" stroke="black" points="917.11,-32.58 927.11,-29.08 917.11,-25.58 917.11,-32.58"/>
</g>
<!-- km(F64)  -->
<g id="node7" class="node">
<title>km(F64) </title>
<ellipse fill="#e6ffff" stroke="black" stroke-width="2" cx="1134.49" cy="-29.08" rx="46.29" ry="18"/>
<text text-anchor="middle" x="1134.49" y="-25.38" font-family="Helvetica,sans-Serif" font-size="14.00">km(F64) </text>
</g>
<!-- 2: Kilometrage&#45;&gt;km(F64)  -->
<g id="edge6" class="edge">
<title>2: Kilometrage&#45;&gt;km(F64) </title>
<path fill="none" stroke="black" d="M1052.52,-29.08C1060.89,-29.08 1069.44,-29.08 1077.7,-29.08"/>
<polygon fill="black" stroke="black" points="1077.97,-32.58 1087.97,-29.08 1077.97,-25.58 1077.97,-32.58"/>
</g>
<!-- 4: Domain Resampler(Average(f64)) 0.05 &#45;&gt; 0.25 -->
<g id="node10" class="node">
<title>4: Domain Resampler(Average(f64)) 0.05 &#45;&gt; 0.25</title>
<g id="a_node10"><a xlink:title="Resample from one domain to another. Resamples f64 values by averaging them. Discard values when the sampling signal doesn&#39;t change (the trolley is standing still)">
<polygon fill="#f2f2ff" stroke="black" points="1625.2,-17 1625.2,-41.17 1505.58,-58.25 1336.41,-58.25 1216.79,-41.17 1216.79,-17 1336.41,0.08 1505.58,0.08 1625.2,-17"/>
<text text-anchor="middle" x="1420.99" y="-32.88" font-family="Helvetica,sans-Serif" font-size="14.00">Domain Resampler(Average(f64)) 0.05 &#45;&gt;</text>
<text text-anchor="middle" x="1420.99" y="-17.88" font-family="Helvetica,sans-Serif" font-size="14.00">0.25</text>
</a>
</g>
</g>
<!-- km(F64) &#45;&gt;4: Domain Resampler(Average(f64)) 0.05 &#45;&gt; 0.25 -->
<g id="edge9" class="edge">
<title>km(F64) &#45;&gt;4: Domain Resampler(Average(f64)) 0.05 &#45;&gt; 0.25</title>
<path fill="none" stroke="black" d="M1180.89,-29.08C1188.78,-29.08 1197.43,-29.08 1206.61,-29.08"/>
<polygon fill="black" stroke="black" points="1206.77,-32.58 1216.77,-29.08 1206.77,-25.58 1206.77,-32.58"/>
</g>
<!-- qR0_Right(F64)  -->
<g id="node9" class="node">
<title>qR0_Right(F64) </title>
<g id="a_node9"><a xlink:title="qR0_Right, Corrugation sensor 0 Right">
<ellipse fill="#e6ffff" stroke="black" stroke-width="2" cx="815.73" cy="-83.08" rx="75.29" ry="18"/>
<text text-anchor="middle" x="815.73" y="-79.38" font-family="Helvetica,sans-Serif" font-size="14.00">qR0_Right(F64) </text>
</a>
</g>
</g>
<!-- 3: AdCalibrator(K: 0, Q: 0)&#45;&gt;qR0_Right(F64)  -->
<g id="edge8" class="edge">
<title>3: AdCalibrator(K: 0, Q: 0)&#45;&gt;qR0_Right(F64) </title>
<path fill="none" stroke="black" d="M672.02,-83.08C691.45,-83.08 711.4,-83.08 730,-83.08"/>
<polygon fill="black" stroke="black" points="730.18,-86.58 740.18,-83.08 730.18,-79.58 730.18,-86.58"/>
</g>
<!-- km@GPK(F64)  -->
<g id="node11" class="node">
<title>km@GPK(F64) </title>
<g id="a_node11"><a xlink:title="km, Kilometrage">
<ellipse fill="#ffe6ff" stroke="black" stroke-width="2" cx="1736.09" cy="-29.08" rx="74.99" ry="18"/>
<text text-anchor="middle" x="1736.09" y="-25.38" font-family="Helvetica,sans-Serif" font-size="14.00">km@GPK(F64) </text>
</a>
</g>
</g>
<!-- 4: Domain Resampler(Average(f64)) 0.05 &#45;&gt; 0.25&#45;&gt;km@GPK(F64)  -->
<g id="edge10" class="edge">
<title>4: Domain Resampler(Average(f64)) 0.05 &#45;&gt; 0.25&#45;&gt;km@GPK(F64) </title>
<path fill="none" stroke="black" d="M1625.58,-29.08C1634.29,-29.08 1642.78,-29.08 1650.93,-29.08"/>
<polygon fill="black" stroke="black" points="1651.08,-32.58 1661.08,-29.08 1651.08,-25.58 1651.08,-32.58"/>
</g>
</g>
</svg>
