digraph {
  rankdir=LR;  node [shape=box];  graph [fontname = "helvetica"]  node [fontname = "helvetica"]  edge [fontname = "helvetica"]    "0: VGN01 Resampler" [shape=doubleoctagon, style="filled,solid",fillcolor="#E6FFFF", label="VGN01 Resampler", tooltip="VGN Resampler"];
    "VGN01:irc:0@GPK(IrcValue) " [tooltip="ln, Travelled distance", shape=rectangle, style="filled,solid", fillcolor="#E6FFFF"];
    "1: DistanceComputer(Up, k=0.01)" [shape=octagon, style="filled,solid",fillcolor="#E6FFFF", label="DistanceComputer(Up, k=0.01)", tooltip="Computes travelled distance signal from a 64-bit IRC channel via KQ calibration while respecting Orientation. This processor is implicitly created by the channel definition."];
    "VGN01:irc:0@GPK(IrcValue) " [tooltip="ln, Travelled distance", shape=rectangle, style="filled,solid", fillcolor="#E6FFFF"];
    "ln@GPK(F64) " [tooltip="ln, Travelled distance", shape=oval, style="filled,solid,bold", fillcolor="#E6FFFF"];
    "2: VGN01 Time Source" [shape=doubleoctagon, style="filled,solid",fillcolor="#F0F0F0", label="VGN01 Time Source", tooltip="VGN Time Source"];
    "VGN01:irc:0@Time(IrcValue) " [tooltip="ln, Travelled distance", shape=rectangle, style="filled,solid", fillcolor="#E6E6E6"];
    "VGN01@TimeDistance(F64) " [tooltip="", shape=oval, style="filled,solid,bold", fillcolor="#FAFAFA"];
    "3: UserCommand-ReleaseKrab" [shape=octagon, style="filled,solid",fillcolor="#E6FFFF", label="UserCommand-ReleaseKrab", tooltip="On behalf of user interface command performs the Krab emergency release.
That is, it sets the value of the DO signal to 1. The DO signal should be the one selected by `Segment/Setting/ReleaseKrabSignalID` to stop the measurement after one second after 1 has been observed there."];
    "ln@GPK(F64) " [tooltip="ln, Travelled distance", shape=oval, style="filled,solid,bold", fillcolor="#E6FFFF"];
    "ReleaseKrab@GPK(Bool) " [tooltip="ReleaseKrab, Emergency Krab release(0: Idle, 1: Release)", shape=oval, style="filled,solid,bold", fillcolor="#E6FFFF"];
    "4: UserCommand-ReleaseKrab" [shape=octagon, style="filled,solid",fillcolor="#E6E6E6", label="UserCommand-ReleaseKrab", tooltip="On behalf of user interface command performs the Krab emergency release.
That is, it sets the value of the DO signal to 1. The DO signal should be the one selected by `Segment/Setting/ReleaseKrabSignalID` to stop the measurement after one second after 1 has been observed there."];
    "ReleaseKrab@Time(Bool) " [tooltip="ReleaseKrab, Emergency Krab release(0: Idle, 1: Release)", shape=oval, style="filled,solid,bold", fillcolor="#E6E6E6"];
    "5: DistanceComputer(Up, k=0.01)" [shape=octagon, style="filled,solid",fillcolor="#E6E6E6", label="DistanceComputer(Up, k=0.01)", tooltip="Computes travelled distance signal from a 64-bit IRC channel via KQ calibration while respecting Orientation. This processor is implicitly created by the channel definition."];
    "VGN01:irc:0@Time(IrcValue) " [tooltip="ln, Travelled distance", shape=rectangle, style="filled,solid", fillcolor="#E6E6E6"];
    "ln@Time(F64) " [tooltip="ln, Travelled distance", shape=oval, style="filled,solid,bold", fillcolor="#E6E6E6"];
    "6: DigitalOutputChannel" [shape=octagon, style="filled,solid",fillcolor="#E6FFFF", label="DigitalOutputChannel", tooltip="Turns a bool signal into a bool (digital output) channel."];
    "ReleaseKrab@GPK(Bool) " [tooltip="ReleaseKrab, Emergency Krab release(0: Idle, 1: Release)", shape=oval, style="filled,solid,bold", fillcolor="#E6FFFF"];
    "VGN01:do:1@GPK(Bool) " [tooltip="ReleaseKrab, Emergency Krab release(0: Idle, 1: Release)", shape=rectangle, style="filled,solid", fillcolor="#E6FFFF"];
    "7: DigitalOutputChannel" [shape=octagon, style="filled,solid",fillcolor="#E6E6E6", label="DigitalOutputChannel", tooltip="Turns a bool signal into a bool (digital output) channel."];
    "ReleaseKrab@Time(Bool) " [tooltip="ReleaseKrab, Emergency Krab release(0: Idle, 1: Release)", shape=oval, style="filled,solid,bold", fillcolor="#E6E6E6"];
    "VGN01:do:1@Time(Bool) " [tooltip="ReleaseKrab, Emergency Krab release(0: Idle, 1: Release)", shape=rectangle, style="filled,solid", fillcolor="#E6E6E6"];
  "0: VGN01 Resampler" -> "VGN01:irc:0@GPK(IrcValue) "
  "VGN01:irc:0@GPK(IrcValue) " -> "1: DistanceComputer(Up, k=0.01)"
  "1: DistanceComputer(Up, k=0.01)" -> "ln@GPK(F64) "
  "2: VGN01 Time Source" -> "VGN01:irc:0@Time(IrcValue) "
  "2: VGN01 Time Source" -> "VGN01@TimeDistance(F64) "
  "ln@GPK(F64) " -> "3: UserCommand-ReleaseKrab"
  "3: UserCommand-ReleaseKrab" -> "ReleaseKrab@GPK(Bool) "
  "4: UserCommand-ReleaseKrab" -> "ReleaseKrab@Time(Bool) "
  "VGN01:irc:0@Time(IrcValue) " -> "5: DistanceComputer(Up, k=0.01)"
  "5: DistanceComputer(Up, k=0.01)" -> "ln@Time(F64) "
  "ReleaseKrab@GPK(Bool) " -> "6: DigitalOutputChannel"
  "6: DigitalOutputChannel" -> "VGN01:do:1@GPK(Bool) "
  "ReleaseKrab@Time(Bool) " -> "7: DigitalOutputChannel"
  "7: DigitalOutputChannel" -> "VGN01:do:1@Time(Bool) "
}