<?xml version="1.0" encoding="UTF-8" standalone="no"?>
<!DOCTYPE svg PUBLIC "-//W3C//DTD SVG 1.1//EN"
 "http://www.w3.org/Graphics/SVG/1.1/DTD/svg11.dtd">
<!-- Generated by graphviz version 2.43.0 (0)
 -->
<!-- Title: %3 Pages: 1 -->
<svg width="1397pt" height="152pt"
 viewBox="0.00 0.00 1397.09 152.00" xmlns="http://www.w3.org/2000/svg" xmlns:xlink="http://www.w3.org/1999/xlink">
<g id="graph0" class="graph" transform="scale(1 1) rotate(0) translate(4 148)">
<title>%3</title>
<polygon fill="white" stroke="transparent" points="-4,4 -4,-148 1393.09,-148 1393.09,4 -4,4"/>
<!-- 0: VGN01 Time Source -->
<g id="node1" class="node">
<title>0: VGN01 Time Source</title>
<g id="a_node1"><a xlink:title="VGN Time Source">
<polygon fill="#f0f0f0" stroke="black" points="235.06,-35.54 235.06,-50.46 176.08,-61 92.66,-61 33.67,-50.46 33.67,-35.54 92.66,-25 176.08,-25 235.06,-35.54"/>
<polygon fill="none" stroke="black" points="239.07,-32.2 239.07,-53.8 176.43,-65 92.3,-65 29.67,-53.8 29.67,-32.2 92.3,-21 176.43,-21 239.07,-32.2"/>
<text text-anchor="middle" x="134.37" y="-39.3" font-family="Helvetica,sans-Serif" font-size="14.00">VGN01 Time Source</text>
</a>
</g>
</g>
<!-- VGN01:irc:0(IrcValue) 0..5: [0, 20, 30, 90, 120] -->
<g id="node2" class="node">
<title>VGN01:irc:0(IrcValue) 0..5: [0, 20, 30, 90, 120]</title>
<g id="a_node2"><a xlink:title="ln, Travelled distance">
<polygon fill="#e6e6e6" stroke="black" points="676.96,-90 380.96,-90 380.96,-54 676.96,-54 676.96,-90"/>
<text text-anchor="middle" x="528.96" y="-68.3" font-family="Helvetica,sans-Serif" font-size="14.00">VGN01:irc:0(IrcValue) 0..5: [0, 20, 30, 90, 120]</text>
</a>
</g>
</g>
<!-- 0: VGN01 Time Source&#45;&gt;VGN01:irc:0(IrcValue) 0..5: [0, 20, 30, 90, 120] -->
<g id="edge1" class="edge">
<title>0: VGN01 Time Source&#45;&gt;VGN01:irc:0(IrcValue) 0..5: [0, 20, 30, 90, 120]</title>
<path fill="none" stroke="black" d="M239.03,-50.66C279.37,-53.64 326.48,-57.12 370.82,-60.39"/>
<polygon fill="black" stroke="black" points="370.59,-63.89 380.83,-61.13 371.11,-56.9 370.59,-63.89"/>
</g>
<!-- VGN01@TimeDistance(F64) 0..5: [0, 0.2, 0.3, 0.9, 1.2] -->
<g id="node3" class="node">
<title>VGN01@TimeDistance(F64) 0..5: [0, 0.2, 0.3, 0.9, 1.2]</title>
<ellipse fill="#fafafa" stroke="black" stroke-width="2" cx="528.96" cy="-18" rx="224.46" ry="18"/>
<text text-anchor="middle" x="528.96" y="-14.3" font-family="Helvetica,sans-Serif" font-size="14.00">VGN01@TimeDistance(F64) 0..5: [0, 0.2, 0.3, 0.9, 1.2]</text>
</g>
<!-- 0: VGN01 Time Source&#45;&gt;VGN01@TimeDistance(F64) 0..5: [0, 0.2, 0.3, 0.9, 1.2] -->
<g id="edge2" class="edge">
<title>0: VGN01 Time Source&#45;&gt;VGN01@TimeDistance(F64) 0..5: [0, 0.2, 0.3, 0.9, 1.2]</title>
<path fill="none" stroke="black" d="M239.03,-36.4C270.91,-34.37 307.01,-32.07 342.63,-29.8"/>
<polygon fill="black" stroke="black" points="342.9,-33.29 352.66,-29.16 342.46,-26.31 342.9,-33.29"/>
</g>
<!-- 2: DistanceComputer(Up, k=0.01) -->
<g id="node6" class="node">
<title>2: DistanceComputer(Up, k=0.01)</title>
<g id="a_node6"><a xlink:title="Computes travelled distance signal from a 64&#45;bit IRC channel via KQ calibration while respecting Orientation. This processor is implicitly created by the channel definition.">
<polygon fill="#e6e6e6" stroke="black" points="1076.23,-64.54 1076.23,-79.46 992.16,-90 873.26,-90 789.18,-79.46 789.18,-64.54 873.26,-54 992.16,-54 1076.23,-64.54"/>
<text text-anchor="middle" x="932.71" y="-68.3" font-family="Helvetica,sans-Serif" font-size="14.00">DistanceComputer(Up, k=0.01)</text>
</a>
</g>
</g>
<!-- VGN01:irc:0(IrcValue) 0..5: [0, 20, 30, 90, 120]&#45;&gt;2: DistanceComputer(Up, k=0.01) -->
<g id="edge4" class="edge">
<title>VGN01:irc:0(IrcValue) 0..5: [0, 20, 30, 90, 120]&#45;&gt;2: DistanceComputer(Up, k=0.01)</title>
<path fill="none" stroke="black" d="M676.99,-72C710.09,-72 745.29,-72 778.63,-72"/>
<polygon fill="black" stroke="black" points="778.91,-75.5 788.91,-72 778.91,-68.5 778.91,-75.5"/>
</g>
<!-- 1: UserCommand&#45;ReleaseKrab -->
<g id="node4" class="node">
<title>1: UserCommand&#45;ReleaseKrab</title>
<g id="a_node4"><a xlink:title="On behalf of user interface command performs the Krab emergency release.&#10;That is, it sets the value of the DO signal to 1. The DO signal should be the one selected by `Segment/Setting/ReleaseKrabSignalID` to stop the measurement after one second after 1 has been observed there.">
<polygon fill="#e6e6e6" stroke="black" points="268.6,-118.54 268.6,-133.46 189.97,-144 78.77,-144 0.13,-133.46 0.13,-118.54 78.77,-108 189.97,-108 268.6,-118.54"/>
<text text-anchor="middle" x="134.37" y="-122.3" font-family="Helvetica,sans-Serif" font-size="14.00">UserCommand&#45;ReleaseKrab</text>
</a>
</g>
</g>
<!-- ReleaseKrab(Bool) 0..2: [false, true] -->
<g id="node5" class="node">
<title>ReleaseKrab(Bool) 0..2: [false, true]</title>
<g id="a_node5"><a xlink:title="ReleaseKrab, Emergency Krab release(0: Idle, 1: Release)">
<ellipse fill="#e6e6e6" stroke="black" stroke-width="2" cx="528.96" cy="-126" rx="150.27" ry="18"/>
<text text-anchor="middle" x="528.96" y="-122.3" font-family="Helvetica,sans-Serif" font-size="14.00">ReleaseKrab(Bool) 0..2: [false, true]</text>
</a>
</g>
</g>
<!-- 1: UserCommand&#45;ReleaseKrab&#45;&gt;ReleaseKrab(Bool) 0..2: [false, true] -->
<g id="edge3" class="edge">
<title>1: UserCommand&#45;ReleaseKrab&#45;&gt;ReleaseKrab(Bool) 0..2: [false, true]</title>
<path fill="none" stroke="black" d="M268.83,-126C300.86,-126 335.39,-126 368.47,-126"/>
<polygon fill="black" stroke="black" points="368.68,-129.5 378.68,-126 368.68,-122.5 368.68,-129.5"/>
</g>
<!-- 3: DigitalOutputChannel -->
<g id="node8" class="node">
<title>3: DigitalOutputChannel</title>
<g id="a_node8"><a xlink:title="Turns a bool signal into a bool (digital output) channel.">
<polygon fill="#e6e6e6" stroke="black" points="1035.63,-118.54 1035.63,-133.46 975.34,-144 890.08,-144 829.79,-133.46 829.79,-118.54 890.08,-108 975.34,-108 1035.63,-118.54"/>
<text text-anchor="middle" x="932.71" y="-122.3" font-family="Helvetica,sans-Serif" font-size="14.00">DigitalOutputChannel</text>
</a>
</g>
</g>
<!-- ReleaseKrab(Bool) 0..2: [false, true]&#45;&gt;3: DigitalOutputChannel -->
<g id="edge6" class="edge">
<title>ReleaseKrab(Bool) 0..2: [false, true]&#45;&gt;3: DigitalOutputChannel</title>
<path fill="none" stroke="black" d="M679.27,-126C725.76,-126 776.2,-126 819.68,-126"/>
<polygon fill="black" stroke="black" points="819.71,-129.5 829.71,-126 819.71,-122.5 819.71,-129.5"/>
</g>
<!-- ln(F64) 0..5: [0, 0.2, 0.3, 0.9, 1.2] -->
<g id="node7" class="node">
<title>ln(F64) 0..5: [0, 0.2, 0.3, 0.9, 1.2]</title>
<g id="a_node7"><a xlink:title="ln, Travelled distance">
<ellipse fill="#e6e6e6" stroke="black" stroke-width="2" cx="1250.66" cy="-72" rx="138.38" ry="18"/>
<text text-anchor="middle" x="1250.66" y="-68.3" font-family="Helvetica,sans-Serif" font-size="14.00">ln(F64) 0..5: [0, 0.2, 0.3, 0.9, 1.2]</text>
</a>
</g>
</g>
<!-- 2: DistanceComputer(Up, k=0.01)&#45;&gt;ln(F64) 0..5: [0, 0.2, 0.3, 0.9, 1.2] -->
<g id="edge5" class="edge">
<title>2: DistanceComputer(Up, k=0.01)&#45;&gt;ln(F64) 0..5: [0, 0.2, 0.3, 0.9, 1.2]</title>
<path fill="none" stroke="black" d="M1076.43,-72C1084.8,-72 1093.23,-72 1101.62,-72"/>
<polygon fill="black" stroke="black" points="1101.83,-75.5 1111.83,-72 1101.83,-68.5 1101.83,-75.5"/>
</g>
<!-- VGN01:do:1(Bool) 0..2: [false, true] -->
<g id="node9" class="node">
<title>VGN01:do:1(Bool) 0..2: [false, true]</title>
<g id="a_node9"><a xlink:title="ReleaseKrab, Emergency Krab release(0: Idle, 1: Release)">
<polygon fill="#e6e6e6" stroke="black" points="1364.66,-144 1136.66,-144 1136.66,-108 1364.66,-108 1364.66,-144"/>
<text text-anchor="middle" x="1250.66" y="-122.3" font-family="Helvetica,sans-Serif" font-size="14.00">VGN01:do:1(Bool) 0..2: [false, true]</text>
</a>
</g>
</g>
<!-- 3: DigitalOutputChannel&#45;&gt;VGN01:do:1(Bool) 0..2: [false, true] -->
<g id="edge7" class="edge">
<title>3: DigitalOutputChannel&#45;&gt;VGN01:do:1(Bool) 0..2: [false, true]</title>
<path fill="none" stroke="black" d="M1035.85,-126C1064.76,-126 1096.54,-126 1126.55,-126"/>
<polygon fill="black" stroke="black" points="1126.65,-129.5 1136.65,-126 1126.65,-122.5 1126.65,-129.5"/>
</g>
</g>
</svg>
