<?xml version="1.0" encoding="UTF-8" standalone="no"?>
<!DOCTYPE svg PUBLIC "-//W3C//DTD SVG 1.1//EN"
 "http://www.w3.org/Graphics/SVG/1.1/DTD/svg11.dtd">
<!-- Generated by graphviz version 2.43.0 (0)
 -->
<!-- Title: %3 Pages: 1 -->
<svg width="2844pt" height="222pt"
 viewBox="0.00 0.00 2843.50 222.00" xmlns="http://www.w3.org/2000/svg" xmlns:xlink="http://www.w3.org/1999/xlink">
<g id="graph0" class="graph" transform="scale(1 1) rotate(0) translate(4 218)">
<title>%3</title>
<polygon fill="white" stroke="transparent" points="-4,4 -4,-218 2839.5,-218 2839.5,4 -4,4"/>
<!-- 0: VGN01 Resampler -->
<g id="node1" class="node">
<title>0: VGN01 Resampler</title>
<g id="a_node1"><a xlink:title="VGN Resampler">
<polygon fill="#e6ffff" stroke="black" points="226.68,-14.54 226.68,-29.46 172.6,-40 96.13,-40 42.06,-29.46 42.06,-14.54 96.13,-4 172.6,-4 226.68,-14.54"/>
<polygon fill="none" stroke="black" points="230.68,-11.25 230.68,-32.75 172.99,-44 95.74,-44 38.05,-32.75 38.05,-11.25 95.74,0 172.99,0 230.68,-11.25"/>
<text text-anchor="middle" x="134.37" y="-18.3" font-family="Helvetica,sans-Serif" font-size="14.00">VGN01 Resampler</text>
</a>
</g>
</g>
<!-- VGN01:irc:0@GPK(IrcValue) 0..4: [10, 30, 30, 90] -->
<g id="node2" class="node">
<title>VGN01:irc:0@GPK(IrcValue) 0..4: [10, 30, 30, 90]</title>
<g id="a_node2"><a xlink:title="ln, Travelled distance">
<polygon fill="#e6ffff" stroke="black" points="687.46,-40 370.46,-40 370.46,-4 687.46,-4 687.46,-40"/>
<text text-anchor="middle" x="528.96" y="-18.3" font-family="Helvetica,sans-Serif" font-size="14.00">VGN01:irc:0@GPK(IrcValue) 0..4: [10, 30, 30, 90]</text>
</a>
</g>
</g>
<!-- 0: VGN01 Resampler&#45;&gt;VGN01:irc:0@GPK(IrcValue) 0..4: [10, 30, 30, 90] -->
<g id="edge1" class="edge">
<title>0: VGN01 Resampler&#45;&gt;VGN01:irc:0@GPK(IrcValue) 0..4: [10, 30, 30, 90]</title>
<path fill="none" stroke="black" d="M230.65,-22C269.69,-22 316.05,-22 360.41,-22"/>
<polygon fill="black" stroke="black" points="360.43,-25.5 370.43,-22 360.43,-18.5 360.43,-25.5"/>
</g>
<!-- 1: DistanceComputer(Up, k=0.01) -->
<g id="node3" class="node">
<title>1: DistanceComputer(Up, k=0.01)</title>
<g id="a_node3"><a xlink:title="Computes travelled distance signal from a 64&#45;bit IRC channel via KQ calibration while respecting Orientation. This processor is implicitly created by the channel definition.">
<polygon fill="#e6ffff" stroke="black" points="1076.23,-14.54 1076.23,-29.46 992.16,-40 873.26,-40 789.18,-29.46 789.18,-14.54 873.26,-4 992.16,-4 1076.23,-14.54"/>
<text text-anchor="middle" x="932.71" y="-18.3" font-family="Helvetica,sans-Serif" font-size="14.00">DistanceComputer(Up, k=0.01)</text>
</a>
</g>
</g>
<!-- VGN01:irc:0@GPK(IrcValue) 0..4: [10, 30, 30, 90]&#45;&gt;1: DistanceComputer(Up, k=0.01) -->
<g id="edge2" class="edge">
<title>VGN01:irc:0@GPK(IrcValue) 0..4: [10, 30, 30, 90]&#45;&gt;1: DistanceComputer(Up, k=0.01)</title>
<path fill="none" stroke="black" d="M687.59,-22C717.61,-22 748.98,-22 778.85,-22"/>
<polygon fill="black" stroke="black" points="778.92,-25.5 788.92,-22 778.92,-18.5 778.92,-25.5"/>
</g>
<!-- ln@GPK(F64) 0..4: [0.1, 0.3, 0.3, 0.9] -->
<g id="node4" class="node">
<title>ln@GPK(F64) 0..4: [0.1, 0.3, 0.3, 0.9]</title>
<g id="a_node4"><a xlink:title="ln, Travelled distance">
<ellipse fill="#e6ffff" stroke="black" stroke-width="2" cx="1279.9" cy="-22" rx="157.07" ry="18"/>
<text text-anchor="middle" x="1279.9" y="-18.3" font-family="Helvetica,sans-Serif" font-size="14.00">ln@GPK(F64) 0..4: [0.1, 0.3, 0.3, 0.9]</text>
</a>
</g>
</g>
<!-- 1: DistanceComputer(Up, k=0.01)&#45;&gt;ln@GPK(F64) 0..4: [0.1, 0.3, 0.3, 0.9] -->
<g id="edge3" class="edge">
<title>1: DistanceComputer(Up, k=0.01)&#45;&gt;ln@GPK(F64) 0..4: [0.1, 0.3, 0.3, 0.9]</title>
<path fill="none" stroke="black" d="M1076.6,-22C1088.41,-22 1100.41,-22 1112.38,-22"/>
<polygon fill="black" stroke="black" points="1112.41,-25.5 1122.41,-22 1112.41,-18.5 1112.41,-25.5"/>
</g>
<!-- 3: UserCommand&#45;ReleaseKrab -->
<g id="node8" class="node">
<title>3: UserCommand&#45;ReleaseKrab</title>
<g id="a_node8"><a xlink:title="On behalf of user interface command performs the Krab emergency release.&#10;That is, it sets the value of the DO signal to 1. The DO signal should be the one selected by `Segment/Setting/ReleaseKrabSignalID` to stop the measurement after one second after 1 has been observed there.">
<polygon fill="#e6ffff" stroke="black" points="1752.19,-14.54 1752.19,-29.46 1673.56,-40 1562.35,-40 1483.72,-29.46 1483.72,-14.54 1562.35,-4 1673.56,-4 1752.19,-14.54"/>
<text text-anchor="middle" x="1617.96" y="-18.3" font-family="Helvetica,sans-Serif" font-size="14.00">UserCommand&#45;ReleaseKrab</text>
</a>
</g>
</g>
<!-- ln@GPK(F64) 0..4: [0.1, 0.3, 0.3, 0.9]&#45;&gt;3: UserCommand&#45;ReleaseKrab -->
<g id="edge6" class="edge">
<title>ln@GPK(F64) 0..4: [0.1, 0.3, 0.3, 0.9]&#45;&gt;3: UserCommand&#45;ReleaseKrab</title>
<path fill="none" stroke="black" d="M1437.62,-22C1449.53,-22 1461.51,-22 1473.34,-22"/>
<polygon fill="black" stroke="black" points="1473.68,-25.5 1483.68,-22 1473.68,-18.5 1473.68,-25.5"/>
</g>
<!-- 2: VGN01 Time Source -->
<g id="node5" class="node">
<title>2: VGN01 Time Source</title>
<g id="a_node5"><a xlink:title="VGN Time Source">
<polygon fill="#f0f0f0" stroke="black" points="235.06,-109.54 235.06,-124.46 176.08,-135 92.66,-135 33.67,-124.46 33.67,-109.54 92.66,-99 176.08,-99 235.06,-109.54"/>
<polygon fill="none" stroke="black" points="239.07,-106.2 239.07,-127.8 176.43,-139 92.3,-139 29.67,-127.8 29.67,-106.2 92.3,-95 176.43,-95 239.07,-106.2"/>
<text text-anchor="middle" x="134.37" y="-113.3" font-family="Helvetica,sans-Serif" font-size="14.00">VGN01 Time Source</text>
</a>
</g>
</g>
<!-- VGN01:irc:0@Time(IrcValue) 0..5: [0, 20, 30, 90, 120] -->
<g id="node6" class="node">
<title>VGN01:irc:0@Time(IrcValue) 0..5: [0, 20, 30, 90, 120]</title>
<g id="a_node6"><a xlink:title="ln, Travelled distance">
<polygon fill="#e6e6e6" stroke="black" points="699.46,-148 358.46,-148 358.46,-112 699.46,-112 699.46,-148"/>
<text text-anchor="middle" x="528.96" y="-126.3" font-family="Helvetica,sans-Serif" font-size="14.00">VGN01:irc:0@Time(IrcValue) 0..5: [0, 20, 30, 90, 120]</text>
</a>
</g>
</g>
<!-- 2: VGN01 Time Source&#45;&gt;VGN01:irc:0@Time(IrcValue) 0..5: [0, 20, 30, 90, 120] -->
<g id="edge4" class="edge">
<title>2: VGN01 Time Source&#45;&gt;VGN01:irc:0@Time(IrcValue) 0..5: [0, 20, 30, 90, 120]</title>
<path fill="none" stroke="black" d="M239.03,-120.43C272.61,-121.54 310.87,-122.81 348.32,-124.05"/>
<polygon fill="black" stroke="black" points="348.23,-127.55 358.34,-124.38 348.46,-120.55 348.23,-127.55"/>
</g>
<!-- VGN01@TimeDistance(F64) 0..5: [0, 0.2, 0.3, 0.9, 1.2] -->
<g id="node7" class="node">
<title>VGN01@TimeDistance(F64) 0..5: [0, 0.2, 0.3, 0.9, 1.2]</title>
<ellipse fill="#fafafa" stroke="black" stroke-width="2" cx="528.96" cy="-76" rx="224.46" ry="18"/>
<text text-anchor="middle" x="528.96" y="-72.3" font-family="Helvetica,sans-Serif" font-size="14.00">VGN01@TimeDistance(F64) 0..5: [0, 0.2, 0.3, 0.9, 1.2]</text>
</g>
<!-- 2: VGN01 Time Source&#45;&gt;VGN01@TimeDistance(F64) 0..5: [0, 0.2, 0.3, 0.9, 1.2] -->
<g id="edge5" class="edge">
<title>2: VGN01 Time Source&#45;&gt;VGN01@TimeDistance(F64) 0..5: [0, 0.2, 0.3, 0.9, 1.2]</title>
<path fill="none" stroke="black" d="M239.03,-106.17C282.62,-101.62 334.11,-96.25 381.46,-91.3"/>
<polygon fill="black" stroke="black" points="381.91,-94.77 391.49,-90.25 381.19,-87.81 381.91,-94.77"/>
</g>
<!-- 5: DistanceComputer(Up, k=0.01) -->
<g id="node12" class="node">
<title>5: DistanceComputer(Up, k=0.01)</title>
<g id="a_node12"><a xlink:title="Computes travelled distance signal from a 64&#45;bit IRC channel via KQ calibration while respecting Orientation. This processor is implicitly created by the channel definition.">
<polygon fill="#e6e6e6" stroke="black" points="1076.23,-122.54 1076.23,-137.46 992.16,-148 873.26,-148 789.18,-137.46 789.18,-122.54 873.26,-112 992.16,-112 1076.23,-122.54"/>
<text text-anchor="middle" x="932.71" y="-126.3" font-family="Helvetica,sans-Serif" font-size="14.00">DistanceComputer(Up, k=0.01)</text>
</a>
</g>
</g>
<!-- VGN01:irc:0@Time(IrcValue) 0..5: [0, 20, 30, 90, 120]&#45;&gt;5: DistanceComputer(Up, k=0.01) -->
<g id="edge9" class="edge">
<title>VGN01:irc:0@Time(IrcValue) 0..5: [0, 20, 30, 90, 120]&#45;&gt;5: DistanceComputer(Up, k=0.01)</title>
<path fill="none" stroke="black" d="M699.47,-130C725.76,-130 752.79,-130 778.7,-130"/>
<polygon fill="black" stroke="black" points="778.95,-133.5 788.95,-130 778.95,-126.5 778.95,-133.5"/>
</g>
<!-- ReleaseKrab@GPK(Bool) 0..4: [false, true, true, true] -->
<g id="node9" class="node">
<title>ReleaseKrab@GPK(Bool) 0..4: [false, true, true, true]</title>
<g id="a_node9"><a xlink:title="ReleaseKrab, Emergency Krab release(0: Idle, 1: Release)">
<ellipse fill="#e6ffff" stroke="black" stroke-width="2" cx="2006.7" cy="-22" rx="218.26" ry="18"/>
<text text-anchor="middle" x="2006.7" y="-18.3" font-family="Helvetica,sans-Serif" font-size="14.00">ReleaseKrab@GPK(Bool) 0..4: [false, true, true, true]</text>
</a>
</g>
</g>
<!-- 3: UserCommand&#45;ReleaseKrab&#45;&gt;ReleaseKrab@GPK(Bool) 0..4: [false, true, true, true] -->
<g id="edge7" class="edge">
<title>3: UserCommand&#45;ReleaseKrab&#45;&gt;ReleaseKrab@GPK(Bool) 0..4: [false, true, true, true]</title>
<path fill="none" stroke="black" d="M1752.32,-22C1760.72,-22 1769.29,-22 1777.95,-22"/>
<polygon fill="black" stroke="black" points="1778.16,-25.5 1788.16,-22 1778.16,-18.5 1778.16,-25.5"/>
</g>
<!-- 6: DigitalOutputChannel -->
<g id="node14" class="node">
<title>6: DigitalOutputChannel</title>
<g id="a_node14"><a xlink:title="Turns a bool signal into a bool (digital output) channel.">
<polygon fill="#e6ffff" stroke="black" points="2466.72,-14.54 2466.72,-29.46 2406.43,-40 2321.16,-40 2260.87,-29.46 2260.87,-14.54 2321.16,-4 2406.43,-4 2466.72,-14.54"/>
<text text-anchor="middle" x="2363.79" y="-18.3" font-family="Helvetica,sans-Serif" font-size="14.00">DigitalOutputChannel</text>
</a>
</g>
</g>
<!-- ReleaseKrab@GPK(Bool) 0..4: [false, true, true, true]&#45;&gt;6: DigitalOutputChannel -->
<g id="edge11" class="edge">
<title>ReleaseKrab@GPK(Bool) 0..4: [false, true, true, true]&#45;&gt;6: DigitalOutputChannel</title>
<path fill="none" stroke="black" d="M2225.25,-22C2233.94,-22 2242.49,-22 2250.82,-22"/>
<polygon fill="black" stroke="black" points="2250.87,-25.5 2260.87,-22 2250.87,-18.5 2250.87,-25.5"/>
</g>
<!-- 4: UserCommand&#45;ReleaseKrab -->
<g id="node10" class="node">
<title>4: UserCommand&#45;ReleaseKrab</title>
<g id="a_node10"><a xlink:title="On behalf of user interface command performs the Krab emergency release.&#10;That is, it sets the value of the DO signal to 1. The DO signal should be the one selected by `Segment/Setting/ReleaseKrabSignalID` to stop the measurement after one second after 1 has been observed there.">
<polygon fill="#e6e6e6" stroke="black" points="268.6,-188.54 268.6,-203.46 189.97,-214 78.77,-214 0.13,-203.46 0.13,-188.54 78.77,-178 189.97,-178 268.6,-188.54"/>
<text text-anchor="middle" x="134.37" y="-192.3" font-family="Helvetica,sans-Serif" font-size="14.00">UserCommand&#45;ReleaseKrab</text>
</a>
</g>
</g>
<!-- ReleaseKrab@Time(Bool) 0..2: [false, true] -->
<g id="node11" class="node">
<title>ReleaseKrab@Time(Bool) 0..2: [false, true]</title>
<g id="a_node11"><a xlink:title="ReleaseKrab, Emergency Krab release(0: Idle, 1: Release)">
<ellipse fill="#e6e6e6" stroke="black" stroke-width="2" cx="528.96" cy="-196" rx="179.27" ry="18"/>
<text text-anchor="middle" x="528.96" y="-192.3" font-family="Helvetica,sans-Serif" font-size="14.00">ReleaseKrab@Time(Bool) 0..2: [false, true]</text>
</a>
</g>
</g>
<!-- 4: UserCommand&#45;ReleaseKrab&#45;&gt;ReleaseKrab@Time(Bool) 0..2: [false, true] -->
<g id="edge8" class="edge">
<title>4: UserCommand&#45;ReleaseKrab&#45;&gt;ReleaseKrab@Time(Bool) 0..2: [false, true]</title>
<path fill="none" stroke="black" d="M268.83,-196C291.49,-196 315.4,-196 339.16,-196"/>
<polygon fill="black" stroke="black" points="339.33,-199.5 349.33,-196 339.33,-192.5 339.33,-199.5"/>
</g>
<!-- 7: DigitalOutputChannel -->
<g id="node16" class="node">
<title>7: DigitalOutputChannel</title>
<g id="a_node16"><a xlink:title="Turns a bool signal into a bool (digital output) channel.">
<polygon fill="#e6e6e6" stroke="black" points="1035.63,-188.54 1035.63,-203.46 975.34,-214 890.08,-214 829.79,-203.46 829.79,-188.54 890.08,-178 975.34,-178 1035.63,-188.54"/>
<text text-anchor="middle" x="932.71" y="-192.3" font-family="Helvetica,sans-Serif" font-size="14.00">DigitalOutputChannel</text>
</a>
</g>
</g>
<!-- ReleaseKrab@Time(Bool) 0..2: [false, true]&#45;&gt;7: DigitalOutputChannel -->
<g id="edge13" class="edge">
<title>ReleaseKrab@Time(Bool) 0..2: [false, true]&#45;&gt;7: DigitalOutputChannel</title>
<path fill="none" stroke="black" d="M708.51,-196C746.37,-196 785.31,-196 819.84,-196"/>
<polygon fill="black" stroke="black" points="819.93,-199.5 829.93,-196 819.93,-192.5 819.93,-199.5"/>
</g>
<!-- ln@Time(F64) 0..5: [0, 0.2, 0.3, 0.9, 1.2] -->
<g id="node13" class="node">
<title>ln@Time(F64) 0..5: [0, 0.2, 0.3, 0.9, 1.2]</title>
<g id="a_node13"><a xlink:title="ln, Travelled distance">
<ellipse fill="#e6e6e6" stroke="black" stroke-width="2" cx="1279.9" cy="-130" rx="167.87" ry="18"/>
<text text-anchor="middle" x="1279.9" y="-126.3" font-family="Helvetica,sans-Serif" font-size="14.00">ln@Time(F64) 0..5: [0, 0.2, 0.3, 0.9, 1.2]</text>
</a>
</g>
</g>
<!-- 5: DistanceComputer(Up, k=0.01)&#45;&gt;ln@Time(F64) 0..5: [0, 0.2, 0.3, 0.9, 1.2] -->
<g id="edge10" class="edge">
<title>5: DistanceComputer(Up, k=0.01)&#45;&gt;ln@Time(F64) 0..5: [0, 0.2, 0.3, 0.9, 1.2]</title>
<path fill="none" stroke="black" d="M1076.6,-130C1084.91,-130 1093.31,-130 1101.73,-130"/>
<polygon fill="black" stroke="black" points="1102,-133.5 1112,-130 1102,-126.5 1102,-133.5"/>
</g>
<!-- VGN01:do:1@GPK(Bool) 0..4: [false, true, true, true] -->
<g id="node15" class="node">
<title>VGN01:do:1@GPK(Bool) 0..4: [false, true, true, true]</title>
<g id="a_node15"><a xlink:title="ReleaseKrab, Emergency Krab release(0: Idle, 1: Release)">
<polygon fill="#e6ffff" stroke="black" points="2835.5,-40 2502.5,-40 2502.5,-4 2835.5,-4 2835.5,-40"/>
<text text-anchor="middle" x="2669" y="-18.3" font-family="Helvetica,sans-Serif" font-size="14.00">VGN01:do:1@GPK(Bool) 0..4: [false, true, true, true]</text>
</a>
</g>
</g>
<!-- 6: DigitalOutputChannel&#45;&gt;VGN01:do:1@GPK(Bool) 0..4: [false, true, true, true] -->
<g id="edge12" class="edge">
<title>6: DigitalOutputChannel&#45;&gt;VGN01:do:1@GPK(Bool) 0..4: [false, true, true, true]</title>
<path fill="none" stroke="black" d="M2466.6,-22C2474.95,-22 2483.52,-22 2492.2,-22"/>
<polygon fill="black" stroke="black" points="2492.44,-25.5 2502.44,-22 2492.44,-18.5 2492.44,-25.5"/>
</g>
<!-- VGN01:do:1@Time(Bool) 0..2: [false, true] -->
<g id="node17" class="node">
<title>VGN01:do:1@Time(Bool) 0..2: [false, true]</title>
<g id="a_node17"><a xlink:title="ReleaseKrab, Emergency Krab release(0: Idle, 1: Release)">
<polygon fill="#e6e6e6" stroke="black" points="1416.4,-214 1143.4,-214 1143.4,-178 1416.4,-178 1416.4,-214"/>
<text text-anchor="middle" x="1279.9" y="-192.3" font-family="Helvetica,sans-Serif" font-size="14.00">VGN01:do:1@Time(Bool) 0..2: [false, true]</text>
</a>
</g>
</g>
<!-- 7: DigitalOutputChannel&#45;&gt;VGN01:do:1@Time(Bool) 0..2: [false, true] -->
<g id="edge14" class="edge">
<title>7: DigitalOutputChannel&#45;&gt;VGN01:do:1@Time(Bool) 0..2: [false, true]</title>
<path fill="none" stroke="black" d="M1035.88,-196C1066.42,-196 1100.51,-196 1133.27,-196"/>
<polygon fill="black" stroke="black" points="1133.39,-199.5 1143.39,-196 1133.39,-192.5 1133.39,-199.5"/>
</g>
</g>
</svg>
