digraph {
  rankdir=LR;  node [shape=box];  graph [fontname = "helvetica"]  node [fontname = "helvetica"]  edge [fontname = "helvetica"]    "0: VGN01 Time Source" [shape=doubleoctagon, style="filled,solid",fillcolor="#F0F0F0", label="VGN01 Time Source", tooltip="VGN Time Source"];
    "VGN01:irc:0@Time(IrcValue) " [tooltip="ln, Travelled distance", shape=rectangle, style="filled,solid", fillcolor="#E6E6E6"];
    "VGN01@TimeDistance(F64) " [tooltip="", shape=oval, style="filled,solid,bold", fillcolor="#FAFAFA"];
    "1: DistanceComputer" [shape=octagon, style="filled,solid",fillcolor="#E6E6E6", label="DistanceComputer", tooltip="Computes travelled distance signal from a 64-bit IRC channel via KQ calibration while respecting Orientation. This processor is implicitly created by the channel definition."];
    "VGN01:irc:0@Time(IrcValue) " [tooltip="ln, Travelled distance", shape=rectangle, style="filled,solid", fillcolor="#E6E6E6"];
    "ln@Time(F64) " [tooltip="ln, Travelled distance", shape=oval, style="filled,solid,bold", fillcolor="#E6E6E6"];
    "2: VGN01 Resampler" [shape=doubleoctagon, style="filled,solid",fillcolor="#E6FFFF", label="VGN01 Resampler", tooltip="VGN Resampler"];
    "VGN01:irc:0@GPK(IrcValue) " [tooltip="ln, Travelled distance", shape=rectangle, style="filled,solid", fillcolor="#E6FFFF"];
    "3: GPS01 Resampler " [shape=doubleoctagon, style="filled,solid",fillcolor="#F2E6F2", label="GPS01 Resampler ", tooltip="Gps Resampler"];
    "ln@Time(F64) " [tooltip="ln, Travelled distance", shape=oval, style="filled,solid,bold", fillcolor="#E6E6E6"];
    "GPS01:Latitude:0@GPS(GpsChannel) " [tooltip="Latitude, GPS Latitude", shape=rectangle, style="filled,solid", fillcolor="#FFE6FF"];
    "GPS01:Longitude:0@GPS(GpsChannel) " [tooltip="Longitude, GPS Longitude", shape=rectangle, style="filled,solid", fillcolor="#FFE6FF"];
    "GPS01:Altitude:0@GPS(GpsChannel) " [tooltip="Altitude, GPS Altitude", shape=rectangle, style="filled,solid", fillcolor="#FFE6FF"];
    "GPS01:FixQuality:0@GPS(U8) " [tooltip="FixQuality, Fix Quality (0 = No fix, > 0 = valid data)", shape=rectangle, style="filled,solid", fillcolor="#FFE6FF"];
    "4: GPS01 Time Source" [shape=doubleoctagon, style="filled,solid",fillcolor="#F0F0F0", label="GPS01 Time Source", tooltip="Gps Time Source"];
    "ln@Time(F64) " [tooltip="ln, Travelled distance", shape=oval, style="filled,solid,bold", fillcolor="#E6E6E6"];
    "GPS01:Latitude:0@Time(GpsChannel) " [tooltip="Latitude, GPS Latitude", shape=rectangle, style="filled,solid", fillcolor="#E6E6E6"];
    "GPS01:Longitude:0@Time(GpsChannel) " [tooltip="Longitude, GPS Longitude", shape=rectangle, style="filled,solid", fillcolor="#E6E6E6"];
    "GPS01:Altitude:0@Time(GpsChannel) " [tooltip="Altitude, GPS Altitude", shape=rectangle, style="filled,solid", fillcolor="#E6E6E6"];
    "GPS01:FixQuality:0@Time(U8) " [tooltip="FixQuality, Fix Quality (0 = No fix, > 0 = valid data)", shape=rectangle, style="filled,solid", fillcolor="#E6E6E6"];
    "GPS01@TimeDistance(F64) " [tooltip="", shape=oval, style="filled,solid,bold", fillcolor="#FAFAFA"];
    "5: DistanceComputer" [shape=octagon, style="filled,solid",fillcolor="#E6FFFF", label="DistanceComputer", tooltip="Computes travelled distance signal from a 64-bit IRC channel via KQ calibration while respecting Orientation. This processor is implicitly created by the channel definition."];
    "VGN01:irc:0@GPK(IrcValue) " [tooltip="ln, Travelled distance", shape=rectangle, style="filled,solid", fillcolor="#E6FFFF"];
    "ln@GPK(F64) " [tooltip="ln, Travelled distance", shape=oval, style="filled,solid,bold", fillcolor="#E6FFFF"];
    "6: Gps-Coordinates" [shape=octagon, style="filled,solid",fillcolor="#FFE6FF", label="Gps-Coordinates", tooltip="Converts an int32 GPS channel Latitude/Longitude value to signal value in radians. Examples: 123300000 -> 123.5 * PI / 180, -123300000 -> -123.5 * PI / 180"];
    "GPS01:Latitude:0@GPS(GpsChannel) " [tooltip="Latitude, GPS Latitude", shape=rectangle, style="filled,solid", fillcolor="#FFE6FF"];
    "Latitude@GPS(F64) " [tooltip="Latitude, GPS Latitude", shape=oval, style="filled,solid,bold", fillcolor="#FFE6FF"];
    "7: Gps-Coordinates" [shape=octagon, style="filled,solid",fillcolor="#E6E6E6", label="Gps-Coordinates", tooltip="Converts an int32 GPS channel Latitude/Longitude value to signal value in radians. Examples: 123300000 -> 123.5 * PI / 180, -123300000 -> -123.5 * PI / 180"];
    "GPS01:Latitude:0@Time(GpsChannel) " [tooltip="Latitude, GPS Latitude", shape=rectangle, style="filled,solid", fillcolor="#E6E6E6"];
    "Latitude@Time(F64) " [tooltip="Latitude, GPS Latitude", shape=oval, style="filled,solid,bold", fillcolor="#E6E6E6"];
    "8: Gps-Coordinates" [shape=octagon, style="filled,solid",fillcolor="#FFE6FF", label="Gps-Coordinates", tooltip="Converts an int32 GPS channel Latitude/Longitude value to signal value in radians. Examples: 123300000 -> 123.5 * PI / 180, -123300000 -> -123.5 * PI / 180"];
    "GPS01:Longitude:0@GPS(GpsChannel) " [tooltip="Longitude, GPS Longitude", shape=rectangle, style="filled,solid", fillcolor="#FFE6FF"];
    "Longitude@GPS(F64) " [tooltip="Longitude, GPS Longitude", shape=oval, style="filled,solid,bold", fillcolor="#FFE6FF"];
    "9: Gps-Coordinates" [shape=octagon, style="filled,solid",fillcolor="#E6E6E6", label="Gps-Coordinates", tooltip="Converts an int32 GPS channel Latitude/Longitude value to signal value in radians. Examples: 123300000 -> 123.5 * PI / 180, -123300000 -> -123.5 * PI / 180"];
    "GPS01:Longitude:0@Time(GpsChannel) " [tooltip="Longitude, GPS Longitude", shape=rectangle, style="filled,solid", fillcolor="#E6E6E6"];
    "Longitude@Time(F64) " [tooltip="Longitude, GPS Longitude", shape=oval, style="filled,solid,bold", fillcolor="#E6E6E6"];
    "10: Gps-Altitude" [shape=octagon, style="filled,solid",fillcolor="#FFE6FF", label="Gps-Altitude", tooltip="Converts an int32 GPS altitude in 0.1 mm into float altitude in meters by dividing it by 10 000"];
    "GPS01:Altitude:0@GPS(GpsChannel) " [tooltip="Altitude, GPS Altitude", shape=rectangle, style="filled,solid", fillcolor="#FFE6FF"];
    "Altitude@GPS(F64) " [tooltip="Altitude, GPS Altitude", shape=oval, style="filled,solid,bold", fillcolor="#FFE6FF"];
    "11: Gps-Altitude" [shape=octagon, style="filled,solid",fillcolor="#E6E6E6", label="Gps-Altitude", tooltip="Converts an int32 GPS altitude in 0.1 mm into float altitude in meters by dividing it by 10 000"];
    "GPS01:Altitude:0@Time(GpsChannel) " [tooltip="Altitude, GPS Altitude", shape=rectangle, style="filled,solid", fillcolor="#E6E6E6"];
    "Altitude@Time(F64) " [tooltip="Altitude, GPS Altitude", shape=oval, style="filled,solid,bold", fillcolor="#E6E6E6"];
    "12: Gps-FixQuality" [shape=octagon, style="filled,solid",fillcolor="#FFE6FF", label="Gps-FixQuality", tooltip="Converts a Gps FixQuality channel to signal by simply copying it's value.0: No Fix, 1: GPS, 2: AutonomousGNSS, 3: DifferentialGNSS, 4: RTKFixed, 5: RTKFloat, 6: EstimatedOrDeadReckoning"];
    "GPS01:FixQuality:0@GPS(U8) " [tooltip="FixQuality, Fix Quality (0 = No fix, > 0 = valid data)", shape=rectangle, style="filled,solid", fillcolor="#FFE6FF"];
    "FixQuality@GPS(U8) " [tooltip="FixQuality, Fix Quality (0 = No fix, > 0 = valid data)", shape=oval, style="filled,solid,bold", fillcolor="#FFE6FF"];
    "13: Gps-FixQuality" [shape=octagon, style="filled,solid",fillcolor="#E6E6E6", label="Gps-FixQuality", tooltip="Converts a Gps FixQuality channel to signal by simply copying it's value.0: No Fix, 1: GPS, 2: AutonomousGNSS, 3: DifferentialGNSS, 4: RTKFixed, 5: RTKFloat, 6: EstimatedOrDeadReckoning"];
    "GPS01:FixQuality:0@Time(U8) " [tooltip="FixQuality, Fix Quality (0 = No fix, > 0 = valid data)", shape=rectangle, style="filled,solid", fillcolor="#E6E6E6"];
    "FixQuality@Time(U8) " [tooltip="FixQuality, Fix Quality (0 = No fix, > 0 = valid data)", shape=oval, style="filled,solid,bold", fillcolor="#E6E6E6"];
  "0: VGN01 Time Source" -> "VGN01:irc:0@Time(IrcValue) "
  "0: VGN01 Time Source" -> "VGN01@TimeDistance(F64) "
  "VGN01:irc:0@Time(IrcValue) " -> "1: DistanceComputer"
  "1: DistanceComputer" -> "ln@Time(F64) "
  "2: VGN01 Resampler" -> "VGN01:irc:0@GPK(IrcValue) "
  "ln@Time(F64) " -> "3: GPS01 Resampler "
  "3: GPS01 Resampler " -> "GPS01:Latitude:0@GPS(GpsChannel) "
  "3: GPS01 Resampler " -> "GPS01:Longitude:0@GPS(GpsChannel) "
  "3: GPS01 Resampler " -> "GPS01:Altitude:0@GPS(GpsChannel) "
  "3: GPS01 Resampler " -> "GPS01:FixQuality:0@GPS(U8) "
  "ln@Time(F64) " -> "4: GPS01 Time Source"
  "4: GPS01 Time Source" -> "GPS01:Latitude:0@Time(GpsChannel) "
  "4: GPS01 Time Source" -> "GPS01:Longitude:0@Time(GpsChannel) "
  "4: GPS01 Time Source" -> "GPS01:Altitude:0@Time(GpsChannel) "
  "4: GPS01 Time Source" -> "GPS01:FixQuality:0@Time(U8) "
  "4: GPS01 Time Source" -> "GPS01@TimeDistance(F64) "
  "VGN01:irc:0@GPK(IrcValue) " -> "5: DistanceComputer"
  "5: DistanceComputer" -> "ln@GPK(F64) "
  "GPS01:Latitude:0@GPS(GpsChannel) " -> "6: Gps-Coordinates"
  "6: Gps-Coordinates" -> "Latitude@GPS(F64) "
  "GPS01:Latitude:0@Time(GpsChannel) " -> "7: Gps-Coordinates"
  "7: Gps-Coordinates" -> "Latitude@Time(F64) "
  "GPS01:Longitude:0@GPS(GpsChannel) " -> "8: Gps-Coordinates"
  "8: Gps-Coordinates" -> "Longitude@GPS(F64) "
  "GPS01:Longitude:0@Time(GpsChannel) " -> "9: Gps-Coordinates"
  "9: Gps-Coordinates" -> "Longitude@Time(F64) "
  "GPS01:Altitude:0@GPS(GpsChannel) " -> "10: Gps-Altitude"
  "10: Gps-Altitude" -> "Altitude@GPS(F64) "
  "GPS01:Altitude:0@Time(GpsChannel) " -> "11: Gps-Altitude"
  "11: Gps-Altitude" -> "Altitude@Time(F64) "
  "GPS01:FixQuality:0@GPS(U8) " -> "12: Gps-FixQuality"
  "12: Gps-FixQuality" -> "FixQuality@GPS(U8) "
  "GPS01:FixQuality:0@Time(U8) " -> "13: Gps-FixQuality"
  "13: Gps-FixQuality" -> "FixQuality@Time(U8) "
}