digraph {
  rankdir=LR;  node [shape=box];  graph [fontname = "helvetica"]  node [fontname = "helvetica"]  edge [fontname = "helvetica"]    "0: GPS01 Resampler " [shape=doubleoctagon, style="filled,solid",fillcolor="#F2E6F2", label="GPS01 Resampler ", tooltip="Gps Resampler"];
    "ln@Time(F64) " [tooltip="ln, Travelled distance", shape=oval, style="filled,solid,bold", fillcolor="#E6E6E6"];
    "GPS01:Latitude:0(GpsChannel) " [tooltip="Latitude, GPS Latitude", shape=rectangle, style="filled,solid", fillcolor="#FFE6FF"];
    "GPS01:Longitude:0(GpsChannel) " [tooltip="Longitude, GPS Longitude", shape=rectangle, style="filled,solid", fillcolor="#FFE6FF"];
    "GPS01:Altitude:0(GpsChannel) " [tooltip="Altitude, GPS Altitude", shape=rectangle, style="filled,solid", fillcolor="#FFE6FF"];
    "GPS01:FixQuality:0(U8) " [tooltip="FixQuality, Fix Quality (0 = No fix, > 0 = valid data)", shape=rectangle, style="filled,solid", fillcolor="#FFE6FF"];
    "1: Gps-Coordinates" [shape=octagon, style="filled,solid",fillcolor="#FFE6FF", label="Gps-Coordinates", tooltip="Converts an int32 GPS channel Latitude/Longitude value to signal value in radians. Examples: 123300000 -> 123.5 * PI / 180, -123300000 -> -123.5 * PI / 180"];
    "GPS01:Latitude:0(GpsChannel) " [tooltip="Latitude, GPS Latitude", shape=rectangle, style="filled,solid", fillcolor="#FFE6FF"];
    "Latitude(F64) " [tooltip="Latitude, GPS Latitude", shape=oval, style="filled,solid,bold", fillcolor="#FFE6FF"];
    "2: Gps-Coordinates" [shape=octagon, style="filled,solid",fillcolor="#FFE6FF", label="Gps-Coordinates", tooltip="Converts an int32 GPS channel Latitude/Longitude value to signal value in radians. Examples: 123300000 -> 123.5 * PI / 180, -123300000 -> -123.5 * PI / 180"];
    "GPS01:Longitude:0(GpsChannel) " [tooltip="Longitude, GPS Longitude", shape=rectangle, style="filled,solid", fillcolor="#FFE6FF"];
    "Longitude(F64) " [tooltip="Longitude, GPS Longitude", shape=oval, style="filled,solid,bold", fillcolor="#FFE6FF"];
    "3: Gps-Altitude" [shape=octagon, style="filled,solid",fillcolor="#FFE6FF", label="Gps-Altitude", tooltip="Converts an int32 GPS altitude in 0.1 mm into float altitude in meters by dividing it by 10 000"];
    "GPS01:Altitude:0(GpsChannel) " [tooltip="Altitude, GPS Altitude", shape=rectangle, style="filled,solid", fillcolor="#FFE6FF"];
    "Altitude(F64) " [tooltip="Altitude, GPS Altitude", shape=oval, style="filled,solid,bold", fillcolor="#FFE6FF"];
    "4: Gps-FixQuality" [shape=octagon, style="filled,solid",fillcolor="#FFE6FF", label="Gps-FixQuality", tooltip="Converts a Gps FixQuality channel to signal by simply copying it's value.0: No Fix, 1: GPS, 2: AutonomousGNSS, 3: DifferentialGNSS, 4: RTKFixed, 5: RTKFloat, 6: EstimatedOrDeadReckoning"];
    "GPS01:FixQuality:0(U8) " [tooltip="FixQuality, Fix Quality (0 = No fix, > 0 = valid data)", shape=rectangle, style="filled,solid", fillcolor="#FFE6FF"];
    "FixQuality(U8) " [tooltip="FixQuality, Fix Quality (0 = No fix, > 0 = valid data)", shape=oval, style="filled,solid,bold", fillcolor="#FFE6FF"];
  "ln@Time(F64) " -> "0: GPS01 Resampler "
  "0: GPS01 Resampler " -> "GPS01:Latitude:0(GpsChannel) "
  "0: GPS01 Resampler " -> "GPS01:Longitude:0(GpsChannel) "
  "0: GPS01 Resampler " -> "GPS01:Altitude:0(GpsChannel) "
  "0: GPS01 Resampler " -> "GPS01:FixQuality:0(U8) "
  "GPS01:Latitude:0(GpsChannel) " -> "1: Gps-Coordinates"
  "1: Gps-Coordinates" -> "Latitude(F64) "
  "GPS01:Longitude:0(GpsChannel) " -> "2: Gps-Coordinates"
  "2: Gps-Coordinates" -> "Longitude(F64) "
  "GPS01:Altitude:0(GpsChannel) " -> "3: Gps-Altitude"
  "3: Gps-Altitude" -> "Altitude(F64) "
  "GPS01:FixQuality:0(U8) " -> "4: Gps-FixQuality"
  "4: Gps-FixQuality" -> "FixQuality(U8) "
}