<?xml version="1.0" encoding="UTF-8" standalone="no"?>
<!DOCTYPE svg PUBLIC "-//W3C//DTD SVG 1.1//EN"
 "http://www.w3.org/Graphics/SVG/1.1/DTD/svg11.dtd">
<!-- Generated by graphviz version 2.43.0 (0)
 -->
<!-- Title: %3 Pages: 1 -->
<svg width="1126pt" height="52pt"
 viewBox="0.00 0.00 1125.72 52.00" xmlns="http://www.w3.org/2000/svg" xmlns:xlink="http://www.w3.org/1999/xlink">
<g id="graph0" class="graph" transform="scale(1 1) rotate(0) translate(4 48)">
<title>%3</title>
<polygon fill="white" stroke="transparent" points="-4,4 -4,-48 1121.72,-48 1121.72,4 -4,4"/>
<!-- 0: VGN01 Resampler -->
<g id="node1" class="node">
<title>0: VGN01 Resampler</title>
<g id="a_node1"><a xlink:title="VGN Resampler">
<polygon fill="#e6ffff" stroke="black" points="188.47,-14.54 188.47,-29.46 134.39,-40 57.92,-40 3.85,-29.46 3.85,-14.54 57.92,-4 134.39,-4 188.47,-14.54"/>
<polygon fill="none" stroke="black" points="192.47,-11.25 192.47,-32.75 134.78,-44 57.53,-44 -0.16,-32.75 -0.16,-11.25 57.53,0 134.78,0 192.47,-11.25"/>
<text text-anchor="middle" x="96.16" y="-18.3" font-family="Helvetica,sans-Serif" font-size="14.00">VGN01 Resampler</text>
</a>
</g>
</g>
<!-- VGN01:irc:0(IrcValue) 0..4: [10, 30, 30, 90] -->
<g id="node2" class="node">
<title>VGN01:irc:0(IrcValue) 0..4: [10, 30, 30, 90]</title>
<g id="a_node2"><a xlink:title="ln, Travelled distance">
<polygon fill="#e6ffff" stroke="black" points="501.32,-40 228.32,-40 228.32,-4 501.32,-4 501.32,-40"/>
<text text-anchor="middle" x="364.82" y="-18.3" font-family="Helvetica,sans-Serif" font-size="14.00">VGN01:irc:0(IrcValue) 0..4: [10, 30, 30, 90]</text>
</a>
</g>
</g>
<!-- 0: VGN01 Resampler&#45;&gt;VGN01:irc:0(IrcValue) 0..4: [10, 30, 30, 90] -->
<g id="edge1" class="edge">
<title>0: VGN01 Resampler&#45;&gt;VGN01:irc:0(IrcValue) 0..4: [10, 30, 30, 90]</title>
<path fill="none" stroke="black" d="M192.67,-22C200.94,-22 209.43,-22 217.98,-22"/>
<polygon fill="black" stroke="black" points="218.04,-25.5 228.04,-22 218.04,-18.5 218.04,-25.5"/>
</g>
<!-- 1: DistanceComputer(Up, k=0.01) -->
<g id="node3" class="node">
<title>1: DistanceComputer(Up, k=0.01)</title>
<g id="a_node3"><a xlink:title="Computes travelled distance signal from a 64&#45;bit IRC channel via KQ calibration while respecting Orientation. This processor is implicitly created by the channel definition.">
<polygon fill="#e6ffff" stroke="black" points="824.35,-14.54 824.35,-29.46 740.28,-40 621.38,-40 537.3,-29.46 537.3,-14.54 621.38,-4 740.28,-4 824.35,-14.54"/>
<text text-anchor="middle" x="680.83" y="-18.3" font-family="Helvetica,sans-Serif" font-size="14.00">DistanceComputer(Up, k=0.01)</text>
</a>
</g>
</g>
<!-- VGN01:irc:0(IrcValue) 0..4: [10, 30, 30, 90]&#45;&gt;1: DistanceComputer(Up, k=0.01) -->
<g id="edge2" class="edge">
<title>VGN01:irc:0(IrcValue) 0..4: [10, 30, 30, 90]&#45;&gt;1: DistanceComputer(Up, k=0.01)</title>
<path fill="none" stroke="black" d="M501.72,-22C510.09,-22 518.53,-22 526.97,-22"/>
<polygon fill="black" stroke="black" points="527.24,-25.5 537.24,-22 527.24,-18.5 527.24,-25.5"/>
</g>
<!-- ln(F64) 0..4: [0.1, 0.3, 0.3, 0.9] -->
<g id="node4" class="node">
<title>ln(F64) 0..4: [0.1, 0.3, 0.3, 0.9]</title>
<g id="a_node4"><a xlink:title="ln, Travelled distance">
<ellipse fill="#e6ffff" stroke="black" stroke-width="2" cx="989.03" cy="-22" rx="128.88" ry="18"/>
<text text-anchor="middle" x="989.03" y="-18.3" font-family="Helvetica,sans-Serif" font-size="14.00">ln(F64) 0..4: [0.1, 0.3, 0.3, 0.9]</text>
</a>
</g>
</g>
<!-- 1: DistanceComputer(Up, k=0.01)&#45;&gt;ln(F64) 0..4: [0.1, 0.3, 0.3, 0.9] -->
<g id="edge3" class="edge">
<title>1: DistanceComputer(Up, k=0.01)&#45;&gt;ln(F64) 0..4: [0.1, 0.3, 0.3, 0.9]</title>
<path fill="none" stroke="black" d="M824.62,-22C833.04,-22 841.51,-22 849.91,-22"/>
<polygon fill="black" stroke="black" points="850.13,-25.5 860.13,-22 850.13,-18.5 850.13,-25.5"/>
</g>
</g>
</svg>
