<?xml version="1.0" encoding="UTF-8" standalone="no"?>
<!DOCTYPE svg PUBLIC "-//W3C//DTD SVG 1.1//EN"
 "http://www.w3.org/Graphics/SVG/1.1/DTD/svg11.dtd">
<!-- Generated by graphviz version 2.43.0 (0)
 -->
<!-- Title: %3 Pages: 1 -->
<svg width="3103pt" height="476pt"
 viewBox="0.00 0.00 3103.14 476.00" xmlns="http://www.w3.org/2000/svg" xmlns:xlink="http://www.w3.org/1999/xlink">
<g id="graph0" class="graph" transform="scale(1 1) rotate(0) translate(4 472)">
<title>%3</title>
<polygon fill="white" stroke="transparent" points="-4,4 -4,-472 3099.14,-472 3099.14,4 -4,4"/>
<!-- 0: VGN01 Time Source -->
<g id="node1" class="node">
<title>0: VGN01 Time Source</title>
<g id="a_node1"><a xlink:title="VGN Time Source">
<polygon fill="#f0f0f0" stroke="black" points="205.29,-199.54 205.29,-214.46 146.31,-225 62.89,-225 3.9,-214.46 3.9,-199.54 62.89,-189 146.31,-189 205.29,-199.54"/>
<polygon fill="none" stroke="black" points="209.3,-196.2 209.3,-217.8 146.66,-229 62.53,-229 -0.1,-217.8 -0.1,-196.2 62.53,-185 146.66,-185 209.3,-196.2"/>
<text text-anchor="middle" x="104.6" y="-203.3" font-family="Helvetica,sans-Serif" font-size="14.00">VGN01 Time Source</text>
</a>
</g>
</g>
<!-- VGN01:irc:0(IrcValue) 0..5: [0, 20, 30, 90, 120] -->
<g id="node2" class="node">
<title>VGN01:irc:0(IrcValue) 0..5: [0, 20, 30, 90, 120]</title>
<g id="a_node2"><a xlink:title="ln, Travelled distance">
<polygon fill="#e6e6e6" stroke="black" points="617.43,-252 321.43,-252 321.43,-216 617.43,-216 617.43,-252"/>
<text text-anchor="middle" x="469.43" y="-230.3" font-family="Helvetica,sans-Serif" font-size="14.00">VGN01:irc:0(IrcValue) 0..5: [0, 20, 30, 90, 120]</text>
</a>
</g>
</g>
<!-- 0: VGN01 Time Source&#45;&gt;VGN01:irc:0(IrcValue) 0..5: [0, 20, 30, 90, 120] -->
<g id="edge1" class="edge">
<title>0: VGN01 Time Source&#45;&gt;VGN01:irc:0(IrcValue) 0..5: [0, 20, 30, 90, 120]</title>
<path fill="none" stroke="black" d="M209.57,-214.74C241.21,-217.09 276.72,-219.73 311.05,-222.29"/>
<polygon fill="black" stroke="black" points="310.95,-225.79 321.18,-223.04 311.47,-218.81 310.95,-225.79"/>
</g>
<!-- VGN01@TimeDistance(F64) 0..5: [0, 0.2, 0.3, 0.9, 1.2] -->
<g id="node3" class="node">
<title>VGN01@TimeDistance(F64) 0..5: [0, 0.2, 0.3, 0.9, 1.2]</title>
<ellipse fill="#fafafa" stroke="black" stroke-width="2" cx="469.43" cy="-180" rx="224.46" ry="18"/>
<text text-anchor="middle" x="469.43" y="-176.3" font-family="Helvetica,sans-Serif" font-size="14.00">VGN01@TimeDistance(F64) 0..5: [0, 0.2, 0.3, 0.9, 1.2]</text>
</g>
<!-- 0: VGN01 Time Source&#45;&gt;VGN01@TimeDistance(F64) 0..5: [0, 0.2, 0.3, 0.9, 1.2] -->
<g id="edge2" class="edge">
<title>0: VGN01 Time Source&#45;&gt;VGN01@TimeDistance(F64) 0..5: [0, 0.2, 0.3, 0.9, 1.2]</title>
<path fill="none" stroke="black" d="M209.57,-199.26C236.08,-197.29 265.3,-195.12 294.27,-192.96"/>
<polygon fill="black" stroke="black" points="294.79,-196.43 304.51,-192.2 294.27,-189.45 294.79,-196.43"/>
</g>
<!-- 1: DistanceComputer(Up, k=0.01) -->
<g id="node4" class="node">
<title>1: DistanceComputer(Up, k=0.01)</title>
<g id="a_node4"><a xlink:title="Computes travelled distance signal from a 64&#45;bit IRC channel via KQ calibration while respecting Orientation. This processor is implicitly created by the channel definition.">
<polygon fill="#e6e6e6" stroke="black" points="1016.7,-226.54 1016.7,-241.46 932.62,-252 813.72,-252 729.65,-241.46 729.65,-226.54 813.72,-216 932.62,-216 1016.7,-226.54"/>
<text text-anchor="middle" x="873.17" y="-230.3" font-family="Helvetica,sans-Serif" font-size="14.00">DistanceComputer(Up, k=0.01)</text>
</a>
</g>
</g>
<!-- VGN01:irc:0(IrcValue) 0..5: [0, 20, 30, 90, 120]&#45;&gt;1: DistanceComputer(Up, k=0.01) -->
<g id="edge3" class="edge">
<title>VGN01:irc:0(IrcValue) 0..5: [0, 20, 30, 90, 120]&#45;&gt;1: DistanceComputer(Up, k=0.01)</title>
<path fill="none" stroke="black" d="M617.46,-234C650.55,-234 685.75,-234 719.09,-234"/>
<polygon fill="black" stroke="black" points="719.37,-237.5 729.37,-234 719.37,-230.5 719.37,-237.5"/>
</g>
<!-- ln(F64) 0..5: [0, 0.2, 0.3, 0.9, 1.2] -->
<g id="node5" class="node">
<title>ln(F64) 0..5: [0, 0.2, 0.3, 0.9, 1.2]</title>
<g id="a_node5"><a xlink:title="ln, Travelled distance">
<ellipse fill="#e6e6e6" stroke="black" stroke-width="2" cx="1191.12" cy="-234" rx="138.38" ry="18"/>
<text text-anchor="middle" x="1191.12" y="-230.3" font-family="Helvetica,sans-Serif" font-size="14.00">ln(F64) 0..5: [0, 0.2, 0.3, 0.9, 1.2]</text>
</a>
</g>
</g>
<!-- 1: DistanceComputer(Up, k=0.01)&#45;&gt;ln(F64) 0..5: [0, 0.2, 0.3, 0.9, 1.2] -->
<g id="edge4" class="edge">
<title>1: DistanceComputer(Up, k=0.01)&#45;&gt;ln(F64) 0..5: [0, 0.2, 0.3, 0.9, 1.2]</title>
<path fill="none" stroke="black" d="M1016.89,-234C1025.27,-234 1033.69,-234 1042.09,-234"/>
<polygon fill="black" stroke="black" points="1042.3,-237.5 1052.3,-234 1042.3,-230.5 1042.3,-237.5"/>
</g>
<!-- 2: GPS01 Resampler  -->
<g id="node6" class="node">
<title>2: GPS01 Resampler </title>
<g id="a_node6"><a xlink:title="Gps Resampler">
<polygon fill="#f2e6f2" stroke="black" points="1563.5,-334.54 1563.5,-349.46 1508.41,-360 1430.5,-360 1375.41,-349.46 1375.41,-334.54 1430.5,-324 1508.41,-324 1563.5,-334.54"/>
<polygon fill="none" stroke="black" points="1567.49,-331.24 1567.49,-352.76 1508.79,-364 1430.12,-364 1371.42,-352.76 1371.42,-331.24 1430.12,-320 1508.79,-320 1567.49,-331.24"/>
<text text-anchor="middle" x="1469.46" y="-338.3" font-family="Helvetica,sans-Serif" font-size="14.00">GPS01 Resampler </text>
</a>
</g>
</g>
<!-- ln(F64) 0..5: [0, 0.2, 0.3, 0.9, 1.2]&#45;&gt;2: GPS01 Resampler  -->
<g id="edge5" class="edge">
<title>ln(F64) 0..5: [0, 0.2, 0.3, 0.9, 1.2]&#45;&gt;2: GPS01 Resampler </title>
<path fill="none" stroke="black" d="M1235.91,-251.11C1282.47,-269.31 1356.42,-298.21 1408.41,-318.53"/>
<polygon fill="black" stroke="black" points="1407.26,-321.84 1417.85,-322.22 1409.81,-315.32 1407.26,-321.84"/>
</g>
<!-- 3: GPS01 Time Source -->
<g id="node11" class="node">
<title>3: GPS01 Time Source</title>
<g id="a_node11"><a xlink:title="Gps Time Source">
<polygon fill="#f0f0f0" stroke="black" points="1569.25,-145.54 1569.25,-160.46 1510.79,-171 1428.12,-171 1369.66,-160.46 1369.66,-145.54 1428.12,-135 1510.79,-135 1569.25,-145.54"/>
<polygon fill="none" stroke="black" points="1573.25,-142.2 1573.25,-163.8 1511.15,-175 1427.76,-175 1365.66,-163.8 1365.66,-142.2 1427.76,-131 1511.15,-131 1573.25,-142.2"/>
<text text-anchor="middle" x="1469.46" y="-149.3" font-family="Helvetica,sans-Serif" font-size="14.00">GPS01 Time Source</text>
</a>
</g>
</g>
<!-- ln(F64) 0..5: [0, 0.2, 0.3, 0.9, 1.2]&#45;&gt;3: GPS01 Time Source -->
<g id="edge10" class="edge">
<title>ln(F64) 0..5: [0, 0.2, 0.3, 0.9, 1.2]&#45;&gt;3: GPS01 Time Source</title>
<path fill="none" stroke="black" d="M1248.38,-217.51C1291.1,-204.99 1350.18,-187.67 1396.37,-174.13"/>
<polygon fill="black" stroke="black" points="1397.41,-177.47 1406.02,-171.3 1395.44,-170.76 1397.41,-177.47"/>
</g>
<!-- GPS01:Latitude:0@GPS(GpsChannel) 0..4: [Valid(20000000), Valid(29599999), Valid(29599999), Valid(40000000)] -->
<g id="node7" class="node">
<title>GPS01:Latitude:0@GPS(GpsChannel) 0..4: [Valid(20000000), Valid(29599999), Valid(29599999), Valid(40000000)]</title>
<g id="a_node7"><a xlink:title="Latitude, GPS Latitude">
<polygon fill="#ffe6ff" stroke="black" points="2362.35,-468 1650.35,-468 1650.35,-432 2362.35,-432 2362.35,-468"/>
<text text-anchor="middle" x="2006.35" y="-446.3" font-family="Helvetica,sans-Serif" font-size="14.00">GPS01:Latitude:0@GPS(GpsChannel) 0..4: [Valid(20000000), Valid(29599999), Valid(29599999), Valid(40000000)]</text>
</a>
</g>
</g>
<!-- 2: GPS01 Resampler &#45;&gt;GPS01:Latitude:0@GPS(GpsChannel) 0..4: [Valid(20000000), Valid(29599999), Valid(29599999), Valid(40000000)] -->
<g id="edge6" class="edge">
<title>2: GPS01 Resampler &#45;&gt;GPS01:Latitude:0@GPS(GpsChannel) 0..4: [Valid(20000000), Valid(29599999), Valid(29599999), Valid(40000000)]</title>
<path fill="none" stroke="black" d="M1499.2,-364.13C1526.07,-383.46 1568.12,-410.34 1609.35,-423 1619.56,-426.14 1629.99,-428.99 1640.57,-431.59"/>
<polygon fill="black" stroke="black" points="1639.79,-435 1650.33,-433.9 1641.41,-428.19 1639.79,-435"/>
</g>
<!-- GPS01:Longitude:0@GPS(GpsChannel) 0..4: [Valid(40000000), Valid(59599999), Valid(59599999), Valid(80000000)] -->
<g id="node8" class="node">
<title>GPS01:Longitude:0@GPS(GpsChannel) 0..4: [Valid(40000000), Valid(59599999), Valid(59599999), Valid(80000000)]</title>
<g id="a_node8"><a xlink:title="Longitude, GPS Longitude">
<polygon fill="#ffe6ff" stroke="black" points="2367.85,-414 1644.85,-414 1644.85,-378 2367.85,-378 2367.85,-414"/>
<text text-anchor="middle" x="2006.35" y="-392.3" font-family="Helvetica,sans-Serif" font-size="14.00">GPS01:Longitude:0@GPS(GpsChannel) 0..4: [Valid(40000000), Valid(59599999), Valid(59599999), Valid(80000000)]</text>
</a>
</g>
</g>
<!-- 2: GPS01 Resampler &#45;&gt;GPS01:Longitude:0@GPS(GpsChannel) 0..4: [Valid(40000000), Valid(59599999), Valid(59599999), Valid(80000000)] -->
<g id="edge7" class="edge">
<title>2: GPS01 Resampler &#45;&gt;GPS01:Longitude:0@GPS(GpsChannel) 0..4: [Valid(40000000), Valid(59599999), Valid(59599999), Valid(80000000)]</title>
<path fill="none" stroke="black" d="M1542.27,-357.72C1563.75,-361.94 1587.43,-366.13 1609.35,-369 1632.07,-371.97 1655.57,-374.63 1679.26,-377"/>
<polygon fill="black" stroke="black" points="1679.13,-380.5 1689.42,-377.99 1679.81,-373.53 1679.13,-380.5"/>
</g>
<!-- GPS01:Altitude:0@GPS(GpsChannel) 0..4: [Valid(600000), Valid(900000), Valid(900000), Valid(1200000)] -->
<g id="node9" class="node">
<title>GPS01:Altitude:0@GPS(GpsChannel) 0..4: [Valid(600000), Valid(900000), Valid(900000), Valid(1200000)]</title>
<g id="a_node9"><a xlink:title="Altitude, GPS Altitude">
<polygon fill="#ffe6ff" stroke="black" points="2334.35,-360 1678.35,-360 1678.35,-324 2334.35,-324 2334.35,-360"/>
<text text-anchor="middle" x="2006.35" y="-338.3" font-family="Helvetica,sans-Serif" font-size="14.00">GPS01:Altitude:0@GPS(GpsChannel) 0..4: [Valid(600000), Valid(900000), Valid(900000), Valid(1200000)]</text>
</a>
</g>
</g>
<!-- 2: GPS01 Resampler &#45;&gt;GPS01:Altitude:0@GPS(GpsChannel) 0..4: [Valid(600000), Valid(900000), Valid(900000), Valid(1200000)] -->
<g id="edge8" class="edge">
<title>2: GPS01 Resampler &#45;&gt;GPS01:Altitude:0@GPS(GpsChannel) 0..4: [Valid(600000), Valid(900000), Valid(900000), Valid(1200000)]</title>
<path fill="none" stroke="black" d="M1567.63,-342C1597.3,-342 1631.75,-342 1668.04,-342"/>
<polygon fill="black" stroke="black" points="1668.32,-345.5 1678.32,-342 1668.32,-338.5 1668.32,-345.5"/>
</g>
<!-- GPS01:FixQuality:0@GPS(U8) 0..4: [3, 3, 3, 3] -->
<g id="node10" class="node">
<title>GPS01:FixQuality:0@GPS(U8) 0..4: [3, 3, 3, 3]</title>
<g id="a_node10"><a xlink:title="FixQuality, Fix Quality (0 = No fix, &gt; 0 = valid data)">
<polygon fill="#ffe6ff" stroke="black" points="2156.35,-306 1856.35,-306 1856.35,-270 2156.35,-270 2156.35,-306"/>
<text text-anchor="middle" x="2006.35" y="-284.3" font-family="Helvetica,sans-Serif" font-size="14.00">GPS01:FixQuality:0@GPS(U8) 0..4: [3, 3, 3, 3]</text>
</a>
</g>
</g>
<!-- 2: GPS01 Resampler &#45;&gt;GPS01:FixQuality:0@GPS(U8) 0..4: [3, 3, 3, 3] -->
<g id="edge9" class="edge">
<title>2: GPS01 Resampler &#45;&gt;GPS01:FixQuality:0@GPS(U8) 0..4: [3, 3, 3, 3]</title>
<path fill="none" stroke="black" d="M1542.27,-326.28C1563.75,-322.06 1587.43,-317.87 1609.35,-315 1686.85,-304.87 1773.4,-298.41 1845.78,-294.37"/>
<polygon fill="black" stroke="black" points="1846.1,-297.85 1855.89,-293.81 1845.72,-290.86 1846.1,-297.85"/>
</g>
<!-- GPS01:Latitude:0(GpsChannel) 0..5: [Valid(10000000), Valid(20000000), Valid(29599999), Valid(40000000), Valid(50000000)] -->
<g id="node12" class="node">
<title>GPS01:Latitude:0(GpsChannel) 0..5: [Valid(10000000), Valid(20000000), Valid(29599999), Valid(40000000), Valid(50000000)]</title>
<g id="a_node12"><a xlink:title="Latitude, GPS Latitude">
<polygon fill="#e6e6e6" stroke="black" points="2393.85,-252 1618.85,-252 1618.85,-216 2393.85,-216 2393.85,-252"/>
<text text-anchor="middle" x="2006.35" y="-230.3" font-family="Helvetica,sans-Serif" font-size="14.00">GPS01:Latitude:0(GpsChannel) 0..5: [Valid(10000000), Valid(20000000), Valid(29599999), Valid(40000000), Valid(50000000)]</text>
</a>
</g>
</g>
<!-- 3: GPS01 Time Source&#45;&gt;GPS01:Latitude:0(GpsChannel) 0..5: [Valid(10000000), Valid(20000000), Valid(29599999), Valid(40000000), Valid(50000000)] -->
<g id="edge11" class="edge">
<title>3: GPS01 Time Source&#45;&gt;GPS01:Latitude:0(GpsChannel) 0..5: [Valid(10000000), Valid(20000000), Valid(29599999), Valid(40000000), Valid(50000000)]</title>
<path fill="none" stroke="black" d="M1515.04,-174.32C1541.76,-186.08 1576.78,-199.73 1609.35,-207 1621.23,-209.65 1633.35,-212.06 1645.62,-214.25"/>
<polygon fill="black" stroke="black" points="1645.05,-217.71 1655.5,-215.97 1646.24,-210.81 1645.05,-217.71"/>
</g>
<!-- GPS01:Longitude:0(GpsChannel) 0..5: [Valid(20000000), Valid(40000000), Valid(59599999), Valid(80000000), Valid(100000000)] -->
<g id="node13" class="node">
<title>GPS01:Longitude:0(GpsChannel) 0..5: [Valid(20000000), Valid(40000000), Valid(59599999), Valid(80000000), Valid(100000000)]</title>
<g id="a_node13"><a xlink:title="Longitude, GPS Longitude">
<polygon fill="#e6e6e6" stroke="black" points="2403.35,-198 1609.35,-198 1609.35,-162 2403.35,-162 2403.35,-198"/>
<text text-anchor="middle" x="2006.35" y="-176.3" font-family="Helvetica,sans-Serif" font-size="14.00">GPS01:Longitude:0(GpsChannel) 0..5: [Valid(20000000), Valid(40000000), Valid(59599999), Valid(80000000), Valid(100000000)]</text>
</a>
</g>
</g>
<!-- 3: GPS01 Time Source&#45;&gt;GPS01:Longitude:0(GpsChannel) 0..5: [Valid(20000000), Valid(40000000), Valid(59599999), Valid(80000000), Valid(100000000)] -->
<g id="edge12" class="edge">
<title>3: GPS01 Time Source&#45;&gt;GPS01:Longitude:0(GpsChannel) 0..5: [Valid(20000000), Valid(40000000), Valid(59599999), Valid(80000000), Valid(100000000)]</title>
<path fill="none" stroke="black" d="M1573.27,-158.19C1593.32,-159.2 1615.39,-160.32 1638.62,-161.49"/>
<polygon fill="black" stroke="black" points="1638.48,-164.99 1648.65,-161.99 1638.84,-157.99 1638.48,-164.99"/>
</g>
<!-- GPS01:Altitude:0(GpsChannel) 0..5: [Valid(300000), Valid(600000), Valid(900000), Valid(1200000), Valid(1500000)] -->
<g id="node14" class="node">
<title>GPS01:Altitude:0(GpsChannel) 0..5: [Valid(300000), Valid(600000), Valid(900000), Valid(1200000), Valid(1500000)]</title>
<g id="a_node14"><a xlink:title="Altitude, GPS Altitude">
<polygon fill="#e6e6e6" stroke="black" points="2362.35,-144 1650.35,-144 1650.35,-108 2362.35,-108 2362.35,-144"/>
<text text-anchor="middle" x="2006.35" y="-122.3" font-family="Helvetica,sans-Serif" font-size="14.00">GPS01:Altitude:0(GpsChannel) 0..5: [Valid(300000), Valid(600000), Valid(900000), Valid(1200000), Valid(1500000)]</text>
</a>
</g>
</g>
<!-- 3: GPS01 Time Source&#45;&gt;GPS01:Altitude:0(GpsChannel) 0..5: [Valid(300000), Valid(600000), Valid(900000), Valid(1200000), Valid(1500000)] -->
<g id="edge13" class="edge">
<title>3: GPS01 Time Source&#45;&gt;GPS01:Altitude:0(GpsChannel) 0..5: [Valid(300000), Valid(600000), Valid(900000), Valid(1200000), Valid(1500000)]</title>
<path fill="none" stroke="black" d="M1573.27,-147.81C1593.72,-146.78 1616.27,-145.64 1640.01,-144.44"/>
<polygon fill="black" stroke="black" points="1640.44,-147.92 1650.25,-143.92 1640.09,-140.93 1640.44,-147.92"/>
</g>
<!-- GPS01:FixQuality:0(U8) 0..5: [3, 3, 3, 3, 3] -->
<g id="node15" class="node">
<title>GPS01:FixQuality:0(U8) 0..5: [3, 3, 3, 3, 3]</title>
<g id="a_node15"><a xlink:title="FixQuality, Fix Quality (0 = No fix, &gt; 0 = valid data)">
<polygon fill="#e6e6e6" stroke="black" points="2142.35,-90 1870.35,-90 1870.35,-54 2142.35,-54 2142.35,-90"/>
<text text-anchor="middle" x="2006.35" y="-68.3" font-family="Helvetica,sans-Serif" font-size="14.00">GPS01:FixQuality:0(U8) 0..5: [3, 3, 3, 3, 3]</text>
</a>
</g>
</g>
<!-- 3: GPS01 Time Source&#45;&gt;GPS01:FixQuality:0(U8) 0..5: [3, 3, 3, 3, 3] -->
<g id="edge14" class="edge">
<title>3: GPS01 Time Source&#45;&gt;GPS01:FixQuality:0(U8) 0..5: [3, 3, 3, 3, 3]</title>
<path fill="none" stroke="black" d="M1515.04,-131.68C1541.76,-119.92 1576.78,-106.27 1609.35,-99 1691.1,-80.77 1784.49,-73.76 1860.03,-71.43"/>
<polygon fill="black" stroke="black" points="1860.2,-74.93 1870.1,-71.15 1860,-67.93 1860.2,-74.93"/>
</g>
<!-- GPS01@TimeDistance(F64) 0..5: [0, 0.2, 0.3, 0.9, 1.2] -->
<g id="node16" class="node">
<title>GPS01@TimeDistance(F64) 0..5: [0, 0.2, 0.3, 0.9, 1.2]</title>
<ellipse fill="#fafafa" stroke="black" stroke-width="2" cx="2006.35" cy="-18" rx="223.66" ry="18"/>
<text text-anchor="middle" x="2006.35" y="-14.3" font-family="Helvetica,sans-Serif" font-size="14.00">GPS01@TimeDistance(F64) 0..5: [0, 0.2, 0.3, 0.9, 1.2]</text>
</g>
<!-- 3: GPS01 Time Source&#45;&gt;GPS01@TimeDistance(F64) 0..5: [0, 0.2, 0.3, 0.9, 1.2] -->
<g id="edge15" class="edge">
<title>3: GPS01 Time Source&#45;&gt;GPS01@TimeDistance(F64) 0..5: [0, 0.2, 0.3, 0.9, 1.2]</title>
<path fill="none" stroke="black" d="M1490.52,-130.89C1515.5,-105.06 1560.83,-63.51 1609.35,-45 1671,-21.48 1741.93,-11.78 1806.58,-8.84"/>
<polygon fill="black" stroke="black" points="1807.04,-12.33 1816.9,-8.43 1806.76,-5.33 1807.04,-12.33"/>
</g>
<!-- 4: Gps&#45;Coordinates -->
<g id="node17" class="node">
<title>4: Gps&#45;Coordinates</title>
<g id="a_node17"><a xlink:title="Converts an int32 GPS channel Latitude/Longitude value to signal value in radians. Examples: 123300000 &#45;&gt; 123.5 * PI / 180, &#45;123300000 &#45;&gt; &#45;123.5 * PI / 180">
<polygon fill="#e6e6e6" stroke="black" points="2607,-226.54 2607,-241.46 2557.83,-252 2488.3,-252 2439.14,-241.46 2439.14,-226.54 2488.3,-216 2557.83,-216 2607,-226.54"/>
<text text-anchor="middle" x="2523.07" y="-230.3" font-family="Helvetica,sans-Serif" font-size="14.00">Gps&#45;Coordinates</text>
</a>
</g>
</g>
<!-- GPS01:Latitude:0(GpsChannel) 0..5: [Valid(10000000), Valid(20000000), Valid(29599999), Valid(40000000), Valid(50000000)]&#45;&gt;4: Gps&#45;Coordinates -->
<g id="edge16" class="edge">
<title>GPS01:Latitude:0(GpsChannel) 0..5: [Valid(10000000), Valid(20000000), Valid(29599999), Valid(40000000), Valid(50000000)]&#45;&gt;4: Gps&#45;Coordinates</title>
<path fill="none" stroke="black" d="M2394.17,-234C2406.35,-234 2418.01,-234 2428.98,-234"/>
<polygon fill="black" stroke="black" points="2429.28,-237.5 2439.28,-234 2429.28,-230.5 2429.28,-237.5"/>
</g>
<!-- 5: Gps&#45;Coordinates -->
<g id="node19" class="node">
<title>5: Gps&#45;Coordinates</title>
<g id="a_node19"><a xlink:title="Converts an int32 GPS channel Latitude/Longitude value to signal value in radians. Examples: 123300000 &#45;&gt; 123.5 * PI / 180, &#45;123300000 &#45;&gt; &#45;123.5 * PI / 180">
<polygon fill="#e6e6e6" stroke="black" points="2607,-172.54 2607,-187.46 2557.83,-198 2488.3,-198 2439.14,-187.46 2439.14,-172.54 2488.3,-162 2557.83,-162 2607,-172.54"/>
<text text-anchor="middle" x="2523.07" y="-176.3" font-family="Helvetica,sans-Serif" font-size="14.00">Gps&#45;Coordinates</text>
</a>
</g>
</g>
<!-- GPS01:Longitude:0(GpsChannel) 0..5: [Valid(20000000), Valid(40000000), Valid(59599999), Valid(80000000), Valid(100000000)]&#45;&gt;5: Gps&#45;Coordinates -->
<g id="edge18" class="edge">
<title>GPS01:Longitude:0(GpsChannel) 0..5: [Valid(20000000), Valid(40000000), Valid(59599999), Valid(80000000), Valid(100000000)]&#45;&gt;5: Gps&#45;Coordinates</title>
<path fill="none" stroke="black" d="M2403.66,-180C2412.42,-180 2420.88,-180 2428.96,-180"/>
<polygon fill="black" stroke="black" points="2429,-183.5 2439,-180 2429,-176.5 2429,-183.5"/>
</g>
<!-- 6: Gps&#45;Altitude -->
<g id="node21" class="node">
<title>6: Gps&#45;Altitude</title>
<g id="a_node21"><a xlink:title="Converts an int32 GPS altitude in 0.1 mm into float altitude in meters by dividing it by 10 000">
<polygon fill="#e6e6e6" stroke="black" points="2588.01,-118.54 2588.01,-133.46 2549.97,-144 2496.17,-144 2458.12,-133.46 2458.12,-118.54 2496.17,-108 2549.97,-108 2588.01,-118.54"/>
<text text-anchor="middle" x="2523.07" y="-122.3" font-family="Helvetica,sans-Serif" font-size="14.00">Gps&#45;Altitude</text>
</a>
</g>
</g>
<!-- GPS01:Altitude:0(GpsChannel) 0..5: [Valid(300000), Valid(600000), Valid(900000), Valid(1200000), Valid(1500000)]&#45;&gt;6: Gps&#45;Altitude -->
<g id="edge20" class="edge">
<title>GPS01:Altitude:0(GpsChannel) 0..5: [Valid(300000), Valid(600000), Valid(900000), Valid(1200000), Valid(1500000)]&#45;&gt;6: Gps&#45;Altitude</title>
<path fill="none" stroke="black" d="M2362.38,-126C2394.01,-126 2423.34,-126 2447.99,-126"/>
<polygon fill="black" stroke="black" points="2448.27,-129.5 2458.27,-126 2448.27,-122.5 2448.27,-129.5"/>
</g>
<!-- 7: Gps&#45;FixQuality -->
<g id="node23" class="node">
<title>7: Gps&#45;FixQuality</title>
<g id="a_node23"><a xlink:title="Converts a Gps FixQuality channel to signal by simply copying it&#39;s value.0: No Fix, 1: GPS, 2: AutonomousGNSS, 3: DifferentialGNSS, 4: RTKFixed, 5: RTKFloat, 6: EstimatedOrDeadReckoning">
<polygon fill="#e6e6e6" stroke="black" points="2598.11,-64.54 2598.11,-79.46 2554.15,-90 2491.98,-90 2448.02,-79.46 2448.02,-64.54 2491.98,-54 2554.15,-54 2598.11,-64.54"/>
<text text-anchor="middle" x="2523.07" y="-68.3" font-family="Helvetica,sans-Serif" font-size="14.00">Gps&#45;FixQuality</text>
</a>
</g>
</g>
<!-- GPS01:FixQuality:0(U8) 0..5: [3, 3, 3, 3, 3]&#45;&gt;7: Gps&#45;FixQuality -->
<g id="edge22" class="edge">
<title>GPS01:FixQuality:0(U8) 0..5: [3, 3, 3, 3, 3]&#45;&gt;7: Gps&#45;FixQuality</title>
<path fill="none" stroke="black" d="M2142.59,-72C2236.13,-72 2357.7,-72 2437.72,-72"/>
<polygon fill="black" stroke="black" points="2437.75,-75.5 2447.75,-72 2437.75,-68.5 2437.75,-75.5"/>
</g>
<!-- Latitude(F64) 0..5: [0.175, 0.349, 0.524, 0.698, 0.873] -->
<g id="node18" class="node">
<title>Latitude(F64) 0..5: [0.175, 0.349, 0.524, 0.698, 0.873]</title>
<g id="a_node18"><a xlink:title="Latitude, GPS Latitude">
<ellipse fill="#e6e6e6" stroke="black" stroke-width="2" cx="2868.96" cy="-234" rx="219.06" ry="18"/>
<text text-anchor="middle" x="2868.96" y="-230.3" font-family="Helvetica,sans-Serif" font-size="14.00">Latitude(F64) 0..5: [0.175, 0.349, 0.524, 0.698, 0.873]</text>
</a>
</g>
</g>
<!-- 4: Gps&#45;Coordinates&#45;&gt;Latitude(F64) 0..5: [0.175, 0.349, 0.524, 0.698, 0.873] -->
<g id="edge17" class="edge">
<title>4: Gps&#45;Coordinates&#45;&gt;Latitude(F64) 0..5: [0.175, 0.349, 0.524, 0.698, 0.873]</title>
<path fill="none" stroke="black" d="M2606.88,-234C2617.25,-234 2628.23,-234 2639.57,-234"/>
<polygon fill="black" stroke="black" points="2639.63,-237.5 2649.63,-234 2639.63,-230.5 2639.63,-237.5"/>
</g>
<!-- Longitude(F64) 0..5: [0.349, 0.698, 1.047, 1.396, 1.745] -->
<g id="node20" class="node">
<title>Longitude(F64) 0..5: [0.349, 0.698, 1.047, 1.396, 1.745]</title>
<g id="a_node20"><a xlink:title="Longitude, GPS Longitude">
<ellipse fill="#e6e6e6" stroke="black" stroke-width="2" cx="2868.96" cy="-180" rx="226.36" ry="18"/>
<text text-anchor="middle" x="2868.96" y="-176.3" font-family="Helvetica,sans-Serif" font-size="14.00">Longitude(F64) 0..5: [0.349, 0.698, 1.047, 1.396, 1.745]</text>
</a>
</g>
</g>
<!-- 5: Gps&#45;Coordinates&#45;&gt;Longitude(F64) 0..5: [0.349, 0.698, 1.047, 1.396, 1.745] -->
<g id="edge19" class="edge">
<title>5: Gps&#45;Coordinates&#45;&gt;Longitude(F64) 0..5: [0.349, 0.698, 1.047, 1.396, 1.745]</title>
<path fill="none" stroke="black" d="M2606.88,-180C2615.11,-180 2623.71,-180 2632.58,-180"/>
<polygon fill="black" stroke="black" points="2632.7,-183.5 2642.7,-180 2632.7,-176.5 2632.7,-183.5"/>
</g>
<!-- Altitude(F64) 0..5: [30, 60, 90, 120, 150] -->
<g id="node22" class="node">
<title>Altitude(F64) 0..5: [30, 60, 90, 120, 150]</title>
<g id="a_node22"><a xlink:title="Altitude, GPS Altitude">
<ellipse fill="#e6e6e6" stroke="black" stroke-width="2" cx="2868.96" cy="-126" rx="165.97" ry="18"/>
<text text-anchor="middle" x="2868.96" y="-122.3" font-family="Helvetica,sans-Serif" font-size="14.00">Altitude(F64) 0..5: [30, 60, 90, 120, 150]</text>
</a>
</g>
</g>
<!-- 6: Gps&#45;Altitude&#45;&gt;Altitude(F64) 0..5: [30, 60, 90, 120, 150] -->
<g id="edge21" class="edge">
<title>6: Gps&#45;Altitude&#45;&gt;Altitude(F64) 0..5: [30, 60, 90, 120, 150]</title>
<path fill="none" stroke="black" d="M2587.95,-126C2617.99,-126 2655.44,-126 2693.07,-126"/>
<polygon fill="black" stroke="black" points="2693.16,-129.5 2703.16,-126 2693.16,-122.5 2693.16,-129.5"/>
</g>
<!-- FixQuality(U8) 0..5: [3, 3, 3, 3, 3] -->
<g id="node24" class="node">
<title>FixQuality(U8) 0..5: [3, 3, 3, 3, 3]</title>
<g id="a_node24"><a xlink:title="FixQuality, Fix Quality (0 = No fix, &gt; 0 = valid data)">
<ellipse fill="#e6e6e6" stroke="black" stroke-width="2" cx="2868.96" cy="-72" rx="137.58" ry="18"/>
<text text-anchor="middle" x="2868.96" y="-68.3" font-family="Helvetica,sans-Serif" font-size="14.00">FixQuality(U8) 0..5: [3, 3, 3, 3, 3]</text>
</a>
</g>
</g>
<!-- 7: Gps&#45;FixQuality&#45;&gt;FixQuality(U8) 0..5: [3, 3, 3, 3, 3] -->
<g id="edge23" class="edge">
<title>7: Gps&#45;FixQuality&#45;&gt;FixQuality(U8) 0..5: [3, 3, 3, 3, 3]</title>
<path fill="none" stroke="black" d="M2598.26,-72C2634.18,-72 2678.63,-72 2721,-72"/>
<polygon fill="black" stroke="black" points="2721.15,-75.5 2731.15,-72 2721.15,-68.5 2721.15,-75.5"/>
</g>
</g>
</svg>
