digraph {
  rankdir=LR;  node [shape=box];  graph [fontname = "helvetica"]  node [fontname = "helvetica"]  edge [fontname = "helvetica"]    "0: VGN01 Resampler" [shape=doubleoctagon, style="filled,solid",fillcolor="#E6FFFF", label="VGN01 Resampler", tooltip="VGN Resampler"];
    "VGN01:ad:1(U16) " [tooltip="RK, Primary Gauge", shape=rectangle, style="filled,solid", fillcolor="#E6FFFF"];
    "VGN01:ad:16(U16) " [tooltip="Rych, Speed", shape=rectangle, style="filled,solid", fillcolor="#E6FFFF"];
    "VGN01:irc:0(IrcValue) " [tooltip="ln, Travelled distance", shape=rectangle, style="filled,solid", fillcolor="#E6FFFF"];
    "1: DistanceComputer" [shape=octagon, style="filled,solid",fillcolor="#E6FFFF", label="DistanceComputer", tooltip="Computes travelled distance signal from a 64-bit IRC channel via KQ calibration while respecting Orientation. This processor is implicitly created by the channel definition."];
    "VGN01:irc:0(IrcValue) " [tooltip="ln, Travelled distance", shape=rectangle, style="filled,solid", fillcolor="#E6FFFF"];
    "ln(F64) " [tooltip="ln, Travelled distance", shape=oval, style="filled,solid,bold", fillcolor="#E6FFFF"];
    "2: AdCalibrator" [shape=octagon, style="filled,solid",fillcolor="#E6FFFF", label="AdCalibrator", tooltip="Computes a signal from a 16-bit AD channel via KQ calibration. This processor is implicitly created by the channel definition."];
    "VGN01:ad:1(U16) " [tooltip="RK, Primary Gauge", shape=rectangle, style="filled,solid", fillcolor="#E6FFFF"];
    "RK(F64) " [tooltip="RK, Primary Gauge", shape=oval, style="filled,solid,bold", fillcolor="#E6FFFF"];
    "3: AdCalibrator" [shape=octagon, style="filled,solid",fillcolor="#E6FFFF", label="AdCalibrator", tooltip="Computes a signal from a 16-bit AD channel via KQ calibration. This processor is implicitly created by the channel definition."];
    "VGN01:ad:16(U16) " [tooltip="Rych, Speed", shape=rectangle, style="filled,solid", fillcolor="#E6FFFF"];
    "Rych(F64) " [tooltip="Rych, Speed", shape=oval, style="filled,solid,bold", fillcolor="#E6FFFF"];
  "0: VGN01 Resampler" -> "VGN01:ad:1(U16) "
  "0: VGN01 Resampler" -> "VGN01:ad:16(U16) "
  "0: VGN01 Resampler" -> "VGN01:irc:0(IrcValue) "
  "VGN01:irc:0(IrcValue) " -> "1: DistanceComputer"
  "1: DistanceComputer" -> "ln(F64) "
  "VGN01:ad:1(U16) " -> "2: AdCalibrator"
  "2: AdCalibrator" -> "RK(F64) "
  "VGN01:ad:16(U16) " -> "3: AdCalibrator"
  "3: AdCalibrator" -> "Rych(F64) "
}