<?xml version="1.0" encoding="UTF-8" standalone="no"?>
<!DOCTYPE svg PUBLIC "-//W3C//DTD SVG 1.1//EN"
 "http://www.w3.org/Graphics/SVG/1.1/DTD/svg11.dtd">
<!-- Generated by graphviz version 2.43.0 (0)
 -->
<!-- Title: %3 Pages: 1 -->
<svg width="1481pt" height="206pt"
 viewBox="0.00 0.00 1480.87 206.00" xmlns="http://www.w3.org/2000/svg" xmlns:xlink="http://www.w3.org/1999/xlink">
<g id="graph0" class="graph" transform="scale(1 1) rotate(0) translate(4 202)">
<title>%3</title>
<polygon fill="white" stroke="transparent" points="-4,4 -4,-202 1476.87,-202 1476.87,4 -4,4"/>
<!-- 0: VGN01 Time Source -->
<g id="node1" class="node">
<title>0: VGN01 Time Source</title>
<g id="a_node1"><a xlink:title="VGN Time Source">
<polygon fill="#f0f0f0" stroke="black" points="205.29,-91.54 205.29,-106.46 146.31,-117 62.89,-117 3.9,-106.46 3.9,-91.54 62.89,-81 146.31,-81 205.29,-91.54"/>
<polygon fill="none" stroke="black" points="209.3,-88.2 209.3,-109.8 146.66,-121 62.53,-121 -0.1,-109.8 -0.1,-88.2 62.53,-77 146.66,-77 209.3,-88.2"/>
<text text-anchor="middle" x="104.6" y="-95.3" font-family="Helvetica,sans-Serif" font-size="14.00">VGN01 Time Source</text>
</a>
</g>
</g>
<!-- VGN01:ad:1(U16) 0..5: [10, 20, 30, 40, 50] -->
<g id="node2" class="node">
<title>VGN01:ad:1(U16) 0..5: [10, 20, 30, 40, 50]</title>
<g id="a_node2"><a xlink:title="RK, Primary Gauge">
<polygon fill="#e6e6e6" stroke="black" points="605.43,-198 333.43,-198 333.43,-162 605.43,-162 605.43,-198"/>
<text text-anchor="middle" x="469.43" y="-176.3" font-family="Helvetica,sans-Serif" font-size="14.00">VGN01:ad:1(U16) 0..5: [10, 20, 30, 40, 50]</text>
</a>
</g>
</g>
<!-- 0: VGN01 Time Source&#45;&gt;VGN01:ad:1(U16) 0..5: [10, 20, 30, 40, 50] -->
<g id="edge1" class="edge">
<title>0: VGN01 Time Source&#45;&gt;VGN01:ad:1(U16) 0..5: [10, 20, 30, 40, 50]</title>
<path fill="none" stroke="black" d="M151.83,-120.23C178.57,-131.65 213.18,-145 245.2,-153 270.13,-159.23 297.01,-164.04 323.18,-167.75"/>
<polygon fill="black" stroke="black" points="322.78,-171.23 333.17,-169.12 323.73,-164.29 322.78,-171.23"/>
</g>
<!-- VGN01:ad:16(U16) 0..5: [10, 20, 30, 40, 50] -->
<g id="node3" class="node">
<title>VGN01:ad:16(U16) 0..5: [10, 20, 30, 40, 50]</title>
<g id="a_node3"><a xlink:title="Rych, Speed">
<polygon fill="#e6e6e6" stroke="black" points="608.93,-144 329.93,-144 329.93,-108 608.93,-108 608.93,-144"/>
<text text-anchor="middle" x="469.43" y="-122.3" font-family="Helvetica,sans-Serif" font-size="14.00">VGN01:ad:16(U16) 0..5: [10, 20, 30, 40, 50]</text>
</a>
</g>
</g>
<!-- 0: VGN01 Time Source&#45;&gt;VGN01:ad:16(U16) 0..5: [10, 20, 30, 40, 50] -->
<g id="edge2" class="edge">
<title>0: VGN01 Time Source&#45;&gt;VGN01:ad:16(U16) 0..5: [10, 20, 30, 40, 50]</title>
<path fill="none" stroke="black" d="M209.57,-106.74C243.74,-109.28 282.42,-112.16 319.26,-114.9"/>
<polygon fill="black" stroke="black" points="319.37,-118.42 329.6,-115.67 319.89,-111.44 319.37,-118.42"/>
</g>
<!-- VGN01:irc:0(IrcValue) 0..5: [0, 20, 30, 90, 120] -->
<g id="node4" class="node">
<title>VGN01:irc:0(IrcValue) 0..5: [0, 20, 30, 90, 120]</title>
<g id="a_node4"><a xlink:title="ln, Travelled distance">
<polygon fill="#e6e6e6" stroke="black" points="617.43,-90 321.43,-90 321.43,-54 617.43,-54 617.43,-90"/>
<text text-anchor="middle" x="469.43" y="-68.3" font-family="Helvetica,sans-Serif" font-size="14.00">VGN01:irc:0(IrcValue) 0..5: [0, 20, 30, 90, 120]</text>
</a>
</g>
</g>
<!-- 0: VGN01 Time Source&#45;&gt;VGN01:irc:0(IrcValue) 0..5: [0, 20, 30, 90, 120] -->
<g id="edge3" class="edge">
<title>0: VGN01 Time Source&#45;&gt;VGN01:irc:0(IrcValue) 0..5: [0, 20, 30, 90, 120]</title>
<path fill="none" stroke="black" d="M209.57,-91.26C241.21,-88.91 276.72,-86.27 311.05,-83.71"/>
<polygon fill="black" stroke="black" points="311.47,-87.19 321.18,-82.96 310.95,-80.21 311.47,-87.19"/>
</g>
<!-- VGN01@TimeDistance(F64) 0..5: [0, 0.2, 0.3, 0.9, 1.2] -->
<g id="node5" class="node">
<title>VGN01@TimeDistance(F64) 0..5: [0, 0.2, 0.3, 0.9, 1.2]</title>
<ellipse fill="#fafafa" stroke="black" stroke-width="2" cx="469.43" cy="-18" rx="224.46" ry="18"/>
<text text-anchor="middle" x="469.43" y="-14.3" font-family="Helvetica,sans-Serif" font-size="14.00">VGN01@TimeDistance(F64) 0..5: [0, 0.2, 0.3, 0.9, 1.2]</text>
</g>
<!-- 0: VGN01 Time Source&#45;&gt;VGN01@TimeDistance(F64) 0..5: [0, 0.2, 0.3, 0.9, 1.2] -->
<g id="edge4" class="edge">
<title>0: VGN01 Time Source&#45;&gt;VGN01@TimeDistance(F64) 0..5: [0, 0.2, 0.3, 0.9, 1.2]</title>
<path fill="none" stroke="black" d="M151.83,-77.77C178.57,-66.35 213.18,-53 245.2,-45 264.81,-40.1 285.62,-36.08 306.34,-32.78"/>
<polygon fill="black" stroke="black" points="307.15,-36.2 316.5,-31.22 306.08,-29.28 307.15,-36.2"/>
</g>
<!-- 2: AdCalibrator(K: 0.01, Q: 10) -->
<g id="node8" class="node">
<title>2: AdCalibrator(K: 0.01, Q: 10)</title>
<g id="a_node8"><a xlink:title="Computes a signal from a 16&#45;bit AD channel via KQ calibration. This processor is implicitly created by the channel definition.">
<polygon fill="#e6e6e6" stroke="black" points="1005.57,-172.54 1005.57,-187.46 929.25,-198 821.31,-198 744.99,-187.46 744.99,-172.54 821.31,-162 929.25,-162 1005.57,-172.54"/>
<text text-anchor="middle" x="875.28" y="-176.3" font-family="Helvetica,sans-Serif" font-size="14.00">AdCalibrator(K: 0.01, Q: 10)</text>
</a>
</g>
</g>
<!-- VGN01:ad:1(U16) 0..5: [10, 20, 30, 40, 50]&#45;&gt;2: AdCalibrator(K: 0.01, Q: 10) -->
<g id="edge7" class="edge">
<title>VGN01:ad:1(U16) 0..5: [10, 20, 30, 40, 50]&#45;&gt;2: AdCalibrator(K: 0.01, Q: 10)</title>
<path fill="none" stroke="black" d="M605.47,-180C646.99,-180 692.76,-180 734.59,-180"/>
<polygon fill="black" stroke="black" points="734.85,-183.5 744.85,-180 734.85,-176.5 734.85,-183.5"/>
</g>
<!-- 3: AdCalibrator(K: 0.014124, Q: 0) -->
<g id="node10" class="node">
<title>3: AdCalibrator(K: 0.014124, Q: 0)</title>
<g id="a_node10"><a xlink:title="Computes a signal from a 16&#45;bit AD channel via KQ calibration. This processor is implicitly created by the channel definition.">
<polygon fill="#e6e6e6" stroke="black" points="1021.03,-118.54 1021.03,-133.46 935.65,-144 814.91,-144 729.54,-133.46 729.54,-118.54 814.91,-108 935.65,-108 1021.03,-118.54"/>
<text text-anchor="middle" x="875.28" y="-122.3" font-family="Helvetica,sans-Serif" font-size="14.00">AdCalibrator(K: 0.014124, Q: 0)</text>
</a>
</g>
</g>
<!-- VGN01:ad:16(U16) 0..5: [10, 20, 30, 40, 50]&#45;&gt;3: AdCalibrator(K: 0.014124, Q: 0) -->
<g id="edge9" class="edge">
<title>VGN01:ad:16(U16) 0..5: [10, 20, 30, 40, 50]&#45;&gt;3: AdCalibrator(K: 0.014124, Q: 0)</title>
<path fill="none" stroke="black" d="M609.13,-126C644.6,-126 682.96,-126 719.19,-126"/>
<polygon fill="black" stroke="black" points="719.35,-129.5 729.35,-126 719.35,-122.5 719.35,-129.5"/>
</g>
<!-- 1: DistanceComputer(Up, k=0.01) -->
<g id="node6" class="node">
<title>1: DistanceComputer(Up, k=0.01)</title>
<g id="a_node6"><a xlink:title="Computes travelled distance signal from a 64&#45;bit IRC channel via KQ calibration while respecting Orientation. This processor is implicitly created by the channel definition.">
<polygon fill="#e6e6e6" stroke="black" points="1018.81,-64.54 1018.81,-79.46 934.73,-90 815.83,-90 731.76,-79.46 731.76,-64.54 815.83,-54 934.73,-54 1018.81,-64.54"/>
<text text-anchor="middle" x="875.28" y="-68.3" font-family="Helvetica,sans-Serif" font-size="14.00">DistanceComputer(Up, k=0.01)</text>
</a>
</g>
</g>
<!-- VGN01:irc:0(IrcValue) 0..5: [0, 20, 30, 90, 120]&#45;&gt;1: DistanceComputer(Up, k=0.01) -->
<g id="edge5" class="edge">
<title>VGN01:irc:0(IrcValue) 0..5: [0, 20, 30, 90, 120]&#45;&gt;1: DistanceComputer(Up, k=0.01)</title>
<path fill="none" stroke="black" d="M617.66,-72C651.51,-72 687.58,-72 721.66,-72"/>
<polygon fill="black" stroke="black" points="721.69,-75.5 731.69,-72 721.69,-68.5 721.69,-75.5"/>
</g>
<!-- ln(F64) 0..5: [0, 0.2, 0.3, 0.9, 1.2] -->
<g id="node7" class="node">
<title>ln(F64) 0..5: [0, 0.2, 0.3, 0.9, 1.2]</title>
<g id="a_node7"><a xlink:title="ln, Travelled distance">
<ellipse fill="#e6e6e6" stroke="black" stroke-width="2" cx="1264.89" cy="-72" rx="138.38" ry="18"/>
<text text-anchor="middle" x="1264.89" y="-68.3" font-family="Helvetica,sans-Serif" font-size="14.00">ln(F64) 0..5: [0, 0.2, 0.3, 0.9, 1.2]</text>
</a>
</g>
</g>
<!-- 1: DistanceComputer(Up, k=0.01)&#45;&gt;ln(F64) 0..5: [0, 0.2, 0.3, 0.9, 1.2] -->
<g id="edge6" class="edge">
<title>1: DistanceComputer(Up, k=0.01)&#45;&gt;ln(F64) 0..5: [0, 0.2, 0.3, 0.9, 1.2]</title>
<path fill="none" stroke="black" d="M1018.96,-72C1050.61,-72 1084.22,-72 1116.07,-72"/>
<polygon fill="black" stroke="black" points="1116.35,-75.5 1126.35,-72 1116.35,-68.5 1116.35,-75.5"/>
</g>
<!-- RK(F64) 0..5: [0, 0.1, 0.2, 0.3, 0.4] -->
<g id="node9" class="node">
<title>RK(F64) 0..5: [0, 0.1, 0.2, 0.3, 0.4]</title>
<g id="a_node9"><a xlink:title="RK, Primary Gauge">
<ellipse fill="#e6e6e6" stroke="black" stroke-width="2" cx="1264.89" cy="-180" rx="143.77" ry="18"/>
<text text-anchor="middle" x="1264.89" y="-176.3" font-family="Helvetica,sans-Serif" font-size="14.00">RK(F64) 0..5: [0, 0.1, 0.2, 0.3, 0.4]</text>
</a>
</g>
</g>
<!-- 2: AdCalibrator(K: 0.01, Q: 10)&#45;&gt;RK(F64) 0..5: [0, 0.1, 0.2, 0.3, 0.4] -->
<g id="edge8" class="edge">
<title>2: AdCalibrator(K: 0.01, Q: 10)&#45;&gt;RK(F64) 0..5: [0, 0.1, 0.2, 0.3, 0.4]</title>
<path fill="none" stroke="black" d="M1005.62,-180C1039.38,-180 1076.09,-180 1110.95,-180"/>
<polygon fill="black" stroke="black" points="1111.21,-183.5 1121.21,-180 1111.21,-176.5 1111.21,-183.5"/>
</g>
<!-- Rych(F64) 0..5: [0.141, 0.282, 0.424, 0.565, 0.706] -->
<g id="node11" class="node">
<title>Rych(F64) 0..5: [0.141, 0.282, 0.424, 0.565, 0.706]</title>
<g id="a_node11"><a xlink:title="Rych, Speed">
<ellipse fill="#e6e6e6" stroke="black" stroke-width="2" cx="1264.89" cy="-126" rx="207.96" ry="18"/>
<text text-anchor="middle" x="1264.89" y="-122.3" font-family="Helvetica,sans-Serif" font-size="14.00">Rych(F64) 0..5: [0.141, 0.282, 0.424, 0.565, 0.706]</text>
</a>
</g>
</g>
<!-- 3: AdCalibrator(K: 0.014124, Q: 0)&#45;&gt;Rych(F64) 0..5: [0.141, 0.282, 0.424, 0.565, 0.706] -->
<g id="edge10" class="edge">
<title>3: AdCalibrator(K: 0.014124, Q: 0)&#45;&gt;Rych(F64) 0..5: [0.141, 0.282, 0.424, 0.565, 0.706]</title>
<path fill="none" stroke="black" d="M1021.16,-126C1029.59,-126 1038.14,-126 1046.76,-126"/>
<polygon fill="black" stroke="black" points="1046.9,-129.5 1056.9,-126 1046.9,-122.5 1046.9,-129.5"/>
</g>
</g>
</svg>
