<?xml version="1.0" encoding="UTF-8" standalone="no"?>
<!DOCTYPE svg PUBLIC "-//W3C//DTD SVG 1.1//EN"
 "http://www.w3.org/Graphics/SVG/1.1/DTD/svg11.dtd">
<!-- Generated by graphviz version 2.43.0 (0)
 -->
<!-- Title: %3 Pages: 1 -->
<svg width="1234pt" height="152pt"
 viewBox="0.00 0.00 1233.93 152.00" xmlns="http://www.w3.org/2000/svg" xmlns:xlink="http://www.w3.org/1999/xlink">
<g id="graph0" class="graph" transform="scale(1 1) rotate(0) translate(4 148)">
<title>%3</title>
<polygon fill="white" stroke="transparent" points="-4,4 -4,-148 1229.93,-148 1229.93,4 -4,4"/>
<!-- 0: VGN01 Resampler -->
<g id="node1" class="node">
<title>0: VGN01 Resampler</title>
<g id="a_node1"><a xlink:title="VGN Resampler">
<polygon fill="#e6ffff" stroke="black" points="188.47,-64.54 188.47,-79.46 134.39,-90 57.92,-90 3.85,-79.46 3.85,-64.54 57.92,-54 134.39,-54 188.47,-64.54"/>
<polygon fill="none" stroke="black" points="192.47,-61.25 192.47,-82.75 134.78,-94 57.53,-94 -0.16,-82.75 -0.16,-61.25 57.53,-50 134.78,-50 192.47,-61.25"/>
<text text-anchor="middle" x="96.16" y="-68.3" font-family="Helvetica,sans-Serif" font-size="14.00">VGN01 Resampler</text>
</a>
</g>
</g>
<!-- VGN01:ad:1(U16) 0..4: [15, 30, 30, 40] -->
<g id="node2" class="node">
<title>VGN01:ad:1(U16) 0..4: [15, 30, 30, 40]</title>
<g id="a_node2"><a xlink:title="RK, Primary Gauge">
<polygon fill="#e6ffff" stroke="black" points="489.32,-144 240.32,-144 240.32,-108 489.32,-108 489.32,-144"/>
<text text-anchor="middle" x="364.82" y="-122.3" font-family="Helvetica,sans-Serif" font-size="14.00">VGN01:ad:1(U16) 0..4: [15, 30, 30, 40]</text>
</a>
</g>
</g>
<!-- 0: VGN01 Resampler&#45;&gt;VGN01:ad:1(U16) 0..4: [15, 30, 30, 40] -->
<g id="edge1" class="edge">
<title>0: VGN01 Resampler&#45;&gt;VGN01:ad:1(U16) 0..4: [15, 30, 30, 40]</title>
<path fill="none" stroke="black" d="M170.33,-87.15C189.21,-91.03 209.52,-95.19 228.32,-99 239.61,-101.29 251.44,-103.67 263.2,-106.03"/>
<polygon fill="black" stroke="black" points="262.56,-109.47 273.06,-108 263.94,-102.6 262.56,-109.47"/>
</g>
<!-- VGN01:ad:16(U16) 0..4: [15, 30, 30, 40] -->
<g id="node3" class="node">
<title>VGN01:ad:16(U16) 0..4: [15, 30, 30, 40]</title>
<g id="a_node3"><a xlink:title="Rych, Speed">
<polygon fill="#e6ffff" stroke="black" points="493.32,-90 236.32,-90 236.32,-54 493.32,-54 493.32,-90"/>
<text text-anchor="middle" x="364.82" y="-68.3" font-family="Helvetica,sans-Serif" font-size="14.00">VGN01:ad:16(U16) 0..4: [15, 30, 30, 40]</text>
</a>
</g>
</g>
<!-- 0: VGN01 Resampler&#45;&gt;VGN01:ad:16(U16) 0..4: [15, 30, 30, 40] -->
<g id="edge2" class="edge">
<title>0: VGN01 Resampler&#45;&gt;VGN01:ad:16(U16) 0..4: [15, 30, 30, 40]</title>
<path fill="none" stroke="black" d="M192.67,-72C203.43,-72 214.54,-72 225.7,-72"/>
<polygon fill="black" stroke="black" points="225.95,-75.5 235.95,-72 225.95,-68.5 225.95,-75.5"/>
</g>
<!-- VGN01:irc:0(IrcValue) 0..4: [10, 30, 30, 90] -->
<g id="node4" class="node">
<title>VGN01:irc:0(IrcValue) 0..4: [10, 30, 30, 90]</title>
<g id="a_node4"><a xlink:title="ln, Travelled distance">
<polygon fill="#e6ffff" stroke="black" points="501.32,-36 228.32,-36 228.32,0 501.32,0 501.32,-36"/>
<text text-anchor="middle" x="364.82" y="-14.3" font-family="Helvetica,sans-Serif" font-size="14.00">VGN01:irc:0(IrcValue) 0..4: [10, 30, 30, 90]</text>
</a>
</g>
</g>
<!-- 0: VGN01 Resampler&#45;&gt;VGN01:irc:0(IrcValue) 0..4: [10, 30, 30, 90] -->
<g id="edge3" class="edge">
<title>0: VGN01 Resampler&#45;&gt;VGN01:irc:0(IrcValue) 0..4: [10, 30, 30, 90]</title>
<path fill="none" stroke="black" d="M170.33,-56.85C189.21,-52.97 209.52,-48.81 228.32,-45 239.61,-42.71 251.44,-40.33 263.2,-37.97"/>
<polygon fill="black" stroke="black" points="263.94,-41.4 273.06,-36 262.56,-34.53 263.94,-41.4"/>
</g>
<!-- 2: AdCalibrator(K: 0.01, Q: 10) -->
<g id="node7" class="node">
<title>2: AdCalibrator(K: 0.01, Q: 10)</title>
<g id="a_node7"><a xlink:title="Computes a signal from a 16&#45;bit AD channel via KQ calibration. This processor is implicitly created by the channel definition.">
<polygon fill="#e6ffff" stroke="black" points="813.23,-118.54 813.23,-133.46 736.91,-144 628.97,-144 552.65,-133.46 552.65,-118.54 628.97,-108 736.91,-108 813.23,-118.54"/>
<text text-anchor="middle" x="682.94" y="-122.3" font-family="Helvetica,sans-Serif" font-size="14.00">AdCalibrator(K: 0.01, Q: 10)</text>
</a>
</g>
</g>
<!-- VGN01:ad:1(U16) 0..4: [15, 30, 30, 40]&#45;&gt;2: AdCalibrator(K: 0.01, Q: 10) -->
<g id="edge6" class="edge">
<title>VGN01:ad:1(U16) 0..4: [15, 30, 30, 40]&#45;&gt;2: AdCalibrator(K: 0.01, Q: 10)</title>
<path fill="none" stroke="black" d="M489.39,-126C506.77,-126 524.72,-126 542.36,-126"/>
<polygon fill="black" stroke="black" points="542.71,-129.5 552.71,-126 542.71,-122.5 542.71,-129.5"/>
</g>
<!-- 3: AdCalibrator(K: 0.014124, Q: 0) -->
<g id="node9" class="node">
<title>3: AdCalibrator(K: 0.014124, Q: 0)</title>
<g id="a_node9"><a xlink:title="Computes a signal from a 16&#45;bit AD channel via KQ calibration. This processor is implicitly created by the channel definition.">
<polygon fill="#e6ffff" stroke="black" points="828.68,-64.54 828.68,-79.46 743.31,-90 622.57,-90 537.19,-79.46 537.19,-64.54 622.57,-54 743.31,-54 828.68,-64.54"/>
<text text-anchor="middle" x="682.94" y="-68.3" font-family="Helvetica,sans-Serif" font-size="14.00">AdCalibrator(K: 0.014124, Q: 0)</text>
</a>
</g>
</g>
<!-- VGN01:ad:16(U16) 0..4: [15, 30, 30, 40]&#45;&gt;3: AdCalibrator(K: 0.014124, Q: 0) -->
<g id="edge8" class="edge">
<title>VGN01:ad:16(U16) 0..4: [15, 30, 30, 40]&#45;&gt;3: AdCalibrator(K: 0.014124, Q: 0)</title>
<path fill="none" stroke="black" d="M493.48,-72C504.5,-72 515.73,-72 526.93,-72"/>
<polygon fill="black" stroke="black" points="527.21,-75.5 537.21,-72 527.21,-68.5 527.21,-75.5"/>
</g>
<!-- 1: DistanceComputer(Up, k=0.01) -->
<g id="node5" class="node">
<title>1: DistanceComputer(Up, k=0.01)</title>
<g id="a_node5"><a xlink:title="Computes travelled distance signal from a 64&#45;bit IRC channel via KQ calibration while respecting Orientation. This processor is implicitly created by the channel definition.">
<polygon fill="#e6ffff" stroke="black" points="826.46,-10.54 826.46,-25.46 742.39,-36 623.49,-36 539.41,-25.46 539.41,-10.54 623.49,0 742.39,0 826.46,-10.54"/>
<text text-anchor="middle" x="682.94" y="-14.3" font-family="Helvetica,sans-Serif" font-size="14.00">DistanceComputer(Up, k=0.01)</text>
</a>
</g>
</g>
<!-- VGN01:irc:0(IrcValue) 0..4: [10, 30, 30, 90]&#45;&gt;1: DistanceComputer(Up, k=0.01) -->
<g id="edge4" class="edge">
<title>VGN01:irc:0(IrcValue) 0..4: [10, 30, 30, 90]&#45;&gt;1: DistanceComputer(Up, k=0.01)</title>
<path fill="none" stroke="black" d="M501.71,-18C510.87,-18 520.13,-18 529.36,-18"/>
<polygon fill="black" stroke="black" points="529.36,-21.5 539.36,-18 529.36,-14.5 529.36,-21.5"/>
</g>
<!-- ln(F64) 0..4: [0.1, 0.3, 0.3, 0.9] -->
<g id="node6" class="node">
<title>ln(F64) 0..4: [0.1, 0.3, 0.3, 0.9]</title>
<g id="a_node6"><a xlink:title="ln, Travelled distance">
<ellipse fill="#e6ffff" stroke="black" stroke-width="2" cx="1045.24" cy="-18" rx="128.88" ry="18"/>
<text text-anchor="middle" x="1045.24" y="-14.3" font-family="Helvetica,sans-Serif" font-size="14.00">ln(F64) 0..4: [0.1, 0.3, 0.3, 0.9]</text>
</a>
</g>
</g>
<!-- 1: DistanceComputer(Up, k=0.01)&#45;&gt;ln(F64) 0..4: [0.1, 0.3, 0.3, 0.9] -->
<g id="edge5" class="edge">
<title>1: DistanceComputer(Up, k=0.01)&#45;&gt;ln(F64) 0..4: [0.1, 0.3, 0.3, 0.9]</title>
<path fill="none" stroke="black" d="M826.6,-18C852.81,-18 880.12,-18 906.19,-18"/>
<polygon fill="black" stroke="black" points="906.5,-21.5 916.5,-18 906.5,-14.5 906.5,-21.5"/>
</g>
<!-- RK(F64) 0..4: [0.05, 0.2, 0.2, 0.3] -->
<g id="node8" class="node">
<title>RK(F64) 0..4: [0.05, 0.2, 0.2, 0.3]</title>
<g id="a_node8"><a xlink:title="RK, Primary Gauge">
<ellipse fill="#e6ffff" stroke="black" stroke-width="2" cx="1045.24" cy="-126" rx="139.18" ry="18"/>
<text text-anchor="middle" x="1045.24" y="-122.3" font-family="Helvetica,sans-Serif" font-size="14.00">RK(F64) 0..4: [0.05, 0.2, 0.2, 0.3]</text>
</a>
</g>
</g>
<!-- 2: AdCalibrator(K: 0.01, Q: 10)&#45;&gt;RK(F64) 0..4: [0.05, 0.2, 0.2, 0.3] -->
<g id="edge7" class="edge">
<title>2: AdCalibrator(K: 0.01, Q: 10)&#45;&gt;RK(F64) 0..4: [0.05, 0.2, 0.2, 0.3]</title>
<path fill="none" stroke="black" d="M813.25,-126C840.04,-126 868.46,-126 895.86,-126"/>
<polygon fill="black" stroke="black" points="895.91,-129.5 905.91,-126 895.91,-122.5 895.91,-129.5"/>
</g>
<!-- Rych(F64) 0..4: [0.212, 0.424, 0.424, 0.565] -->
<g id="node10" class="node">
<title>Rych(F64) 0..4: [0.212, 0.424, 0.424, 0.565]</title>
<g id="a_node10"><a xlink:title="Rych, Speed">
<ellipse fill="#e6ffff" stroke="black" stroke-width="2" cx="1045.24" cy="-72" rx="180.87" ry="18"/>
<text text-anchor="middle" x="1045.24" y="-68.3" font-family="Helvetica,sans-Serif" font-size="14.00">Rych(F64) 0..4: [0.212, 0.424, 0.424, 0.565]</text>
</a>
</g>
</g>
<!-- 3: AdCalibrator(K: 0.014124, Q: 0)&#45;&gt;Rych(F64) 0..4: [0.212, 0.424, 0.424, 0.565] -->
<g id="edge9" class="edge">
<title>3: AdCalibrator(K: 0.014124, Q: 0)&#45;&gt;Rych(F64) 0..4: [0.212, 0.424, 0.424, 0.565]</title>
<path fill="none" stroke="black" d="M828.67,-72C837.11,-72 845.66,-72 854.23,-72"/>
<polygon fill="black" stroke="black" points="854.31,-75.5 864.31,-72 854.31,-68.5 854.31,-75.5"/>
</g>
</g>
</svg>
